reset
set logscale x
set xrange[0.01 : *]
plot './StoppingPowerProton.dat' using 3:4 w l title "Proton",\
'./StoppingPowerHelium.dat' using 3:4 w l title "Helium",\
'./StoppingPowerCarbon.dat' using 3:4 w l title "Carbon"


#reset
#set logscale x
#set xrange[0.01 : *]
#plot './StoppingPowerProton.dat' using 1:2 w l title "Proton",\
'./StoppingPowerHelium.dat' using 1:2 w l title "Helium",\
'./StoppingPowerCarbon.dat' using 1:2 w l title "Carbon"

