# first line is penetration depth steps in mm, second energy deposited in MeV 
0.0000 14519285.750000 
0.5000 14780138.625100 
1.0000 14841506.281000 
1.5000 14897604.312900 
2.0000 14954071.500100 
2.5000 15003375.562400 
3.0000 15055758.625000 
3.5000 15100185.687400 
4.0000 15149896.905900 
4.5000 15199156.437800 
5.0000 15247982.343800 
5.5000 15291529.094000 
6.0000 15339652.468500 
6.5000 15386843.562400 
7.0000 15436725.812200 
7.5000 15480882.844100 
8.0000 15526168.687800 
8.5000 15567902.625000 
9.0000 15618820.812400 
9.5000 15666657.031200 
10.0000 15715933.093900 
10.5000 15758451.125000 
11.0000 15808948.312500 
11.5000 15855480.000000 
12.0000 15903948.250000 
12.5000 15947527.062500 
13.0000 15996957.437500 
13.5000 16042829.125000 
14.0000 16090260.937500 
14.5000 16143729.000000 
15.0000 16191133.000000 
15.5000 16241336.437500 
16.0000 16292946.875000 
16.5000 16346936.062500 
17.0000 16396337.687500 
17.5000 16446736.625000 
18.0000 16501800.500000 
18.5000 16551695.625000 
19.0000 16603275.875000 
19.5000 16653483.812500 
20.0000 16714101.250000 
20.5000 16772242.125000 
21.0000 16826697.250000 
21.5000 16883466.375000 
22.0000 16939145.125000 
22.5000 16995810.375000 
23.0000 17056804.937500 
23.5000 17118408.375000 
24.0000 17177335.812500 
24.5000 17240350.250000 
25.0000 17297897.562500 
25.5000 17363756.875000 
26.0000 17421796.250000 
26.5000 17485613.500000 
27.0000 17549745.125000 
27.5000 17612426.750000 
28.0000 17682014.125000 
28.5000 17750311.187500 
29.0000 17815490.375000 
29.5000 17886813.875000 
30.0000 17954195.187500 
30.5000 18024558.750000 
31.0000 18095458.375000 
31.5000 18166409.187500 
32.0000 18240157.062500 
32.5000 18316385.812500 
33.0000 18391312.875000 
33.5000 18470734.625000 
34.0000 18550216.687500 
34.5000 18629194.562500 
35.0000 18718514.375000 
35.5000 18796829.750000 
36.0000 18878183.812500 
36.5000 18967305.562500 
37.0000 19053148.187500 
37.5000 19146181.937500 
38.0000 19230095.687500 
38.5000 19315505.187500 
39.0000 19411186.375000 
39.5000 19514907.750000 
40.0000 19607860.312500 
40.5000 19708405.437500 
41.0000 19807490.937500 
41.5000 19909697.187500 
42.0000 20005255.062500 
42.5000 20117316.687500 
43.0000 20230866.250000 
43.5000 20338796.125000 
44.0000 20454136.937500 
44.5000 20575337.187500 
45.0000 20693874.375000 
45.5000 20814263.312500 
46.0000 20934610.875000 
46.5000 21066653.875000 
47.0000 21198522.812500 
47.5000 21337155.875000 
48.0000 21471160.937500 
48.5000 21614992.500000 
49.0000 21759458.062500 
49.5000 21912431.000000 
50.0000 22065048.875000 
50.5000 22231602.437500 
51.0000 22391404.062500 
51.5000 22553958.500000 
52.0000 22732331.187500 
52.5000 22913021.000000 
53.0000 23094752.250000 
53.5000 23286230.000000 
54.0000 23490623.250000 
54.5000 23698056.062500 
55.0000 23917375.000000 
55.5000 24150054.562500 
56.0000 24379932.250000 
56.5000 24623038.437500 
57.0000 24880678.187500 
57.5000 25148811.500000 
58.0000 25427397.250000 
58.5000 25730849.250000 
59.0000 26037776.250000 
59.5000 26367381.062500 
60.0000 26710337.187500 
60.5000 27080769.562500 
61.0000 27471513.500000 
61.5000 27886873.125000 
62.0000 28321950.062500 
62.5000 28784568.000000 
63.0000 29285424.125000 
63.5000 29792593.625000 
64.0000 30344471.376000 
64.5000 30921679.937000 
65.0000 31529525.125000 
65.5000 32157632.000000 
66.0000 32803409.125000 
66.5000 33463222.125000 
67.0000 34137691.500000 
67.5000 34804589.625000 
68.0000 35460144.125000 
68.5000 36107288.750000 
69.0000 36733434.375000 
69.5000 37291003.125000 
70.0000 37813151.250000 
70.5000 38255615.500000 
71.0000 38614702.000000 
71.5000 38849613.625000 
72.0000 38986031.000000 
72.5000 38982761.500000 
73.0000 38856142.000000 
73.5000 38571797.000000 
74.0000 38133891.625000 
74.5000 37535484.250000 
75.0000 36759635.750000 
75.5000 35863165.125000 
76.0000 34837608.750000 
76.5000 33632543.500000 
77.0000 32303679.000000 
77.5000 30840301.374000 
78.0000 29293423.187500 
78.5000 27693323.625000 
79.0000 26005898.375000 
79.5000 24309039.875000 
80.0000 22590601.750000 
80.5000 20849714.375000 
81.0000 19154933.937500 
81.5000 17484111.625000 
82.0000 15889347.843700 
82.5000 14356539.437600 
83.0000 12908974.875100 
83.5000 11542627.749900 
84.0000 10261790.249600 
84.5000 9081916.406200 
85.0000 7991971.343400 
85.5000 7010667.359500 
86.0000 6132731.547000 
86.5000 5347098.296800 
87.0000 4640426.328000 
87.5000 4021409.062800 
88.0000 3475406.688000 
88.5000 3003973.523480 
89.0000 2602045.656270 
89.5000 2257148.281240 
90.0000 1963443.550800 
90.5000 1712115.742180 
91.0000 1503062.843720 
91.5000 1335943.257810 
92.0000 1189373.378890 
92.5000 1064119.328110 
93.0000 964833.261700 
93.5000 888215.003910 
94.0000 822918.824210 
94.5000 770110.812480 
95.0000 724684.955070 
95.5000 689608.501950 
96.0000 662312.523450 
96.5000 635571.658190 
97.0000 613054.128910 
97.5000 596131.556620 
98.0000 581032.027340 
98.5000 568565.128910 
99.0000 555849.437480 
99.5000 545979.462880 
100.0000 536805.468740 
100.5000 527548.324210 
101.0000 520520.628920 
101.5000 512451.789070 
102.0000 505435.344740 
102.5000 498336.775390 
103.0000 492298.625990 
103.5000 484647.057600 
104.0000 479333.558590 
104.5000 471994.345690 
105.0000 467928.972660 
105.5000 460947.996100 
106.0000 454551.688480 
106.5000 449387.782230 
107.0000 444074.329120 
107.5000 438161.351560 
108.0000 433373.102550 
108.5000 428519.667000 
109.0000 423132.372040 
109.5000 417929.521490 
110.0000 412748.875970 
110.5000 407783.722670 
111.0000 403056.063460 
111.5000 397790.829120 
112.0000 392686.980470 
112.5000 388799.973640 
113.0000 383252.603520 
113.5000 378483.176790 
114.0000 374399.777350 
114.5000 369799.129860 
115.0000 365331.590820 
115.5000 361500.925770 
116.0000 358141.552700 
116.5000 352008.456060 
117.0000 348348.867200 
117.5000 344757.237310 
118.0000 339120.771480 
118.5000 335170.692390 
119.0000 331896.879870 
119.5000 327981.550810 
120.0000 325086.047860 
120.5000 320515.735350 
121.0000 316059.526370 
121.5000 313426.734360 
122.0000 309215.949230 
122.5000 306047.616207 
123.0000 302879.401378 
123.5000 299440.407234 
124.0000 295547.926761 
124.5000 292321.407225 
125.0000 289574.832033 
125.5000 286494.790038 
126.0000 282543.877931 
126.5000 279345.362304 
127.0000 276680.913085 
127.5000 273543.843753 
128.0000 269465.225588 
128.5000 266561.696290 
129.0000 263684.536132 
129.5000 260239.952152 
130.0000 257740.575196 
130.5000 255262.201661 
131.0000 251734.593264 
131.5000 247972.007813 
132.0000 245192.370115 
132.5000 243042.739747 
133.0000 239946.922365 
133.5000 237622.931642 
134.0000 235240.865234 
134.5000 232178.245607 
135.0000 230123.381348 
135.5000 226070.881348 
136.0000 223581.125486 
136.5000 221580.237794 
137.0000 218469.066892 
137.5000 216381.858887 
138.0000 214424.689942 
138.5000 211317.733887 
139.0000 208324.682129 
139.5000 205726.671388 
140.0000 203703.626467 
140.5000 201798.669918 
141.0000 198619.824217 
141.5000 195538.366210 
142.0000 193824.423830 
142.5000 191060.202150 
143.0000 189167.794434 
143.5000 187244.896486 
144.0000 184578.699710 
144.5000 182770.812986 
145.0000 180521.499999 
145.5000 178759.549804 
146.0000 177334.598631 
146.5000 175107.299317 
147.0000 173016.719728 
147.5000 170854.662597 
148.0000 168473.478027 
148.5000 166896.967774 
149.0000 164544.034667 
149.5000 162384.210938 
150.0000 160778.858887 
150.5000 158454.059081 
151.0000 156609.667481 
151.5000 155576.284182 
152.0000 153356.038574 
152.5000 151947.949706 
153.0000 150094.748048 
153.5000 147672.795898 
154.0000 145808.943847 
154.5000 144007.604002 
155.0000 143080.122561 
155.5000 141180.113281 
156.0000 139569.613282 
156.5000 137604.177735 
157.0000 136084.003905 
157.5000 134551.515138 
158.0000 133216.258791 
158.5000 131490.735838 
159.0000 129763.220213 
159.5000 128529.483888 
160.0000 127046.317138 
160.5000 125656.955076 
161.0000 123983.343264 
161.5000 122470.202392 
162.0000 120900.287107 
162.5000 118697.613527 
163.0000 117620.138915 
163.5000 116204.664308 
164.0000 114428.287838 
164.5000 113416.404542 
165.0000 111724.795657 
165.5000 110871.009524 
166.0000 109280.653565 
166.5000 108804.810547 
167.0000 107495.655272 
167.5000 105646.718022 
168.0000 104438.945311 
168.5000 103798.333740 
169.0000 101796.587403 
169.5000 100870.346922 
170.0000 99611.085451 
170.5000 97816.140379 
171.0000 96701.154782 
171.5000 95801.362304 
172.0000 94688.587403 
172.5000 93648.890138 
173.0000 92417.235840 
173.5000 90657.062991 
174.0000 89971.758789 
174.5000 88707.530761 
175.0000 87461.507814 
175.5000 87003.897218 
176.0000 86013.942383 
176.5000 85201.397216 
177.0000 84015.230469 
177.5000 82767.852293 
178.0000 81738.621582 
178.5000 80708.625974 
179.0000 79337.719238 
179.5000 79070.077880 
180.0000 78248.816406 
180.5000 76607.718506 
181.0000 76076.297611 
181.5000 75132.790041 
182.0000 74094.535403 
182.5000 72947.795407 
183.0000 71884.796142 
183.5000 70958.936279 
184.0000 70182.128662 
184.5000 68692.428468 
185.0000 68165.724853 
185.5000 67656.281247 
186.0000 66748.261477 
186.5000 65960.268065 
187.0000 65316.534914 
187.5000 64525.041748 
188.0000 63135.766724 
188.5000 62325.256346 
189.0000 61565.857057 
189.5000 61189.182131 
190.0000 60443.287723 
190.5000 59751.135008 
191.0000 59005.363646 
191.5000 58256.104981 
192.0000 57713.618651 
192.5000 56736.080686 
193.0000 55575.472781 
193.5000 54978.056886 
194.0000 54284.843260 
194.5000 53777.433226 
195.0000 53340.986692 
195.5000 52393.865235 
196.0000 51644.054322 
196.5000 50775.426146 
197.0000 50434.712896 
197.5000 49441.221679 
198.0000 48872.341553 
198.5000 48600.651369 
199.0000 47965.721437 
199.5000 47112.936768 
200.0000 46565.884399 
200.5000 45810.184080 
201.0000 45324.218140 
201.5000 44976.399901 
202.0000 43924.022950 
202.5000 43619.812622 
203.0000 43092.432982 
203.5000 42602.034179 
204.0000 42201.721678 
204.5000 41568.794677 
205.0000 40827.371825 
205.5000 40615.526735 
206.0000 40312.226441 
206.5000 39341.244630 
207.0000 39118.563841 
207.5000 38815.382570 
208.0000 37941.288937 
208.5000 37634.668948 
209.0000 36973.619508 
209.5000 36617.525881 
210.0000 35944.894775 
210.5000 35696.448366 
211.0000 35176.297975 
211.5000 34434.828979 
212.0000 34386.997195 
212.5000 33727.703491 
213.0000 33126.372440 
213.5000 32822.429933 
214.0000 32443.598449 
214.5000 31961.017332 
215.0000 31558.799558 
215.5000 31232.951174 
216.0000 30914.061706 
216.5000 30456.301757 
217.0000 29905.205017 
217.5000 29406.392212 
218.0000 29074.910583 
218.5000 28589.136291 
219.0000 28071.062500 
219.5000 28141.714172 
220.0000 27750.245544 
220.5000 27692.795776 
221.0000 26936.281677 
221.5000 26796.771301 
222.0000 26569.633118 
222.5000 25977.205200 
223.0000 25525.338196 
223.5000 25226.982483 
224.0000 25141.649170 
224.5000 25051.184753 
225.0000 24315.500549 
225.5000 24054.954895 
226.0000 23661.985535 
226.5000 23483.775879 
227.0000 23111.717529 
227.5000 22814.932800 
228.0000 22818.493103 
228.5000 22564.848572 
229.0000 22092.531860 
229.5000 21834.004700 
230.0000 21616.543701 
230.5000 21234.676636 
231.0000 20884.346985 
231.5000 20648.616211 
232.0000 20380.353149 
232.5000 20097.649597 
233.0000 19879.266907 
233.5000 19715.475159 
234.0000 19430.091369 
234.5000 19050.732971 
235.0000 18864.520447 
235.5000 18800.817322 
236.0000 18342.772522 
236.5000 18019.314758 
237.0000 17744.561584 
237.5000 17461.354248 
238.0000 17295.368286 
238.5000 17230.289978 
239.0000 17136.249634 
239.5000 17116.163757 
240.0000 16757.944000 
240.5000 16610.568115 
241.0000 16069.619018 
241.5000 16061.858642 
242.0000 15816.867493 
242.5000 15731.136261 
243.0000 15513.666046 
243.5000 15058.613586 
244.0000 15102.090576 
244.5000 14609.452210 
245.0000 14483.338776 
245.5000 14358.243683 
246.0000 13975.743591 
246.5000 13931.233795 
247.0000 13614.103271 
247.5000 13565.136536 
248.0000 13332.423248 
248.5000 13180.729492 
249.0000 13159.578003 
249.5000 12789.288116 
250.0000 12765.096191 
250.5000 12570.324463 
251.0000 12193.434753 
251.5000 12001.810608 
252.0000 11804.878205 
252.5000 11940.509216 
253.0000 11495.335113 
253.5000 11262.844025 
254.0000 11271.351074 
254.5000 11083.548218 
255.0000 11027.541535 
255.5000 10818.179840 
256.0000 10671.935638 
256.5000 10575.722412 
257.0000 10502.645447 
257.5000 10425.871734 
258.0000 10281.229889 
258.5000 10183.421234 
259.0000 10088.148834 
259.5000 9937.273132 
260.0000 9853.044983 
260.5000 9752.671082 
261.0000 9680.587860 
261.5000 9423.400451 
262.0000 9369.128143 
262.5000 9237.808472 
263.0000 9181.758454 
263.5000 8913.948746 
264.0000 8793.785080 
264.5000 8685.338562 
265.0000 8504.250305 
265.5000 8507.490753 
266.0000 8523.076950 
266.5000 8391.212982 
267.0000 8294.600098 
267.5000 8224.212967 
268.0000 8103.333145 
268.5000 7901.081772 
269.0000 7906.114075 
269.5000 7925.581207 
270.0000 7693.221374 
270.5000 7655.004440 
271.0000 7473.233948 
271.5000 7388.331192 
272.0000 7232.385452 
272.5000 7022.674438 
273.0000 6992.764618 
273.5000 6857.036789 
274.0000 6805.271011 
274.5000 6712.443726 
275.0000 6705.354019 
275.5000 6678.783905 
276.0000 6406.649429 
276.5000 6525.017426 
277.0000 6358.105316 
277.5000 6190.948791 
278.0000 6113.934967 
278.5000 6026.072052 
279.0000 5998.745133 
279.5000 6040.523453 
280.0000 6028.869171 
280.5000 5859.822037 
281.0000 5793.099991 
281.5000 5749.154907 
282.0000 5696.600311 
282.5000 5490.596847 
283.0000 5426.515564 
283.5000 5508.608993 
284.0000 5280.254120 
284.5000 5257.234680 
285.0000 5153.821708 
285.5000 5178.604904 
286.0000 5066.416305 
286.5000 5100.768112 
287.0000 5109.658859 
287.5000 4947.162583 
288.0000 4759.052483 
288.5000 4785.971909 
289.0000 4675.549362 
289.5000 4630.974228 
290.0000 4627.173195 
290.5000 4551.648560 
291.0000 4553.936157 
291.5000 4523.044266 
292.0000 4385.729233 
292.5000 4395.142288 
293.0000 4314.835274 
293.5000 4304.695396 
294.0000 4153.553993 
294.5000 4192.506897 
295.0000 4114.961014 
295.5000 4132.801369 
296.0000 4011.877922 
296.5000 3922.729149 
297.0000 3888.762985 
297.5000 3844.053184 
298.0000 3825.955544 
298.5000 3717.980217 
299.0000 3683.784455 
299.5000 3631.846565 
300.0000 3635.767914 
300.5000 3551.239502 
301.0000 3553.948974 
301.5000 3515.088036 
302.0000 3517.354904 
302.5000 3388.015587 
303.0000 3466.527946 
303.5000 3395.607742 
304.0000 3317.867699 
304.5000 3272.022987 
305.0000 3221.753555 
305.5000 3199.833946 
306.0000 3106.793289 
306.5000 3164.923332 
307.0000 3041.839569 
307.5000 3081.157898 
308.0000 3031.657806 
308.5000 2996.436790 
309.0000 2956.714294 
309.5000 2920.131912 
310.0000 2817.572731 
310.5000 2882.903069 
311.0000 2884.267403 
311.5000 2858.807617 
312.0000 2798.307289 
312.5000 2810.395081 
313.0000 2787.049354 
313.5000 2766.875237 
314.0000 2667.492577 
314.5000 2558.920967 
315.0000 2627.292000 
315.5000 2594.524593 
316.0000 2622.264580 
316.5000 2591.651413 
317.0000 2550.147854 
317.5000 2566.452614 
318.0000 2463.173691 
318.5000 2399.794422 
319.0000 2421.142246 
319.5000 2388.722824 
320.0000 2378.269188 
320.5000 2309.739212 
321.0000 2360.852898 
321.5000 2313.065147 
322.0000 2230.268692 
322.5000 2306.528751 
323.0000 2347.567219 
323.5000 2253.244442 
324.0000 2202.457771 
324.5000 2170.549660 
325.0000 2112.282139 
325.5000 2079.853973 
326.0000 2133.233841 
326.5000 2177.581745 
327.0000 2069.549519 
327.5000 1999.448906 
328.0000 2022.308319 
328.5000 1980.552662 
329.0000 2021.074287 
329.5000 2001.260178 
330.0000 1948.024616 
330.5000 1954.542217 
331.0000 1919.979263 
331.5000 1897.407177 
332.0000 1850.043159 
332.5000 1921.686668 
333.0000 1850.143425 
333.5000 1889.731407 
334.0000 1886.572620 
334.5000 1832.515766 
335.0000 1816.054863 
335.5000 1783.280239 
336.0000 1725.181538 
336.5000 1701.866299 
337.0000 1687.503471 
337.5000 1678.827248 
338.0000 1653.152760 
338.5000 1681.304813 
339.0000 1648.913280 
339.5000 1666.196682 
340.0000 1665.145592 
340.5000 1624.310860 
341.0000 1626.034714 
341.5000 1561.450321 
342.0000 1601.800846 
342.5000 1560.729500 
343.0000 1593.440357 
343.5000 1563.885597 
344.0000 1543.437092 
344.5000 1508.903225 
345.0000 1499.980282 
345.5000 1493.839912 
346.0000 1505.379467 
346.5000 1491.277359 
347.0000 1473.054337 
347.5000 1397.383736 
348.0000 1425.090420 
348.5000 1455.779324 
349.0000 1379.995678 
349.5000 1397.166447 
350.0000 1383.683002 
350.5000 1408.459578 
351.0000 1367.278557 
351.5000 1379.345695 
352.0000 1389.836975 
352.5000 1363.230629 
353.0000 1381.325901 
353.5000 1339.443611 
354.0000 1322.123867 
354.5000 1299.195057 
355.0000 1271.968094 
355.5000 1245.733662 
356.0000 1249.792965 
356.5000 1250.620903 
357.0000 1243.696672 
357.5000 1244.543331 
358.0000 1223.301781 
358.5000 1258.669838 
359.0000 1259.363180 
359.5000 1225.862566 
360.0000 1202.013290 
360.5000 1203.962841 
361.0000 1192.671000 
361.5000 1185.135979 
362.0000 1223.878902 
362.5000 1238.091631 
363.0000 1180.327728 
363.5000 1141.170927 
364.0000 1137.844221 
364.5000 1165.130581 
365.0000 1125.078760 
365.5000 1115.678062 
366.0000 1119.904358 
366.5000 1100.860235 
367.0000 1101.206392 
367.5000 1086.097546 
368.0000 1076.535490 
368.5000 1091.398911 
369.0000 1104.397270 
369.5000 1101.734261 
370.0000 1064.179529 
370.5000 1105.381466 
371.0000 1071.203104 
371.5000 1063.090633 
372.0000 1036.725227 
372.5000 1066.278019 
373.0000 1045.991909 
373.5000 1050.761240 
374.0000 1054.480127 
374.5000 1025.013355 
375.0000 1056.086914 
375.5000 1019.327564 
376.0000 1000.820078 
376.5000 991.611151 
377.0000 995.091055 
377.5000 980.064596 
378.0000 1010.761257 
378.5000 990.100298 
379.0000 978.921087 
379.5000 970.215279 
380.0000 979.148682 
380.5000 918.869450 
381.0000 920.890089 
381.5000 940.123539 
382.0000 946.594009 
382.5000 944.217167 
383.0000 940.525730 
383.5000 934.325916 
384.0000 926.806623 
384.5000 914.354767 
385.0000 907.830170 
385.5000 903.549372 
386.0000 911.408525 
386.5000 884.019362 
387.0000 930.270866 
387.5000 910.908289 
388.0000 905.866636 
388.5000 904.620493 
389.0000 890.674133 
389.5000 871.239344 
390.0000 913.145098 
390.5000 929.411743 
391.0000 875.258867 
391.5000 870.512436 
392.0000 921.676334 
392.5000 890.259472 
393.0000 892.254204 
393.5000 886.546467 
394.0000 880.038052 
394.5000 836.541895 
395.0000 863.243795 
395.5000 866.197903 
396.0000 868.204237 
396.5000 849.479685 
397.0000 827.214222 
397.5000 828.983231 
398.0000 860.415256 
398.5000 832.890202 
399.0000 804.108013 
399.5000 812.702551 
400.0000 818.053041 
400.5000 838.643402 
401.0000 821.342121 
401.5000 816.491283 
402.0000 800.783220 
402.5000 807.545574 
403.0000 806.309845 
403.5000 769.387920 
404.0000 783.538572 
404.5000 795.740253 
405.0000 789.789766 
405.5000 775.915588 
406.0000 793.269798 
406.5000 781.280769 
407.0000 769.949013 
407.5000 737.142878 
408.0000 732.700125 
408.5000 741.628557 
409.0000 746.468161 
409.5000 778.292139 
410.0000 735.483261 
410.5000 733.108652 
411.0000 735.020800 
411.5000 715.979368 
412.0000 702.521584 
412.5000 726.308289 
413.0000 715.037996 
413.5000 723.165726 
414.0000 713.475533 
414.5000 733.511858 
415.0000 704.379446 
415.5000 707.281029 
416.0000 731.707106 
416.5000 715.811132 
417.0000 714.357201 
417.5000 690.836048 
418.0000 675.620903 
418.5000 692.440248 
419.0000 689.331644 
419.5000 711.221706 
420.0000 691.019983 
420.5000 682.455789 
421.0000 681.710619 
421.5000 689.701081 
422.0000 702.499584 
422.5000 688.702797 
423.0000 691.518986 
423.5000 646.939289 
424.0000 665.536024 
424.5000 651.994799 
425.0000 669.409637 
425.5000 682.613415 
426.0000 656.703464 
426.5000 660.524517 
427.0000 656.447444 
427.5000 650.443129 
428.0000 614.971840 
428.5000 636.265651 
429.0000 644.354374 
429.5000 650.030573 
430.0000 630.616512 
430.5000 607.168811 
431.0000 615.862674 
431.5000 622.529134 
432.0000 618.193012 
432.5000 603.324598 
433.0000 595.820021 
433.5000 620.620564 
434.0000 610.437387 
434.5000 611.002619 
435.0000 569.047851 
435.5000 585.447373 
436.0000 580.519779 
436.5000 561.992934 
437.0000 587.855402 
437.5000 568.104718 
438.0000 579.828264 
438.5000 611.961550 
439.0000 572.011462 
439.5000 606.347605 
440.0000 587.614903 
440.5000 590.970766 
441.0000 574.599596 
441.5000 580.155964 
442.0000 566.800435 
442.5000 551.906835 
443.0000 545.744734 
443.5000 554.564074 
444.0000 572.380081 
444.5000 578.627560 
445.0000 570.915951 
445.5000 561.760853 
446.0000 561.517717 
446.5000 554.896940 
447.0000 541.211531 
447.5000 542.969828 
448.0000 555.190548 
448.5000 574.762667 
449.0000 523.262074 
449.5000 539.630852 
450.0000 544.130041 
450.5000 538.606205 
451.0000 540.314371 
451.5000 568.059576 
452.0000 526.416091 
452.5000 515.439645 
453.0000 530.250700 
453.5000 512.059309 
454.0000 526.630373 
454.5000 532.681603 
455.0000 508.396292 
455.5000 513.517438 
456.0000 515.889226 
456.5000 503.541142 
457.0000 505.593960 
457.5000 521.129674 
458.0000 501.578073 
458.5000 531.593729 
459.0000 529.990243 
459.5000 519.622288 
460.0000 513.455887 
460.5000 525.934403 
461.0000 541.307054 
461.5000 526.274690 
462.0000 523.581969 
462.5000 540.166767 
463.0000 508.165867 
463.5000 514.128798 
464.0000 503.571973 
464.5000 526.715820 
465.0000 510.342786 
465.5000 499.834599 
466.0000 506.810472 
466.5000 492.745543 
467.0000 487.106056 
467.5000 488.528852 
468.0000 489.588753 
468.5000 488.242341 
469.0000 493.978737 
469.5000 505.443307 
470.0000 491.659045 
470.5000 467.848360 
471.0000 485.816123 
471.5000 476.601850 
472.0000 465.409365 
472.5000 497.940008 
473.0000 482.970237 
473.5000 493.105786 
474.0000 481.243913 
474.5000 488.596331 
475.0000 462.997482 
475.5000 469.073629 
476.0000 478.592185 
476.5000 462.567629 
477.0000 489.336367 
477.5000 458.671171 
478.0000 455.185131 
478.5000 452.694633 
479.0000 460.297316 
479.5000 474.340091 
480.0000 469.461346 
480.5000 454.041855 
481.0000 451.837116 
481.5000 471.381927 
482.0000 464.333967 
482.5000 458.914359 
483.0000 448.934047 
483.5000 433.373159 
484.0000 449.422436 
484.5000 436.911844 
485.0000 473.789092 
485.5000 437.139181 
486.0000 460.683645 
486.5000 457.510812 
487.0000 430.960499 
487.5000 441.021899 
488.0000 430.100982 
488.5000 429.920215 
489.0000 452.196563 
489.5000 426.085780 
490.0000 447.999850 
490.5000 431.267877 
491.0000 430.308145 
491.5000 425.429262 
492.0000 393.418838 
492.5000 419.310292 
493.0000 405.626444 
493.5000 408.231091 
494.0000 406.597936 
494.5000 395.894353 
495.0000 423.512755 
495.5000 424.727007 
496.0000 405.236057 
496.5000 401.948509 
497.0000 406.073627 
497.5000 414.578951 
498.0000 409.737761 
498.5000 408.318173 
499.0000 392.795893 
499.5000 419.649882 
500.0000 403.013169 
500.5000 403.830844 
501.0000 406.552964 
501.5000 387.724246 
502.0000 421.473076 
502.5000 399.992826 
503.0000 411.005326 
503.5000 400.928612 
504.0000 408.113813 
504.5000 406.751096 
505.0000 425.755718 
505.5000 403.052004 
506.0000 407.972587 
506.5000 382.957931 
507.0000 408.308082 
507.5000 406.435235 
508.0000 408.844677 
508.5000 393.048500 
509.0000 398.429174 
509.5000 376.497992 
510.0000 390.272973 
510.5000 386.460397 
511.0000 389.534554 
511.5000 386.610146 
512.0000 390.270826 
512.5000 407.525717 
513.0000 391.998117 
513.5000 381.402606 
514.0000 389.861544 
514.5000 379.870761 
515.0000 386.227376 
515.5000 370.560728 
516.0000 379.351156 
516.5000 368.039308 
517.0000 373.958695 
517.5000 373.874336 
518.0000 371.329879 
518.5000 379.487354 
519.0000 373.367655 
519.5000 358.917531 
520.0000 364.286349 
520.5000 398.366406 
521.0000 352.134266 
521.5000 354.417241 
522.0000 366.085227 
522.5000 367.016347 
523.0000 361.582996 
523.5000 359.169711 
524.0000 365.480056 
524.5000 356.891847 
525.0000 354.113003 
525.5000 346.035703 
526.0000 338.422001 
526.5000 356.002814 
527.0000 352.649804 
527.5000 369.544601 
528.0000 353.371662 
528.5000 346.527147 
529.0000 350.708633 
529.5000 348.705595 
530.0000 351.884739 
530.5000 358.058945 
531.0000 353.669016 
531.5000 351.011789 
532.0000 340.040854 
532.5000 341.358500 
533.0000 353.907372 
533.5000 350.186343 
534.0000 324.322481 
534.5000 329.026998 
535.0000 357.294136 
535.5000 356.623795 
536.0000 359.925090 
536.5000 341.013144 
537.0000 350.073990 
537.5000 346.630596 
538.0000 332.265239 
538.5000 340.515882 
539.0000 345.596611 
539.5000 343.107111 
540.0000 320.113648 
540.5000 311.222794 
541.0000 313.876204 
541.5000 313.274889 
542.0000 315.366408 
542.5000 318.866467 
543.0000 318.124555 
543.5000 327.651230 
544.0000 323.374575 
544.5000 310.420313 
545.0000 315.758809 
545.5000 330.516908 
546.0000 302.004626 
546.5000 319.880145 
547.0000 303.077572 
547.5000 292.975457 
548.0000 298.587259 
548.5000 295.600530 
549.0000 321.139656 
549.5000 297.937615 
550.0000 309.579545 
550.5000 288.904961 
551.0000 298.456247 
551.5000 289.310127 
552.0000 292.256151 
552.5000 274.068936 
553.0000 296.591087 
553.5000 284.534012 
554.0000 278.242389 
554.5000 280.832213 
555.0000 312.457857 
555.5000 278.324657 
556.0000 280.441812 
556.5000 283.608745 
557.0000 293.282680 
557.5000 277.909426 
558.0000 289.293650 
558.5000 277.002498 
559.0000 286.324133 
559.5000 279.021433 
560.0000 282.581558 
560.5000 273.780827 
561.0000 273.231458 
561.5000 281.941303 
562.0000 273.829588 
562.5000 274.486001 
563.0000 306.273046 
563.5000 264.362231 
564.0000 267.504340 
564.5000 272.727243 
565.0000 254.138385 
565.5000 273.698485 
566.0000 270.633068 
566.5000 282.003597 
567.0000 268.689723 
567.5000 254.549829 
568.0000 267.544209 
568.5000 266.335875 
569.0000 267.773176 
569.5000 270.215799 
570.0000 265.436337 
570.5000 256.819834 
571.0000 275.219972 
571.5000 258.440179 
572.0000 258.666592 
572.5000 272.788593 
573.0000 262.900498 
573.5000 261.575891 
574.0000 264.742271 
574.5000 262.512537 
575.0000 284.170042 
575.5000 262.008322 
576.0000 272.056814 
576.5000 255.539297 
577.0000 263.059926 
577.5000 258.838504 
578.0000 269.175497 
578.5000 268.134470 
579.0000 267.484578 
579.5000 259.361783 
580.0000 277.366047 
580.5000 262.016777 
581.0000 262.700667 
581.5000 259.400242 
582.0000 258.245639 
582.5000 272.353487 
583.0000 259.579266 
583.5000 259.696959 
584.0000 268.443320 
584.5000 268.417812 
585.0000 267.374665 
585.5000 269.681678 
586.0000 267.241981 
586.5000 250.310172 
587.0000 265.820537 
587.5000 265.233537 
588.0000 268.924731 
588.5000 260.268602 
589.0000 257.893788 
589.5000 254.405687 
590.0000 244.915721 
590.5000 248.092635 
591.0000 258.569551 
591.5000 266.734729 
592.0000 258.963164 
592.5000 249.713469 
593.0000 238.776777 
593.5000 239.408851 
594.0000 258.563972 
594.5000 257.990434 
595.0000 250.988275 
595.5000 258.231019 
596.0000 258.803877 
596.5000 238.351081 
597.0000 261.939560 
597.5000 255.478923 
598.0000 257.488214 
598.5000 251.595714 
599.0000 266.272158 
599.5000 255.667619 
600.0000 242.531949 
600.5000 267.201636 
601.0000 241.654662 
601.5000 236.420905 
602.0000 246.315345 
602.5000 236.089479 
603.0000 240.380553 
603.5000 228.753918 
604.0000 243.385960 
604.5000 231.123174 
605.0000 231.616046 
605.5000 226.976753 
606.0000 232.941345 
606.5000 234.181119 
607.0000 246.350590 
607.5000 242.581398 
608.0000 238.151966 
608.5000 238.907300 
609.0000 244.599014 
609.5000 228.451567 
610.0000 242.320622 
610.5000 230.087269 
611.0000 228.807780 
611.5000 214.452091 
612.0000 233.426777 
612.5000 230.053856 
613.0000 215.300526 
613.5000 223.780478 
614.0000 216.023045 
614.5000 232.335614 
615.0000 218.020475 
615.5000 210.801069 
616.0000 224.660808 
616.5000 225.028477 
617.0000 222.712173 
617.5000 222.613114 
618.0000 224.348109 
618.5000 221.568406 
619.0000 216.637889 
619.5000 220.507760 
620.0000 228.127251 
620.5000 192.690043 
621.0000 221.665174 
621.5000 227.613657 
622.0000 207.975790 
622.5000 202.053078 
623.0000 213.985041 
623.5000 207.572184 
624.0000 211.144558 
624.5000 209.667259 
625.0000 218.369439 
625.5000 206.950758 
626.0000 205.676660 
626.5000 224.094243 
627.0000 211.673887 
627.5000 222.642624 
628.0000 230.386012 
628.5000 209.836860 
629.0000 218.484078 
629.5000 210.208875 
630.0000 200.230678 
630.5000 195.084251 
631.0000 214.064972 
631.5000 217.442485 
632.0000 205.870590 
632.5000 222.476604 
633.0000 223.925026 
633.5000 201.877532 
634.0000 216.288432 
634.5000 203.927476 
635.0000 218.026891 
635.5000 209.143681 
636.0000 208.576041 
636.5000 210.403613 
637.0000 203.636308 
637.5000 214.267885 
638.0000 191.330225 
638.5000 183.052402 
639.0000 189.730337 
639.5000 191.162908 
640.0000 194.129976 
640.5000 199.908128 
641.0000 198.022233 
641.5000 189.067332 
642.0000 182.970137 
642.5000 192.963896 
643.0000 191.881657 
643.5000 200.186250 
644.0000 206.012180 
644.5000 211.785613 
645.0000 198.805414 
645.5000 196.681245 
646.0000 208.437347 
646.5000 194.480530 
647.0000 194.787843 
647.5000 199.942890 
648.0000 197.773725 
648.5000 181.017972 
649.0000 183.563635 
649.5000 176.050975 
650.0000 183.787920 
650.5000 180.237569 
651.0000 177.914194 
651.5000 188.744311 
652.0000 174.468929 
652.5000 180.572096 
653.0000 184.274768 
653.5000 177.832287 
654.0000 175.999800 
654.5000 171.917686 
655.0000 190.900786 
655.5000 180.553376 
656.0000 192.132024 
656.5000 179.631557 
657.0000 176.581789 
657.5000 175.048673 
658.0000 171.570279 
658.5000 174.357424 
659.0000 183.211823 
659.5000 182.900874 
660.0000 175.341826 
660.5000 166.549939 
661.0000 188.804946 
661.5000 182.976639 
662.0000 175.897332 
662.5000 173.547223 
663.0000 166.040989 
663.5000 170.835825 
664.0000 175.654088 
664.5000 178.134076 
665.0000 169.761794 
665.5000 161.844025 
666.0000 159.686445 
666.5000 160.067538 
667.0000 176.957214 
667.5000 166.959623 
668.0000 171.162594 
668.5000 160.468187 
669.0000 164.496041 
669.5000 179.789309 
670.0000 165.390302 
670.5000 183.302585 
671.0000 175.519254 
671.5000 156.526708 
672.0000 169.250515 
672.5000 169.711371 
673.0000 175.726031 
673.5000 168.282568 
674.0000 157.328630 
674.5000 163.119091 
675.0000 159.561901 
675.5000 153.684932 
676.0000 170.330833 
676.5000 163.106598 
677.0000 148.648638 
677.5000 157.277188 
678.0000 149.260840 
678.5000 146.081618 
679.0000 162.840798 
679.5000 151.205856 
680.0000 145.888428 
680.5000 151.604164 
681.0000 157.435676 
681.5000 144.111439 
682.0000 151.551137 
682.5000 153.975883 
683.0000 145.918051 
683.5000 145.830654 
684.0000 161.666727 
684.5000 148.877867 
685.0000 150.669610 
685.5000 147.451161 
686.0000 148.793371 
686.5000 149.489846 
687.0000 147.764487 
687.5000 157.481806 
688.0000 151.711934 
688.5000 162.024378 
689.0000 153.484491 
689.5000 148.227630 
690.0000 148.530583 
690.5000 157.112087 
691.0000 152.829681 
691.5000 161.136233 
692.0000 133.854051 
692.5000 137.274734 
693.0000 132.682565 
693.5000 143.352505 
694.0000 146.842817 
694.5000 145.371955 
695.0000 137.925632 
695.5000 145.843154 
696.0000 130.924483 
696.5000 145.209046 
697.0000 139.887499 
697.5000 141.175242 
698.0000 145.261675 
698.5000 137.900089 
699.0000 144.074911 
699.5000 139.757243 
700.0000 140.740944 
700.5000 134.341890 
701.0000 144.759099 
701.5000 142.972161 
702.0000 133.382389 
702.5000 143.520249 
703.0000 148.869258 
703.5000 134.635656 
704.0000 138.197302 
704.5000 142.231451 
705.0000 141.849712 
705.5000 145.458252 
706.0000 138.934709 
706.5000 141.978263 
707.0000 144.452089 
707.5000 142.496653 
708.0000 139.201389 
708.5000 133.441835 
709.0000 131.461747 
709.5000 142.439363 
710.0000 140.482424 
710.5000 148.507968 
711.0000 135.683091 
711.5000 137.300610 
712.0000 128.539564 
712.5000 141.456367 
713.0000 130.081339 
713.5000 138.116935 
714.0000 137.816160 
714.5000 137.927761 
715.0000 137.923198 
715.5000 137.406668 
716.0000 133.255554 
716.5000 127.031805 
717.0000 126.289973 
717.5000 127.405499 
718.0000 143.444348 
718.5000 128.174446 
719.0000 123.499592 
719.5000 126.541568 
720.0000 136.321891 
720.5000 128.588654 
721.0000 123.733702 
721.5000 131.153322 
722.0000 124.439003 
722.5000 127.924084 
723.0000 127.380759 
723.5000 134.609197 
724.0000 132.654082 
724.5000 154.499912 
725.0000 135.094831 
725.5000 126.318563 
726.0000 135.010556 
726.5000 123.390793 
727.0000 127.188554 
727.5000 138.189291 
728.0000 136.514207 
728.5000 126.071970 
729.0000 122.797739 
729.5000 125.276935 
730.0000 141.176949 
730.5000 137.492353 
731.0000 130.270472 
731.5000 137.618595 
732.0000 134.830413 
732.5000 135.510363 
733.0000 129.423555 
733.5000 121.247665 
734.0000 139.670734 
734.5000 131.303385 
735.0000 134.141692 
735.5000 117.712693 
736.0000 131.567068 
736.5000 125.176218 
737.0000 123.213856 
737.5000 126.118043 
738.0000 129.879503 
738.5000 122.884925 
739.0000 118.437527 
739.5000 121.104320 
740.0000 115.295310 
740.5000 123.510361 
741.0000 123.056638 
741.5000 122.708682 
742.0000 126.007290 
742.5000 120.235429 
743.0000 129.271742 
743.5000 113.581171 
744.0000 120.167722 
744.5000 119.215428 
745.0000 129.619601 
745.5000 123.735386 
746.0000 129.148556 
746.5000 116.632889 
747.0000 119.473596 
747.5000 113.585697 
748.0000 120.554008 
748.5000 125.008994 
749.0000 121.034990 
749.5000 119.560660 
750.0000 113.186680 
750.5000 122.056461 
751.0000 124.485724 
751.5000 117.270046 
752.0000 100.571044 
752.5000 116.977531 
753.0000 105.403189 
753.5000 112.022792 
754.0000 106.363414 
754.5000 127.430565 
755.0000 114.884553 
755.5000 112.677201 
756.0000 109.531014 
756.5000 98.894783 
757.0000 115.737169 
757.5000 103.123582 
758.0000 102.425188 
758.5000 114.788877 
759.0000 117.925655 
759.5000 109.314491 
760.0000 121.351040 
760.5000 110.108421 
761.0000 105.706844 
761.5000 107.330870 
762.0000 117.712204 
762.5000 101.500992 
763.0000 101.874410 
763.5000 106.507918 
764.0000 93.983405 
764.5000 111.770496 
765.0000 119.833030 
765.5000 106.896188 
766.0000 126.070689 
766.5000 108.970416 
767.0000 115.885271 
767.5000 113.725592 
768.0000 115.737930 
768.5000 110.230920 
769.0000 118.556179 
769.5000 109.027505 
770.0000 108.521479 
770.5000 112.133119 
771.0000 106.729409 
771.5000 112.437436 
772.0000 112.803982 
772.5000 96.394765 
773.0000 108.635351 
773.5000 105.421793 
774.0000 104.380602 
774.5000 107.438442 
775.0000 104.641458 
775.5000 98.881646 
776.0000 99.645959 
776.5000 113.696813 
777.0000 102.855374 
777.5000 104.993010 
778.0000 105.217478 
778.5000 105.457055 
779.0000 110.932967 
779.5000 103.135576 
780.0000 106.472170 
780.5000 103.011008 
781.0000 101.878616 
781.5000 99.493897 
782.0000 107.971966 
782.5000 115.259625 
783.0000 110.237768 
783.5000 116.699824 
784.0000 95.527141 
784.5000 105.994430 
785.0000 104.408779 
785.5000 100.146548 
786.0000 102.145860 
786.5000 92.920121 
787.0000 100.269100 
787.5000 102.955481 
788.0000 102.512234 
788.5000 99.414162 
789.0000 102.488418 
789.5000 97.773275 
790.0000 89.560437 
790.5000 96.009930 
791.0000 94.380604 
791.5000 105.542531 
792.0000 93.984147 
792.5000 93.644853 
793.0000 93.092573 
793.5000 94.832804 
794.0000 92.125390 
794.5000 104.763292 
795.0000 98.234302 
795.5000 95.722836 
796.0000 84.446027 
796.5000 83.646412 
797.0000 94.672938 
797.5000 97.692562 
798.0000 90.866963 
798.5000 97.328723 
799.0000 94.018417 
799.5000 96.856500 
800.0000 86.712635 
800.5000 94.509254 
801.0000 88.197201 
801.5000 97.033368 
802.0000 95.591408 
802.5000 90.916215 
803.0000 90.780770 
803.5000 99.962323 
804.0000 90.237665 
804.5000 90.480149 
805.0000 85.973321 
805.5000 85.020855 
806.0000 87.750683 
806.5000 93.697296 
807.0000 95.296720 
807.5000 87.808497 
808.0000 90.935111 
808.5000 90.204622 
809.0000 84.319421 
809.5000 93.185529 
810.0000 96.807804 
810.5000 83.616382 
811.0000 90.940877 
811.5000 81.894476 
812.0000 84.591117 
812.5000 78.901388 
813.0000 74.643326 
813.5000 82.050166 
814.0000 81.333468 
814.5000 82.996433 
815.0000 76.514518 
815.5000 84.643289 
816.0000 85.521089 
816.5000 74.806106 
817.0000 76.803633 
817.5000 75.596517 
818.0000 72.739397 
818.5000 80.153214 
819.0000 83.664892 
819.5000 83.160720 
820.0000 76.395405 
820.5000 78.786416 
821.0000 80.028235 
821.5000 76.422755 
822.0000 84.252178 
822.5000 75.721026 
823.0000 86.877918 
823.5000 80.285429 
824.0000 87.137480 
824.5000 82.477411 
825.0000 84.814610 
825.5000 78.030011 
826.0000 76.308881 
826.5000 71.795574 
827.0000 78.967394 
827.5000 83.773035 
828.0000 73.969216 
828.5000 78.339569 
829.0000 80.304289 
829.5000 76.716167 
830.0000 83.865294 
830.5000 84.003430 
831.0000 73.196058 
831.5000 85.042135 
832.0000 85.362153 
832.5000 86.135311 
833.0000 82.624424 
833.5000 84.862292 
834.0000 86.169432 
834.5000 75.975194 
835.0000 83.752802 
835.5000 88.114270 
836.0000 79.189723 
836.5000 84.777387 
837.0000 76.583263 
837.5000 84.261554 
838.0000 78.323922 
838.5000 79.409793 
839.0000 75.384412 
839.5000 79.611762 
840.0000 88.799826 
840.5000 84.644433 
841.0000 76.527298 
841.5000 83.463947 
842.0000 78.642743 
842.5000 79.938915 
843.0000 77.451270 
843.5000 87.329546 
844.0000 84.956725 
844.5000 78.167997 
845.0000 78.462789 
845.5000 77.744763 
846.0000 72.445048 
846.5000 78.061942 
847.0000 71.747095 
847.5000 64.994999 
848.0000 79.654478 
848.5000 65.351917 
849.0000 80.481382 
849.5000 77.746397 
850.0000 75.872205 
850.5000 81.660314 
851.0000 69.713365 
851.5000 74.550855 
852.0000 74.791060 
852.5000 76.060633 
853.0000 75.444081 
853.5000 75.042802 
854.0000 70.537596 
854.5000 68.670369 
855.0000 66.821324 
855.5000 68.998886 
856.0000 65.503168 
856.5000 75.695959 
857.0000 79.172259 
857.5000 87.825273 
858.0000 81.471744 
858.5000 73.449472 
859.0000 68.963689 
859.5000 62.888535 
860.0000 62.756134 
860.5000 65.288789 
861.0000 73.391960 
861.5000 73.658850 
862.0000 70.880535 
862.5000 68.926351 
863.0000 74.244297 
863.5000 59.725063 
864.0000 68.525952 
864.5000 67.067134 
865.0000 66.975676 
865.5000 83.227582 
866.0000 64.825959 
866.5000 58.810800 
867.0000 79.875125 
867.5000 75.344953 
868.0000 67.808848 
868.5000 67.466035 
869.0000 63.745421 
869.5000 70.829610 
870.0000 62.714617 
870.5000 77.054154 
871.0000 62.836565 
871.5000 75.042144 
872.0000 72.645644 
872.5000 74.636796 
873.0000 68.698895 
873.5000 69.370453 
874.0000 70.590374 
874.5000 67.294240 
875.0000 69.483435 
875.5000 75.690757 
876.0000 68.198810 
876.5000 79.899146 
877.0000 77.911453 
877.5000 68.825338 
878.0000 58.540353 
878.5000 68.783836 
879.0000 63.755474 
879.5000 77.507206 
880.0000 68.722394 
880.5000 63.751764 
881.0000 68.174754 
881.5000 66.317397 
882.0000 67.517808 
882.5000 69.479370 
883.0000 69.074109 
883.5000 68.115301 
884.0000 70.991523 
884.5000 65.364493 
885.0000 67.513939 
885.5000 68.414129 
886.0000 58.846839 
886.5000 69.553954 
887.0000 63.526252 
887.5000 77.267847 
888.0000 65.627909 
888.5000 63.078554 
889.0000 66.188323 
889.5000 71.299251 
890.0000 71.985082 
890.5000 63.060873 
891.0000 69.854667 
891.5000 60.644036 
892.0000 61.863424 
892.5000 65.101666 
893.0000 60.579217 
893.5000 61.522720 
894.0000 66.767911 
894.5000 58.971505 
895.0000 66.151992 
895.5000 63.413656 
896.0000 63.850150 
896.5000 61.515657 
897.0000 64.542140 
897.5000 54.021960 
898.0000 55.510474 
898.5000 63.771450 
899.0000 58.790369 
899.5000 60.578520 
900.0000 53.520262 
900.5000 60.833203 
901.0000 56.429550 
901.5000 53.680149 
902.0000 60.291463 
902.5000 60.837313 
903.0000 59.544863 
903.5000 53.356836 
904.0000 59.661679 
904.5000 54.678770 
905.0000 49.945188 
905.5000 58.247105 
906.0000 51.538916 
906.5000 54.775072 
907.0000 60.549775 
907.5000 47.949299 
908.0000 63.978302 
908.5000 54.029944 
909.0000 49.371736 
909.5000 57.517103 
910.0000 53.014654 
910.5000 57.654737 
911.0000 53.661743 
911.5000 56.880195 
912.0000 56.529900 
912.5000 59.990414 
913.0000 58.369286 
913.5000 53.836084 
914.0000 51.950648 
914.5000 56.244914 
915.0000 56.458219 
915.5000 53.692492 
916.0000 48.321418 
916.5000 57.150407 
917.0000 53.922920 
917.5000 53.405884 
918.0000 53.263836 
918.5000 55.179727 
919.0000 58.477265 
919.5000 49.422294 
920.0000 48.289848 
920.5000 54.349337 
921.0000 55.877004 
921.5000 65.520551 
922.0000 51.720096 
922.5000 46.538954 
923.0000 54.479948 
923.5000 55.827180 
924.0000 60.929539 
924.5000 56.991266 
925.0000 55.560180 
925.5000 51.448207 
926.0000 56.500042 
926.5000 62.160156 
927.0000 50.083184 
927.5000 60.060862 
928.0000 53.399517 
928.5000 50.542885 
929.0000 55.139552 
929.5000 60.850961 
930.0000 57.217024 
930.5000 57.288149 
931.0000 57.416937 
931.5000 51.717596 
932.0000 60.922380 
932.5000 52.644750 
933.0000 51.876670 
933.5000 50.117786 
934.0000 54.345250 
934.5000 46.031392 
935.0000 55.081127 
935.5000 50.283587 
936.0000 47.353812 
936.5000 51.684663 
937.0000 52.188863 
937.5000 43.631496 
938.0000 51.628046 
938.5000 46.278539 
939.0000 52.268627 
939.5000 41.373862 
940.0000 50.188990 
940.5000 47.470302 
941.0000 41.546824 
941.5000 52.640476 
942.0000 47.820462 
942.5000 51.138012 
943.0000 52.915134 
943.5000 50.679764 
944.0000 48.751786 
944.5000 50.275584 
945.0000 53.035246 
945.5000 48.594522 
946.0000 42.989967 
946.5000 41.788239 
947.0000 50.885624 
947.5000 45.102245 
948.0000 48.980389 
948.5000 46.726737 
949.0000 47.201347 
949.5000 46.721969 
950.0000 46.416563 
950.5000 47.452814 
951.0000 50.876212 
951.5000 48.308679 
952.0000 47.065950 
952.5000 44.930809 
953.0000 49.851609 
953.5000 48.359067 
954.0000 50.501185 
954.5000 40.859351 
955.0000 48.182489 
955.5000 44.919419 
956.0000 46.206891 
956.5000 45.237474 
957.0000 44.720686 
957.5000 43.042304 
958.0000 40.469056 
958.5000 39.572362 
959.0000 43.602896 
959.5000 48.938834 
960.0000 40.575748 
960.5000 42.456121 
961.0000 48.240528 
961.5000 40.152615 
962.0000 46.430736 
962.5000 47.073142 
963.0000 41.248086 
963.5000 45.490706 
964.0000 46.377024 
964.5000 40.941780 
965.0000 45.716250 
965.5000 42.900896 
966.0000 50.124117 
966.5000 44.298575 
967.0000 51.020694 
967.5000 45.201828 
968.0000 45.249396 
968.5000 42.797360 
969.0000 46.003189 
969.5000 49.732022 
970.0000 50.505796 
970.5000 48.075381 
971.0000 48.060748 
971.5000 45.919406 
972.0000 51.180503 
972.5000 42.567091 
973.0000 48.466569 
973.5000 45.698056 
974.0000 50.872488 
974.5000 49.260035 
975.0000 50.279455 
975.5000 45.815681 
976.0000 46.724343 
976.5000 46.799928 
977.0000 47.881367 
977.5000 46.388378 
978.0000 49.310372 
978.5000 46.775048 
979.0000 43.915443 
979.5000 43.723099 
980.0000 42.242477 
980.5000 40.659581 
981.0000 46.059786 
981.5000 45.713154 
982.0000 40.866216 
982.5000 42.671728 
983.0000 46.375598 
983.5000 41.038093 
984.0000 48.639469 
984.5000 48.208746 
985.0000 51.451649 
985.5000 48.756647 
986.0000 45.541200 
986.5000 40.765281 
987.0000 42.776309 
987.5000 50.665550 
988.0000 54.320962 
988.5000 47.833144 
989.0000 43.695307 
989.5000 41.286772 
990.0000 42.518810 
990.5000 42.379586 
991.0000 39.422972 
991.5000 32.197409 
992.0000 41.671481 
992.5000 41.192054 
993.0000 36.954604 
993.5000 49.527859 
994.0000 42.941493 
994.5000 32.626188 
995.0000 40.943329 
995.5000 43.228248 
996.0000 40.770282 
996.5000 45.283507 
997.0000 39.407151 
997.5000 49.470185 
998.0000 39.112275 
998.5000 37.868900 
999.0000 41.829122 
999.5000 41.947504 
1000.0000 66.416094 
