# first line is penetration depth steps in mm, second energy deposited in MeV 
0.0000 5522184.968700 
0.5000 5604013.468900 
1.0000 5657453.671900 
1.5000 5709993.812600 
2.0000 5761159.890600 
2.5000 5810664.187600 
3.0000 5861879.156400 
3.5000 5918517.906500 
4.0000 5968010.625100 
4.5000 6025542.687700 
5.0000 6078975.031200 
5.5000 6137010.922200 
6.0000 6195240.734400 
6.5000 6253549.327600 
7.0000 6314297.734500 
7.5000 6377553.562300 
8.0000 6442798.406200 
8.5000 6507562.734500 
9.0000 6575820.109300 
9.5000 6645075.765800 
10.0000 6715682.234300 
10.5000 6793164.625300 
11.0000 6869531.296900 
11.5000 6949434.343600 
12.0000 7036273.156200 
12.5000 7124244.125000 
13.0000 7214745.765800 
13.5000 7308754.999900 
14.0000 7412015.156000 
14.5000 7518949.390500 
15.0000 7630458.577800 
15.5000 7750565.046900 
16.0000 7876469.093700 
16.5000 8011127.281200 
17.0000 8154028.437300 
17.5000 8307761.875000 
18.0000 8475254.469000 
18.5000 8658633.218700 
19.0000 8853026.593400 
19.5000 9072622.343700 
20.0000 9309654.281300 
20.5000 9569135.187200 
21.0000 9854752.062200 
21.5000 10163279.531500 
22.0000 10496484.406400 
22.5000 10848564.719000 
23.0000 11213880.218600 
23.5000 11595543.655900 
24.0000 11961923.250200 
24.5000 12316455.469100 
25.0000 12638489.249900 
25.5000 12911627.156400 
26.0000 13106720.562600 
26.5000 13227991.468900 
27.0000 13238232.937600 
27.5000 13124419.718900 
28.0000 12890449.718600 
28.5000 12526150.781700 
29.0000 12054904.031300 
29.5000 11460411.656300 
30.0000 10758955.968700 
30.5000 9977597.656200 
31.0000 9136208.750200 
31.5000 8260925.468800 
32.0000 7371993.656000 
32.5000 6488641.265600 
33.0000 5643271.343600 
33.5000 4843973.640500 
34.0000 4103590.828200 
34.5000 3430621.390500 
35.0000 2828431.695300 
35.5000 2306110.421880 
36.0000 1853044.765600 
36.5000 1469863.359390 
37.0000 1149989.097650 
37.5000 890641.673810 
38.0000 681995.404290 
38.5000 513898.634760 
39.0000 383967.749000 
39.5000 284323.326171 
40.0000 207969.620605 
40.5000 149614.304685 
41.0000 106880.059081 
41.5000 74685.666992 
42.0000 52671.508668 
42.5000 36657.889769 
43.0000 25581.912903 
43.5000 17495.521088 
44.0000 11800.559540 
44.5000 7951.119736 
45.0000 5535.111816 
45.5000 3930.105324 
46.0000 2943.569092 
46.5000 2049.411789 
47.0000 1634.384865 
47.5000 1353.107096 
48.0000 1156.439407 
48.5000 1079.278057 
49.0000 959.089941 
49.5000 945.671661 
50.0000 912.744595 
50.5000 898.987295 
51.0000 894.371531 
51.5000 868.235275 
52.0000 855.819635 
52.5000 848.918434 
53.0000 889.452173 
53.5000 867.222111 
54.0000 854.921677 
54.5000 846.334333 
55.0000 832.118717 
55.5000 819.706686 
56.0000 793.965361 
56.5000 794.190086 
57.0000 767.295870 
57.5000 814.753704 
58.0000 790.771015 
58.5000 759.262104 
59.0000 748.056723 
59.5000 753.418027 
60.0000 747.967934 
60.5000 744.978130 
61.0000 730.658085 
61.5000 705.861596 
62.0000 732.580095 
62.5000 719.608282 
63.0000 729.681437 
63.5000 729.738918 
64.0000 708.166573 
64.5000 712.859667 
65.0000 697.608581 
65.5000 699.454597 
66.0000 682.748310 
66.5000 688.439169 
67.0000 672.311560 
67.5000 678.231514 
68.0000 657.277491 
68.5000 647.200932 
69.0000 644.038304 
69.5000 646.894030 
70.0000 658.212526 
70.5000 632.283300 
71.0000 622.737801 
71.5000 624.016612 
72.0000 638.762300 
72.5000 619.889633 
73.0000 616.116849 
73.5000 640.503787 
74.0000 629.505051 
74.5000 618.794310 
75.0000 621.489546 
75.5000 635.239909 
76.0000 614.215891 
76.5000 620.311723 
77.0000 610.782582 
77.5000 611.119950 
78.0000 570.524409 
78.5000 569.158390 
79.0000 564.848092 
79.5000 566.418772 
80.0000 574.128541 
80.5000 519.610030 
81.0000 553.172399 
81.5000 548.958240 
82.0000 540.618640 
82.5000 571.898882 
83.0000 532.970782 
83.5000 535.798865 
84.0000 525.403111 
84.5000 525.516856 
85.0000 506.555255 
85.5000 510.034377 
86.0000 508.386082 
86.5000 517.218345 
87.0000 510.911633 
87.5000 532.682255 
88.0000 527.506824 
88.5000 517.787423 
89.0000 511.645306 
89.5000 499.800953 
90.0000 521.038446 
90.5000 510.350358 
91.0000 498.970876 
91.5000 508.209428 
92.0000 512.531307 
92.5000 518.807561 
93.0000 480.626056 
93.5000 476.116244 
94.0000 483.518609 
94.5000 494.403685 
95.0000 473.144102 
95.5000 475.925558 
96.0000 461.523445 
96.5000 458.699111 
97.0000 468.160763 
97.5000 478.261107 
98.0000 475.470974 
98.5000 466.286599 
99.0000 473.232793 
99.5000 463.030927 
100.0000 449.094236 
100.5000 454.010715 
101.0000 452.788848 
101.5000 453.208891 
102.0000 440.686331 
102.5000 447.478930 
103.0000 449.506610 
103.5000 450.038043 
104.0000 440.979006 
104.5000 436.451022 
105.0000 443.277505 
105.5000 423.500965 
106.0000 413.897313 
106.5000 448.942881 
107.0000 409.870322 
107.5000 398.739480 
108.0000 404.061117 
108.5000 398.532226 
109.0000 410.505588 
109.5000 391.317346 
110.0000 395.990992 
110.5000 415.235417 
111.0000 417.900299 
111.5000 421.404630 
112.0000 410.348337 
112.5000 409.253268 
113.0000 400.343441 
113.5000 394.699827 
114.0000 385.328452 
114.5000 384.248557 
115.0000 369.702345 
115.5000 388.446338 
116.0000 384.195833 
116.5000 369.014475 
117.0000 399.165222 
117.5000 388.316322 
118.0000 374.621923 
118.5000 382.398764 
119.0000 387.645781 
119.5000 364.736032 
120.0000 385.830477 
120.5000 378.250832 
121.0000 376.549338 
121.5000 373.558094 
122.0000 364.063632 
122.5000 375.124024 
123.0000 372.484051 
123.5000 368.329576 
124.0000 360.886310 
124.5000 351.157804 
125.0000 335.459415 
125.5000 341.158984 
126.0000 333.262021 
126.5000 347.699284 
127.0000 318.798486 
127.5000 330.362064 
128.0000 312.451491 
128.5000 317.181774 
129.0000 307.424395 
129.5000 322.309499 
130.0000 324.809847 
130.5000 303.803334 
131.0000 305.172996 
131.5000 297.199310 
132.0000 307.751522 
132.5000 312.738451 
133.0000 316.339062 
133.5000 293.834229 
134.0000 303.088432 
134.5000 301.122620 
135.0000 305.598050 
135.5000 314.772695 
136.0000 310.995695 
136.5000 286.934570 
137.0000 291.560911 
137.5000 297.731406 
138.0000 304.915617 
138.5000 290.649127 
139.0000 299.446575 
139.5000 293.325628 
140.0000 291.618954 
140.5000 281.657902 
141.0000 287.150742 
141.5000 295.283011 
142.0000 295.899160 
142.5000 290.438488 
143.0000 288.803512 
143.5000 294.171883 
144.0000 291.828871 
144.5000 297.316307 
145.0000 276.163607 
145.5000 279.863050 
146.0000 296.733434 
146.5000 268.028872 
147.0000 269.243785 
147.5000 271.251520 
148.0000 256.262188 
148.5000 264.627645 
149.0000 264.869493 
149.5000 263.842000 
150.0000 251.369329 
150.5000 259.521938 
151.0000 273.267536 
151.5000 261.486615 
152.0000 266.513009 
152.5000 266.766357 
153.0000 262.653340 
153.5000 255.219882 
154.0000 252.609901 
154.5000 255.628906 
155.0000 250.860698 
155.5000 235.172361 
156.0000 251.629406 
156.5000 231.490394 
157.0000 240.658947 
157.5000 242.104778 
158.0000 235.508827 
158.5000 242.661099 
159.0000 235.994934 
159.5000 234.213582 
160.0000 234.836572 
160.5000 235.404995 
161.0000 235.054994 
161.5000 238.513662 
162.0000 237.081208 
162.5000 240.668764 
163.0000 238.833220 
163.5000 230.782357 
164.0000 224.122190 
164.5000 231.226971 
165.0000 234.314733 
165.5000 225.473593 
166.0000 236.645946 
166.5000 230.638371 
167.0000 230.746786 
167.5000 214.666588 
168.0000 222.810977 
168.5000 226.527154 
169.0000 229.564316 
169.5000 220.262191 
170.0000 220.527240 
170.5000 226.280134 
171.0000 202.138934 
171.5000 209.871691 
172.0000 197.737758 
172.5000 209.484822 
173.0000 215.738944 
173.5000 206.258707 
174.0000 210.531413 
174.5000 213.649916 
175.0000 205.082918 
175.5000 200.779752 
176.0000 209.621638 
176.5000 191.153040 
177.0000 210.538441 
177.5000 184.734424 
178.0000 199.595417 
178.5000 215.870840 
179.0000 198.744325 
179.5000 210.044918 
180.0000 205.480745 
180.5000 192.257847 
181.0000 209.350791 
181.5000 207.872900 
182.0000 199.202934 
182.5000 199.671953 
183.0000 201.036927 
183.5000 203.906779 
184.0000 204.299526 
184.5000 203.858391 
185.0000 195.887000 
185.5000 203.087839 
186.0000 201.560957 
186.5000 200.303717 
187.0000 187.335823 
187.5000 180.987513 
188.0000 189.435011 
188.5000 191.076724 
189.0000 191.039750 
189.5000 181.239952 
190.0000 173.099700 
190.5000 178.492697 
191.0000 180.799735 
191.5000 164.428180 
192.0000 168.917585 
192.5000 170.329661 
193.0000 162.966274 
193.5000 171.734544 
194.0000 170.324303 
194.5000 163.416743 
195.0000 177.964850 
195.5000 176.702933 
196.0000 160.764417 
196.5000 174.377559 
197.0000 164.323938 
197.5000 165.967953 
198.0000 166.948350 
198.5000 162.224508 
199.0000 165.091863 
199.5000 168.682574 
200.0000 179.410340 
200.5000 165.906824 
201.0000 177.283757 
201.5000 165.511458 
202.0000 168.695737 
202.5000 173.015168 
203.0000 167.161064 
203.5000 176.447201 
204.0000 176.324076 
204.5000 169.467351 
205.0000 172.450406 
205.5000 178.693984 
206.0000 155.594467 
206.5000 160.658663 
207.0000 163.418138 
207.5000 162.070592 
208.0000 154.853850 
208.5000 155.342223 
209.0000 160.304583 
209.5000 163.568915 
210.0000 158.738019 
210.5000 148.241179 
211.0000 159.151995 
211.5000 153.157254 
212.0000 145.712186 
212.5000 148.123060 
213.0000 143.429420 
213.5000 145.452327 
214.0000 151.399845 
214.5000 132.055843 
215.0000 140.648221 
215.5000 152.044617 
216.0000 152.496096 
216.5000 147.399873 
217.0000 152.163057 
217.5000 144.029902 
218.0000 162.265894 
218.5000 145.598178 
219.0000 147.821419 
219.5000 154.032533 
220.0000 136.944092 
220.5000 129.727198 
221.0000 124.142736 
221.5000 142.568915 
222.0000 137.218614 
222.5000 132.749563 
223.0000 143.941995 
223.5000 145.516214 
224.0000 141.774013 
224.5000 148.397038 
225.0000 134.451554 
225.5000 144.053519 
226.0000 143.415308 
226.5000 138.502544 
227.0000 137.342228 
227.5000 145.829125 
228.0000 138.126125 
228.5000 140.131659 
229.0000 130.181446 
229.5000 139.855463 
230.0000 129.338310 
230.5000 126.057732 
231.0000 134.482012 
231.5000 136.865662 
232.0000 129.814186 
232.5000 131.540844 
233.0000 129.215034 
233.5000 121.487349 
234.0000 125.054881 
234.5000 129.355551 
235.0000 126.710228 
235.5000 118.989862 
236.0000 126.626088 
236.5000 124.254360 
237.0000 120.811667 
237.5000 113.238533 
238.0000 120.331998 
238.5000 116.506829 
239.0000 115.210056 
239.5000 110.729926 
240.0000 119.433537 
240.5000 121.865004 
241.0000 126.153279 
241.5000 113.400035 
242.0000 113.099157 
242.5000 118.794691 
243.0000 111.680550 
243.5000 116.439204 
244.0000 116.615113 
244.5000 122.102140 
245.0000 105.290349 
245.5000 132.890630 
246.0000 125.126337 
246.5000 120.582139 
247.0000 118.904865 
247.5000 123.791254 
248.0000 108.080313 
248.5000 102.850677 
249.0000 110.294745 
249.5000 100.963156 
250.0000 115.376868 
250.5000 112.024765 
251.0000 114.541038 
251.5000 113.335250 
252.0000 114.476167 
252.5000 116.856801 
253.0000 113.775915 
253.5000 105.624053 
254.0000 113.760990 
254.5000 117.172668 
255.0000 125.771659 
255.5000 117.742029 
256.0000 113.021989 
256.5000 124.086356 
257.0000 113.068615 
257.5000 107.628735 
258.0000 118.453724 
258.5000 104.456056 
259.0000 109.867141 
259.5000 112.306377 
260.0000 115.982037 
260.5000 105.042213 
261.0000 106.335880 
261.5000 104.706360 
262.0000 112.757584 
262.5000 98.952975 
263.0000 98.788190 
263.5000 98.337263 
264.0000 100.520115 
264.5000 97.977113 
265.0000 90.308698 
265.5000 91.194618 
266.0000 91.091493 
266.5000 96.292972 
267.0000 95.259021 
267.5000 98.603529 
268.0000 99.896096 
268.5000 105.010932 
269.0000 93.126141 
269.5000 92.059790 
270.0000 94.979203 
270.5000 99.891629 
271.0000 92.071445 
271.5000 88.207634 
272.0000 102.009089 
272.5000 88.158818 
273.0000 89.221251 
273.5000 92.917295 
274.0000 84.411121 
274.5000 95.560215 
275.0000 87.228661 
275.5000 76.238799 
276.0000 79.925916 
276.5000 81.313581 
277.0000 88.135553 
277.5000 87.680584 
278.0000 78.873325 
278.5000 75.732815 
279.0000 85.515138 
279.5000 90.765828 
280.0000 87.064312 
280.5000 84.793672 
281.0000 79.308134 
281.5000 88.195799 
282.0000 89.242166 
282.5000 90.615773 
283.0000 95.500982 
283.5000 78.582236 
284.0000 88.517047 
284.5000 87.642207 
285.0000 81.578638 
285.5000 80.888687 
286.0000 76.232281 
286.5000 81.674749 
287.0000 82.917805 
287.5000 82.529390 
288.0000 76.059548 
288.5000 83.586455 
289.0000 82.902417 
289.5000 82.236265 
290.0000 76.526272 
290.5000 76.752494 
291.0000 79.654239 
291.5000 76.210359 
292.0000 76.467120 
292.5000 75.238805 
293.0000 76.199332 
293.5000 75.067836 
294.0000 74.041170 
294.5000 78.054605 
295.0000 76.400615 
295.5000 74.001371 
296.0000 74.147505 
296.5000 71.956718 
297.0000 74.906833 
297.5000 68.710711 
298.0000 66.305179 
298.5000 72.871957 
299.0000 63.223800 
299.5000 68.419901 
300.0000 75.708156 
300.5000 75.482863 
301.0000 81.898668 
301.5000 73.920718 
302.0000 70.278889 
302.5000 68.086678 
303.0000 70.380208 
303.5000 68.287417 
304.0000 72.604105 
304.5000 66.128862 
305.0000 65.519583 
305.5000 68.919440 
306.0000 68.488992 
306.5000 65.097882 
307.0000 68.216029 
307.5000 72.884681 
308.0000 64.704675 
308.5000 59.267169 
309.0000 66.929711 
309.5000 61.267076 
310.0000 69.440300 
310.5000 70.067231 
311.0000 62.026864 
311.5000 64.730706 
312.0000 66.599302 
312.5000 57.732062 
313.0000 61.435177 
313.5000 66.163782 
314.0000 77.121630 
314.5000 63.102843 
315.0000 70.922623 
315.5000 77.295511 
316.0000 70.106719 
316.5000 69.562201 
317.0000 66.522857 
317.5000 69.673450 
318.0000 72.074239 
318.5000 70.985318 
319.0000 67.422754 
319.5000 73.916218 
320.0000 80.807809 
320.5000 71.141714 
321.0000 68.058185 
321.5000 69.082708 
322.0000 78.218264 
322.5000 65.275001 
323.0000 69.145759 
323.5000 68.485827 
324.0000 67.759751 
324.5000 68.507596 
325.0000 61.983348 
325.5000 59.184747 
326.0000 64.815989 
326.5000 65.464671 
327.0000 66.905669 
327.5000 54.452065 
328.0000 61.857932 
328.5000 68.505294 
329.0000 65.050184 
329.5000 66.637251 
330.0000 62.865620 
330.5000 63.306537 
331.0000 71.216140 
331.5000 69.383075 
332.0000 63.583011 
332.5000 64.608448 
333.0000 67.610056 
333.5000 62.162701 
334.0000 61.753152 
334.5000 55.417484 
335.0000 57.716371 
335.5000 53.750340 
336.0000 62.926030 
336.5000 59.547033 
337.0000 59.025213 
337.5000 54.672825 
338.0000 61.510819 
338.5000 60.847274 
339.0000 58.095115 
339.5000 60.961323 
340.0000 61.950614 
340.5000 57.187017 
341.0000 54.974965 
341.5000 57.928801 
342.0000 68.832020 
342.5000 55.651379 
343.0000 50.374151 
343.5000 54.576690 
344.0000 52.994620 
344.5000 51.377554 
345.0000 56.104101 
345.5000 50.748737 
346.0000 55.337694 
346.5000 56.544488 
347.0000 46.698662 
347.5000 52.269230 
348.0000 50.903791 
348.5000 64.258401 
349.0000 55.447379 
349.5000 55.419138 
350.0000 50.409951 
350.5000 47.933442 
351.0000 49.686061 
351.5000 52.021775 
352.0000 51.568675 
352.5000 47.717985 
353.0000 44.885654 
353.5000 50.829725 
354.0000 54.096604 
354.5000 57.961458 
355.0000 45.243029 
355.5000 44.924122 
356.0000 50.137233 
356.5000 52.066795 
357.0000 45.402071 
357.5000 44.874369 
358.0000 52.098850 
358.5000 50.944447 
359.0000 48.607057 
359.5000 48.715726 
360.0000 56.454588 
360.5000 56.330040 
361.0000 49.967347 
361.5000 48.186070 
362.0000 57.229636 
362.5000 50.442722 
363.0000 49.728051 
363.5000 54.435771 
364.0000 53.021005 
364.5000 56.077349 
365.0000 51.150242 
365.5000 49.887332 
366.0000 51.122536 
366.5000 50.544049 
367.0000 52.134724 
367.5000 56.112545 
368.0000 50.865578 
368.5000 44.035131 
369.0000 41.639111 
369.5000 49.035941 
370.0000 49.782893 
370.5000 45.204952 
371.0000 46.125680 
371.5000 44.515303 
372.0000 47.679836 
372.5000 43.752641 
373.0000 41.090157 
373.5000 44.384668 
374.0000 42.089189 
374.5000 47.279455 
375.0000 40.049352 
375.5000 43.139348 
376.0000 44.687466 
376.5000 45.063117 
377.0000 40.289905 
377.5000 38.959122 
378.0000 43.400731 
378.5000 43.203047 
379.0000 36.116010 
379.5000 43.207402 
380.0000 41.561244 
380.5000 43.379200 
381.0000 37.714818 
381.5000 38.394642 
382.0000 34.473487 
382.5000 43.188202 
383.0000 38.637374 
383.5000 48.735665 
384.0000 35.919678 
384.5000 38.890362 
385.0000 39.328257 
385.5000 37.624538 
386.0000 38.518268 
386.5000 40.261351 
387.0000 37.645579 
387.5000 38.724255 
388.0000 32.302781 
388.5000 44.662852 
389.0000 37.409437 
389.5000 32.146194 
390.0000 40.690118 
390.5000 34.812844 
391.0000 35.412943 
391.5000 40.235061 
392.0000 39.512545 
392.5000 41.934545 
393.0000 41.769070 
393.5000 39.020331 
394.0000 35.708119 
394.5000 39.945624 
395.0000 46.049386 
395.5000 37.751960 
396.0000 41.811035 
396.5000 36.867757 
397.0000 34.609820 
397.5000 41.221866 
398.0000 34.833458 
398.5000 41.395579 
399.0000 42.399859 
399.5000 37.903228 
400.0000 36.976847 
400.5000 37.979507 
401.0000 37.734435 
401.5000 42.312577 
402.0000 43.572895 
402.5000 37.270479 
403.0000 36.873640 
403.5000 40.716335 
404.0000 38.607055 
404.5000 39.485689 
405.0000 39.568901 
405.5000 42.339404 
406.0000 41.707158 
406.5000 42.063199 
407.0000 41.613828 
407.5000 33.259997 
408.0000 35.011055 
408.5000 30.993481 
409.0000 28.458832 
409.5000 32.960265 
410.0000 31.537745 
410.5000 34.292607 
411.0000 33.197374 
411.5000 34.936454 
412.0000 35.802583 
412.5000 34.522645 
413.0000 38.619995 
413.5000 34.889910 
414.0000 26.822935 
414.5000 28.370188 
415.0000 35.325304 
415.5000 36.555945 
416.0000 30.827685 
416.5000 28.124031 
417.0000 30.932258 
417.5000 31.077089 
418.0000 34.106047 
418.5000 34.709816 
419.0000 31.698910 
419.5000 29.524350 
420.0000 30.549884 
420.5000 31.081098 
421.0000 31.258859 
421.5000 33.251751 
422.0000 31.761577 
422.5000 36.596144 
423.0000 32.522620 
423.5000 29.849258 
424.0000 27.457707 
424.5000 29.006795 
425.0000 32.306600 
425.5000 27.975009 
426.0000 34.985781 
426.5000 33.160569 
427.0000 33.145608 
427.5000 26.386823 
428.0000 28.896787 
428.5000 31.263952 
429.0000 32.052585 
429.5000 31.743712 
430.0000 34.105805 
430.5000 35.620514 
431.0000 33.188419 
431.5000 33.057044 
432.0000 29.369696 
432.5000 25.588760 
433.0000 28.232325 
433.5000 31.154668 
434.0000 31.387981 
434.5000 27.877791 
435.0000 34.335064 
435.5000 27.554488 
436.0000 26.070157 
436.5000 28.426943 
437.0000 26.469304 
437.5000 33.057786 
438.0000 32.821833 
438.5000 36.433514 
439.0000 26.924573 
439.5000 26.315912 
440.0000 27.240785 
440.5000 28.590485 
441.0000 28.778245 
441.5000 32.410840 
442.0000 30.943234 
442.5000 23.210513 
443.0000 29.964796 
443.5000 22.089569 
444.0000 30.875300 
444.5000 25.485900 
445.0000 28.536226 
445.5000 26.494595 
446.0000 27.821440 
446.5000 29.414645 
447.0000 25.584031 
447.5000 23.586323 
448.0000 27.085117 
448.5000 26.856957 
449.0000 29.280634 
449.5000 27.967995 
450.0000 27.724169 
450.5000 27.580356 
451.0000 28.517898 
451.5000 22.734663 
452.0000 24.600016 
452.5000 27.410727 
453.0000 28.383791 
453.5000 26.986188 
454.0000 24.967808 
454.5000 26.473555 
455.0000 23.948238 
455.5000 24.200544 
456.0000 22.850854 
456.5000 27.460293 
457.0000 22.343616 
457.5000 23.332625 
458.0000 25.528673 
458.5000 26.029370 
459.0000 20.218194 
459.5000 19.718381 
460.0000 19.992183 
460.5000 23.123557 
461.0000 20.098432 
461.5000 21.608784 
462.0000 21.715813 
462.5000 18.286220 
463.0000 19.248299 
463.5000 18.817825 
464.0000 21.408061 
464.5000 22.191185 
465.0000 21.872306 
465.5000 22.700341 
466.0000 22.730417 
466.5000 28.411901 
467.0000 22.074382 
467.5000 22.477247 
468.0000 24.043163 
468.5000 25.631271 
469.0000 22.072691 
469.5000 20.318664 
470.0000 25.736944 
470.5000 22.671454 
471.0000 19.321670 
471.5000 20.154652 
472.0000 21.294119 
472.5000 26.282191 
473.0000 22.241529 
473.5000 18.159167 
474.0000 21.130827 
474.5000 20.044868 
475.0000 22.672191 
475.5000 22.160151 
476.0000 19.805225 
476.5000 21.160625 
477.0000 19.226919 
477.5000 16.129245 
478.0000 18.192167 
478.5000 18.730129 
479.0000 18.486640 
479.5000 17.982224 
480.0000 22.207308 
480.5000 20.252698 
481.0000 23.478103 
481.5000 24.892931 
482.0000 20.065554 
482.5000 23.243109 
483.0000 22.414023 
483.5000 15.845834 
484.0000 23.582347 
484.5000 25.517612 
485.0000 26.315952 
485.5000 22.929942 
486.0000 22.122667 
486.5000 21.347833 
487.0000 23.868165 
487.5000 21.901454 
488.0000 19.187562 
488.5000 25.402161 
489.0000 22.925763 
489.5000 17.634953 
490.0000 23.084435 
490.5000 21.848766 
491.0000 21.534505 
491.5000 22.197455 
492.0000 21.656978 
492.5000 24.793010 
493.0000 24.340971 
493.5000 16.463244 
494.0000 19.107307 
494.5000 17.773214 
495.0000 20.090782 
495.5000 16.599891 
496.0000 16.910577 
496.5000 16.054757 
497.0000 15.992921 
497.5000 21.248154 
498.0000 16.478685 
498.5000 16.114805 
499.0000 18.862205 
499.5000 15.588481 
500.0000 17.657220 
500.5000 18.594303 
501.0000 16.765270 
501.5000 21.922009 
502.0000 17.159846 
502.5000 18.096760 
503.0000 18.075329 
503.5000 18.700440 
504.0000 19.879713 
504.5000 19.090523 
505.0000 16.636812 
505.5000 16.669577 
506.0000 22.768750 
506.5000 18.243160 
507.0000 19.228130 
507.5000 22.016268 
508.0000 18.019525 
508.5000 20.864581 
509.0000 17.634514 
509.5000 17.131890 
510.0000 18.614444 
510.5000 18.557211 
511.0000 18.921306 
511.5000 19.870657 
512.0000 16.428202 
512.5000 18.444190 
513.0000 18.318093 
513.5000 16.006842 
514.0000 20.218000 
514.5000 17.642623 
515.0000 19.950781 
515.5000 20.731468 
516.0000 25.074058 
516.5000 21.134561 
517.0000 22.111197 
517.5000 18.014428 
518.0000 15.535171 
518.5000 16.257726 
519.0000 20.250937 
519.5000 18.588873 
520.0000 15.714834 
520.5000 16.640045 
521.0000 16.219137 
521.5000 17.867000 
522.0000 14.176113 
522.5000 15.381892 
523.0000 15.331433 
523.5000 15.797226 
524.0000 14.358154 
524.5000 18.358934 
525.0000 15.142831 
525.5000 15.289690 
526.0000 17.512654 
526.5000 17.043727 
527.0000 18.131098 
527.5000 15.945371 
528.0000 14.807218 
528.5000 15.364227 
529.0000 13.198494 
529.5000 16.116216 
530.0000 12.486648 
530.5000 15.430660 
531.0000 13.190439 
531.5000 15.400268 
532.0000 13.500042 
532.5000 16.626180 
533.0000 14.816171 
533.5000 15.778771 
534.0000 14.397887 
534.5000 14.171170 
535.0000 15.197953 
535.5000 13.014444 
536.0000 17.076508 
536.5000 16.792123 
537.0000 13.482326 
537.5000 17.151610 
538.0000 14.170774 
538.5000 17.406522 
539.0000 15.029937 
539.5000 13.524638 
540.0000 12.438159 
540.5000 12.808979 
541.0000 14.994432 
541.5000 13.639955 
542.0000 16.963946 
542.5000 11.686109 
543.0000 14.565433 
543.5000 13.294767 
544.0000 15.960752 
544.5000 11.933301 
545.0000 18.901834 
545.5000 15.843364 
546.0000 13.539772 
546.5000 13.632493 
547.0000 11.046838 
547.5000 16.358111 
548.0000 16.085332 
548.5000 15.371088 
549.0000 13.749175 
549.5000 13.665846 
550.0000 13.520273 
550.5000 14.509987 
551.0000 18.026376 
551.5000 15.503746 
552.0000 15.535361 
552.5000 14.518524 
553.0000 15.087308 
553.5000 12.907078 
554.0000 14.094293 
554.5000 10.409751 
555.0000 12.675803 
555.5000 12.896549 
556.0000 13.751153 
556.5000 13.949636 
557.0000 14.392163 
557.5000 16.112950 
558.0000 16.579913 
558.5000 15.374875 
559.0000 12.594848 
559.5000 15.157429 
560.0000 12.456667 
560.5000 13.621408 
561.0000 16.839569 
561.5000 14.007540 
562.0000 17.064629 
562.5000 14.274031 
563.0000 11.488907 
563.5000 13.922706 
564.0000 14.649398 
564.5000 15.363072 
565.0000 15.888122 
565.5000 14.923055 
566.0000 15.048953 
566.5000 13.819200 
567.0000 18.732393 
567.5000 16.466394 
568.0000 15.612897 
568.5000 13.152985 
569.0000 11.144362 
569.5000 12.718691 
570.0000 14.440291 
570.5000 14.873864 
571.0000 16.893742 
571.5000 14.059431 
572.0000 12.036818 
572.5000 13.199389 
573.0000 14.429739 
573.5000 12.461675 
574.0000 11.742852 
574.5000 15.626682 
575.0000 14.477182 
575.5000 13.330487 
576.0000 13.824634 
576.5000 12.004192 
577.0000 13.006503 
577.5000 11.634236 
578.0000 13.880136 
578.5000 11.508176 
579.0000 11.137321 
579.5000 10.184552 
580.0000 13.735475 
580.5000 13.407163 
581.0000 14.902322 
581.5000 15.996444 
582.0000 14.688672 
582.5000 11.829241 
583.0000 12.721723 
583.5000 12.365020 
584.0000 11.415977 
584.5000 11.774499 
585.0000 15.043954 
585.5000 12.668695 
586.0000 13.081049 
586.5000 15.014712 
587.0000 13.783785 
587.5000 9.925358 
588.0000 13.121352 
588.5000 13.923286 
589.0000 14.119055 
589.5000 14.749325 
590.0000 13.109249 
590.5000 11.308933 
591.0000 11.060321 
591.5000 13.917424 
592.0000 9.812111 
592.5000 13.785568 
593.0000 13.528026 
593.5000 12.970531 
594.0000 12.823325 
594.5000 13.182561 
595.0000 14.510083 
595.5000 11.425794 
596.0000 13.132829 
596.5000 13.109099 
597.0000 13.738093 
597.5000 14.711966 
598.0000 13.727680 
598.5000 14.021426 
599.0000 11.366098 
599.5000 12.724648 
600.0000 13.185079 
600.5000 11.109378 
601.0000 8.512162 
601.5000 10.087875 
602.0000 12.328882 
602.5000 11.694913 
603.0000 13.094654 
603.5000 9.808129 
604.0000 11.660290 
604.5000 11.469672 
605.0000 12.376416 
605.5000 10.901330 
606.0000 10.093357 
606.5000 11.286316 
607.0000 12.589711 
607.5000 11.281845 
608.0000 14.214483 
608.5000 14.246390 
609.0000 9.518656 
609.5000 15.096367 
610.0000 15.481612 
610.5000 11.000929 
611.0000 13.005243 
611.5000 12.931319 
612.0000 10.745692 
612.5000 10.841592 
613.0000 12.647266 
613.5000 9.236552 
614.0000 13.011866 
614.5000 13.385374 
615.0000 9.508664 
615.5000 10.124022 
616.0000 10.083176 
616.5000 8.180654 
617.0000 8.420449 
617.5000 8.197983 
618.0000 8.399767 
618.5000 8.540517 
619.0000 8.492898 
619.5000 10.687552 
620.0000 10.219180 
620.5000 11.064616 
621.0000 12.250293 
621.5000 10.992825 
622.0000 11.578991 
622.5000 9.777288 
623.0000 11.855129 
623.5000 10.621834 
624.0000 9.116356 
624.5000 10.109548 
625.0000 8.893160 
625.5000 8.526343 
626.0000 10.879479 
626.5000 8.095211 
627.0000 9.675892 
627.5000 9.196125 
628.0000 9.838394 
628.5000 9.096222 
629.0000 15.628318 
629.5000 9.578606 
630.0000 8.836146 
630.5000 14.028160 
631.0000 8.854599 
631.5000 11.420392 
632.0000 7.018924 
632.5000 8.628423 
633.0000 9.777482 
633.5000 9.624074 
634.0000 9.747202 
634.5000 6.454111 
635.0000 11.011228 
635.5000 9.023469 
636.0000 8.788275 
636.5000 8.147988 
637.0000 8.046979 
637.5000 8.103292 
638.0000 8.626766 
638.5000 7.863630 
639.0000 5.418744 
639.5000 5.537749 
640.0000 9.163201 
640.5000 5.770344 
641.0000 6.111052 
641.5000 7.085804 
642.0000 6.061607 
642.5000 7.995283 
643.0000 6.268694 
643.5000 7.728002 
644.0000 5.771534 
644.5000 5.243004 
645.0000 5.595103 
645.5000 7.430656 
646.0000 10.017332 
646.5000 8.688257 
647.0000 7.457892 
647.5000 7.247826 
648.0000 7.172039 
648.5000 5.897722 
649.0000 8.551085 
649.5000 6.871979 
650.0000 6.762103 
650.5000 7.300477 
651.0000 4.517992 
651.5000 7.395224 
652.0000 4.281524 
652.5000 4.171859 
653.0000 6.590500 
653.5000 4.323340 
654.0000 5.402733 
654.5000 5.754714 
655.0000 6.492426 
655.5000 3.628530 
656.0000 4.885469 
656.5000 8.919068 
657.0000 9.158277 
657.5000 7.050957 
658.0000 5.769065 
658.5000 6.307296 
659.0000 5.890048 
659.5000 6.569668 
660.0000 8.616393 
660.5000 6.840700 
661.0000 5.370226 
661.5000 5.925325 
662.0000 6.484558 
662.5000 7.265120 
663.0000 4.720406 
663.5000 5.159165 
664.0000 6.630287 
664.5000 5.187103 
665.0000 5.854906 
665.5000 5.644443 
666.0000 4.031035 
666.5000 4.545360 
667.0000 8.552765 
667.5000 3.926912 
668.0000 5.179745 
668.5000 5.036525 
669.0000 6.434504 
669.5000 6.651979 
670.0000 6.945025 
670.5000 7.917281 
671.0000 5.600206 
671.5000 5.011458 
672.0000 6.396660 
672.5000 6.575587 
673.0000 7.004147 
673.5000 6.270426 
674.0000 5.243194 
674.5000 6.371883 
675.0000 6.398909 
675.5000 7.215383 
676.0000 8.255222 
676.5000 6.956331 
677.0000 5.350101 
677.5000 5.475232 
678.0000 4.046798 
678.5000 6.231486 
679.0000 9.512869 
679.5000 6.640282 
680.0000 7.700205 
680.5000 6.446208 
681.0000 9.078153 
681.5000 8.268649 
682.0000 6.451905 
682.5000 5.601208 
683.0000 5.445911 
683.5000 4.813516 
684.0000 5.303756 
684.5000 6.072037 
685.0000 6.583142 
685.5000 6.601349 
686.0000 9.538249 
686.5000 4.857820 
687.0000 4.771260 
687.5000 6.316472 
688.0000 5.967803 
688.5000 8.315020 
689.0000 9.048290 
689.5000 6.265604 
690.0000 7.387556 
690.5000 4.622406 
691.0000 6.048806 
691.5000 7.277982 
692.0000 5.815515 
692.5000 8.729340 
693.0000 8.514618 
693.5000 8.245851 
694.0000 5.640580 
694.5000 5.146886 
695.0000 5.110631 
695.5000 5.744554 
696.0000 4.487006 
696.5000 4.058481 
697.0000 3.824988 
697.5000 5.062474 
698.0000 7.082875 
698.5000 4.024145 
699.0000 5.756688 
699.5000 5.178654 
700.0000 6.759341 
700.5000 8.376046 
701.0000 5.954093 
701.5000 8.541785 
702.0000 7.180706 
702.5000 6.745496 
703.0000 8.012198 
703.5000 5.903254 
704.0000 8.492751 
704.5000 7.300209 
705.0000 5.435343 
705.5000 7.536625 
706.0000 7.680685 
706.5000 7.488016 
707.0000 7.892927 
707.5000 7.287705 
708.0000 7.358779 
708.5000 5.788657 
709.0000 6.335608 
709.5000 9.631642 
710.0000 7.489893 
710.5000 5.973043 
711.0000 8.997806 
711.5000 9.848160 
712.0000 5.746820 
712.5000 8.342532 
713.0000 7.463814 
713.5000 7.306980 
714.0000 6.025731 
714.5000 6.665407 
715.0000 7.926238 
715.5000 7.642121 
716.0000 6.647909 
716.5000 6.115871 
717.0000 6.576122 
717.5000 6.325902 
718.0000 4.383097 
718.5000 6.296714 
719.0000 5.370551 
719.5000 7.919368 
720.0000 4.776017 
720.5000 6.722159 
721.0000 4.502594 
721.5000 6.001917 
722.0000 3.626896 
722.5000 5.241093 
723.0000 4.813403 
723.5000 5.999599 
724.0000 5.448799 
724.5000 6.719748 
725.0000 6.425396 
725.5000 5.779060 
726.0000 6.098437 
726.5000 7.018173 
727.0000 6.299210 
727.5000 7.910920 
728.0000 7.463504 
728.5000 4.425210 
729.0000 5.013240 
729.5000 2.913601 
730.0000 5.008690 
730.5000 5.116082 
731.0000 5.117040 
731.5000 6.673043 
732.0000 4.783303 
732.5000 3.533175 
733.0000 4.013142 
733.5000 4.373989 
734.0000 4.932295 
734.5000 4.056696 
735.0000 3.892664 
735.5000 4.459238 
736.0000 3.685580 
736.5000 3.940008 
737.0000 3.867609 
737.5000 6.274969 
738.0000 4.284329 
738.5000 4.462600 
739.0000 4.659346 
739.5000 3.961848 
740.0000 3.344022 
740.5000 5.565468 
741.0000 5.879078 
741.5000 5.094857 
742.0000 6.631582 
742.5000 4.027570 
743.0000 3.785750 
743.5000 4.031777 
744.0000 4.401415 
744.5000 5.790552 
745.0000 4.268231 
745.5000 7.345003 
746.0000 3.297180 
746.5000 6.308649 
747.0000 3.563413 
747.5000 6.697194 
748.0000 4.606647 
748.5000 4.036963 
749.0000 4.722134 
749.5000 5.882079 
750.0000 4.473589 
750.5000 5.408200 
751.0000 4.990288 
751.5000 4.722259 
752.0000 3.017278 
752.5000 5.209237 
753.0000 5.928576 
753.5000 4.411533 
754.0000 5.067161 
754.5000 3.854512 
755.0000 5.967215 
755.5000 5.092681 
756.0000 5.701127 
756.5000 4.822791 
757.0000 5.255241 
757.5000 4.879047 
758.0000 3.651220 
758.5000 3.951755 
759.0000 3.370970 
759.5000 3.037324 
760.0000 4.086040 
760.5000 4.130061 
761.0000 3.240142 
761.5000 5.191460 
762.0000 4.916242 
762.5000 4.017435 
763.0000 3.004157 
763.5000 2.532231 
764.0000 4.532385 
764.5000 2.617450 
765.0000 4.986893 
765.5000 4.477577 
766.0000 4.434555 
766.5000 4.978131 
767.0000 5.315176 
767.5000 3.925599 
768.0000 6.210663 
768.5000 5.515284 
769.0000 7.435238 
769.5000 5.287012 
770.0000 4.461382 
770.5000 5.893093 
771.0000 3.812112 
771.5000 5.771837 
772.0000 4.308907 
772.5000 4.296892 
773.0000 4.880614 
773.5000 3.750702 
774.0000 3.255505 
774.5000 3.817201 
775.0000 2.794109 
775.5000 1.699851 
776.0000 2.102875 
776.5000 3.744038 
777.0000 4.597400 
777.5000 1.974464 
778.0000 4.663310 
778.5000 2.485917 
779.0000 2.752710 
779.5000 5.062588 
780.0000 4.640626 
780.5000 3.963084 
781.0000 3.588484 
781.5000 4.505358 
782.0000 3.098431 
782.5000 3.686071 
783.0000 4.575501 
783.5000 3.242135 
784.0000 4.270226 
784.5000 3.808921 
785.0000 4.671581 
785.5000 4.481876 
786.0000 5.618682 
786.5000 6.656618 
787.0000 5.386241 
787.5000 4.724651 
788.0000 4.484544 
788.5000 5.754353 
789.0000 4.737787 
789.5000 3.731891 
790.0000 2.122864 
790.5000 2.498835 
791.0000 3.270287 
791.5000 3.746410 
792.0000 3.111405 
792.5000 2.981151 
793.0000 1.414472 
793.5000 4.030376 
794.0000 2.203908 
794.5000 4.388714 
795.0000 3.963774 
795.5000 3.961681 
796.0000 3.291229 
796.5000 2.715071 
797.0000 3.211762 
797.5000 1.831776 
798.0000 2.170844 
798.5000 2.392130 
799.0000 3.734742 
799.5000 2.071986 
800.0000 3.493380 
800.5000 4.667780 
801.0000 2.189885 
801.5000 3.560839 
802.0000 4.669337 
802.5000 4.241570 
803.0000 3.652682 
803.5000 3.926001 
804.0000 2.904685 
804.5000 3.195809 
805.0000 3.844669 
805.5000 4.025610 
806.0000 4.621199 
806.5000 2.831622 
807.0000 4.520346 
807.5000 3.527330 
808.0000 3.808911 
808.5000 3.410055 
809.0000 4.473597 
809.5000 3.259715 
810.0000 2.977912 
810.5000 3.369402 
811.0000 2.907341 
811.5000 4.950406 
812.0000 4.907158 
812.5000 3.133869 
813.0000 4.220875 
813.5000 3.803207 
814.0000 3.095555 
814.5000 4.610542 
815.0000 4.480028 
815.5000 2.894911 
816.0000 3.600771 
816.5000 2.862286 
817.0000 2.793161 
817.5000 3.604412 
818.0000 2.747174 
818.5000 3.549643 
819.0000 4.157862 
819.5000 1.794213 
820.0000 4.862455 
820.5000 4.256671 
821.0000 2.105964 
821.5000 2.535328 
822.0000 4.166676 
822.5000 1.507342 
823.0000 2.016940 
823.5000 4.667354 
824.0000 3.721917 
824.5000 2.397100 
825.0000 2.468463 
825.5000 4.105259 
826.0000 3.395415 
826.5000 1.743205 
827.0000 2.656430 
827.5000 2.335721 
828.0000 2.109471 
828.5000 2.056395 
829.0000 1.804273 
829.5000 2.517410 
830.0000 2.842257 
830.5000 2.535955 
831.0000 5.007895 
831.5000 4.314449 
832.0000 2.967953 
832.5000 4.536480 
833.0000 3.475155 
833.5000 3.146821 
834.0000 2.648656 
834.5000 3.356248 
835.0000 1.897237 
835.5000 2.092306 
836.0000 1.906128 
836.5000 2.789473 
837.0000 1.864630 
837.5000 1.545971 
838.0000 1.538179 
838.5000 3.338791 
839.0000 1.490464 
839.5000 2.170827 
840.0000 1.726407 
840.5000 2.117870 
841.0000 1.118105 
841.5000 1.857525 
842.0000 1.745951 
842.5000 2.642394 
843.0000 1.599047 
843.5000 2.317476 
844.0000 3.720937 
844.5000 2.504692 
845.0000 1.890746 
845.5000 1.834013 
846.0000 1.627662 
846.5000 2.203725 
847.0000 1.537917 
847.5000 3.356655 
848.0000 2.741562 
848.5000 0.961832 
849.0000 2.218948 
849.5000 2.602306 
850.0000 3.238102 
850.5000 2.684511 
851.0000 2.088926 
851.5000 3.901688 
852.0000 2.024977 
852.5000 2.759764 
853.0000 1.582422 
853.5000 2.752276 
854.0000 3.955003 
854.5000 4.291789 
855.0000 2.454565 
855.5000 1.650639 
856.0000 1.847175 
856.5000 2.532638 
857.0000 2.805810 
857.5000 2.811378 
858.0000 3.528545 
858.5000 3.506155 
859.0000 2.785884 
859.5000 2.282948 
860.0000 2.955029 
860.5000 3.837908 
861.0000 2.045208 
861.5000 0.630219 
862.0000 1.613157 
862.5000 2.883563 
863.0000 2.219634 
863.5000 2.316391 
864.0000 3.825815 
864.5000 2.667636 
865.0000 2.832160 
865.5000 1.672428 
866.0000 3.281506 
866.5000 3.973042 
867.0000 4.208207 
867.5000 2.504004 
868.0000 1.898802 
868.5000 1.711969 
869.0000 2.945569 
869.5000 3.032138 
870.0000 2.409987 
870.5000 3.277953 
871.0000 4.883420 
871.5000 2.040350 
872.0000 1.950071 
872.5000 2.144420 
873.0000 3.179358 
873.5000 3.303201 
874.0000 2.373702 
874.5000 2.236932 
875.0000 3.445579 
875.5000 3.465564 
876.0000 4.321869 
876.5000 2.366421 
877.0000 2.702609 
877.5000 2.766346 
878.0000 3.815380 
878.5000 1.032180 
879.0000 3.467502 
879.5000 2.755776 
880.0000 2.790846 
880.5000 2.653596 
881.0000 2.160878 
881.5000 2.239961 
882.0000 1.644033 
882.5000 2.252310 
883.0000 2.572699 
883.5000 2.715464 
884.0000 3.274402 
884.5000 0.937294 
885.0000 1.899776 
885.5000 1.068933 
886.0000 0.576789 
886.5000 1.759510 
887.0000 1.099184 
887.5000 1.100165 
888.0000 0.959979 
888.5000 2.264017 
889.0000 3.154148 
889.5000 2.457870 
890.0000 2.756094 
890.5000 3.427522 
891.0000 1.241271 
891.5000 2.487326 
892.0000 1.836090 
892.5000 1.722472 
893.0000 3.667381 
893.5000 3.519901 
894.0000 2.298800 
894.5000 2.589290 
895.0000 2.389733 
895.5000 1.603211 
896.0000 1.606468 
896.5000 3.132152 
897.0000 1.136782 
897.5000 1.141429 
898.0000 1.962604 
898.5000 4.096110 
899.0000 1.550806 
899.5000 3.351829 
900.0000 2.466591 
900.5000 1.584692 
901.0000 4.211181 
901.5000 1.949099 
902.0000 4.726986 
902.5000 4.380361 
903.0000 2.118119 
903.5000 2.364494 
904.0000 3.961951 
904.5000 2.665461 
905.0000 2.478697 
905.5000 1.764037 
906.0000 2.507049 
906.5000 1.129724 
907.0000 3.072580 
907.5000 3.118432 
908.0000 2.715749 
908.5000 2.262653 
909.0000 1.771898 
909.5000 3.407553 
910.0000 2.508043 
910.5000 2.468754 
911.0000 2.998012 
911.5000 2.821178 
912.0000 4.095173 
912.5000 4.605217 
913.0000 2.863256 
913.5000 3.303812 
914.0000 3.921173 
914.5000 4.634868 
915.0000 2.557859 
915.5000 2.877579 
916.0000 2.938519 
916.5000 1.906884 
917.0000 3.640803 
917.5000 3.236625 
918.0000 2.762319 
918.5000 2.887717 
919.0000 1.951788 
919.5000 0.903120 
920.0000 3.538616 
920.5000 3.330953 
921.0000 2.220044 
921.5000 1.024371 
922.0000 1.292786 
922.5000 2.346509 
923.0000 1.544530 
923.5000 1.231220 
924.0000 1.426549 
924.5000 1.031370 
925.0000 1.897781 
925.5000 1.761334 
926.0000 1.517283 
926.5000 0.666081 
927.0000 0.889669 
927.5000 1.924426 
928.0000 1.040671 
928.5000 2.240925 
929.0000 1.857999 
929.5000 1.679385 
930.0000 2.308465 
930.5000 2.226923 
931.0000 2.119641 
931.5000 1.552220 
932.0000 1.317437 
932.5000 1.170135 
933.0000 1.905032 
933.5000 1.578844 
934.0000 0.881020 
934.5000 1.946225 
935.0000 2.491323 
935.5000 1.926249 
936.0000 3.213701 
936.5000 1.546894 
937.0000 2.132473 
937.5000 2.138089 
938.0000 0.842476 
938.5000 2.339812 
939.0000 1.554205 
939.5000 1.769344 
940.0000 2.435383 
940.5000 3.286553 
941.0000 2.223120 
941.5000 2.764195 
942.0000 2.025507 
942.5000 1.184667 
943.0000 2.155973 
943.5000 1.432336 
944.0000 1.284915 
944.5000 1.906484 
945.0000 2.947613 
945.5000 3.308570 
946.0000 2.800673 
946.5000 1.919228 
947.0000 1.030872 
947.5000 1.405820 
948.0000 2.460542 
948.5000 2.673324 
949.0000 3.449471 
949.5000 1.775328 
950.0000 1.842076 
950.5000 3.609283 
951.0000 2.110997 
951.5000 1.766249 
952.0000 1.879795 
952.5000 1.770478 
953.0000 1.264905 
953.5000 3.035590 
954.0000 1.072730 
954.5000 1.077795 
955.0000 2.567631 
955.5000 2.103223 
956.0000 3.239377 
956.5000 3.439899 
957.0000 1.430302 
957.5000 1.795631 
958.0000 3.611962 
958.5000 2.968815 
959.0000 2.988221 
959.5000 1.772113 
960.0000 2.404001 
960.5000 2.181161 
961.0000 3.410120 
961.5000 3.532570 
962.0000 1.800516 
962.5000 1.970523 
963.0000 2.608340 
963.5000 1.971354 
964.0000 1.987830 
964.5000 1.599084 
965.0000 2.174100 
965.5000 2.783732 
966.0000 2.506863 
966.5000 2.507174 
967.0000 3.285518 
967.5000 1.741096 
968.0000 2.481170 
968.5000 1.431410 
969.0000 1.146278 
969.5000 1.993656 
970.0000 0.564481 
970.5000 1.248809 
971.0000 2.304949 
971.5000 0.612949 
972.0000 0.850324 
972.5000 1.152254 
973.0000 1.720698 
973.5000 1.995464 
974.0000 0.876197 
974.5000 1.717446 
975.0000 1.687192 
975.5000 1.624446 
976.0000 1.344830 
976.5000 2.086916 
977.0000 1.459377 
977.5000 1.698008 
978.0000 1.866998 
978.5000 1.669230 
979.0000 1.368992 
979.5000 1.241229 
980.0000 0.146950 
980.5000 0.539437 
981.0000 1.068660 
981.5000 2.490435 
982.0000 0.392630 
982.5000 1.172854 
983.0000 1.627932 
983.5000 1.071682 
984.0000 1.042976 
984.5000 1.937576 
985.0000 1.341778 
985.5000 1.482052 
986.0000 1.835416 
986.5000 1.468466 
987.0000 0.161967 
987.5000 1.105313 
988.0000 0.550745 
988.5000 1.558143 
989.0000 1.170553 
989.5000 0.948259 
990.0000 1.233384 
990.5000 1.667768 
991.0000 1.040499 
991.5000 0.666143 
992.0000 1.804312 
992.5000 1.605818 
993.0000 0.519362 
993.5000 0.641464 
994.0000 1.718759 
994.5000 2.001499 
995.0000 1.409045 
995.5000 0.904322 
996.0000 1.217658 
996.5000 0.317902 
997.0000 0.889100 
997.5000 0.888296 
998.0000 0.871158 
998.5000 0.690791 
999.0000 1.399100 
999.5000 1.351256 
1000.0000 0.000000 
