plot 'OneDim_Edep_040.dat' w l,\
'OneDim_Edep_050.dat' w l,\
'OneDim_Edep_060.dat' w l,\
'OneDim_Edep_070.dat' w l,\
'OneDim_Edep_080.dat' w l,\
'OneDim_Edep_090.dat' w l,\
'OneDim_Edep_100.dat' w l,\
'OneDim_Edep_110.dat' w l,\
'OneDim_Edep_120.dat' w l,\
'OneDim_Edep_130.dat' w l,\
'OneDim_Edep_140.dat' w l,\
'OneDim_Edep_150.dat' w l,\
'OneDim_Edep_160.dat' w l,\
'OneDim_Edep_170.dat' w l,\
'OneDim_Edep_180.dat' w l,\
'OneDim_Edep_190.dat' w l,\
'OneDim_Edep_200.dat' w l,\
'OneDim_Edep_210.dat' w l,\
'OneDim_Edep_220.dat' w l,\
'OneDim_Edep_230.dat' w l,\
'OneDim_Edep_240.dat' w l,\
'OneDim_Edep_250.dat' w l
