# first line is penetration depth steps in mm, second energy deposited in MeV 
0.0000 4357751.000000 
0.5000 4425874.000000 
1.0000 4457157.000000 
1.5000 4484662.000000 
2.0000 4511765.000000 
2.5000 4536768.000000 
3.0000 4563533.000000 
3.5000 4588111.000000 
4.0000 4610478.000000 
4.5000 4631864.000000 
5.0000 4656289.000000 
5.5000 4684009.000000 
6.0000 4707242.000000 
6.5000 4728093.000000 
7.0000 4756360.000000 
7.5000 4778922.000000 
8.0000 4804866.000000 
8.5000 4826246.000000 
9.0000 4852743.000000 
9.5000 4876635.000000 
10.0000 4898771.000000 
10.5000 4924589.000000 
11.0000 4951051.000000 
11.5000 4975983.000000 
12.0000 5001346.000000 
12.5000 5027718.000000 
13.0000 5053119.000000 
13.5000 5078827.000000 
14.0000 5108463.000000 
14.5000 5134998.000000 
15.0000 5161885.000000 
15.5000 5187166.000000 
16.0000 5216805.000000 
16.5000 5247553.000000 
17.0000 5271232.000000 
17.5000 5303654.000000 
18.0000 5333038.000000 
18.5000 5364164.000000 
19.0000 5394626.000000 
19.5000 5422609.000000 
20.0000 5455093.000000 
20.5000 5490792.000000 
21.0000 5524363.000000 
21.5000 5558366.000000 
22.0000 5590695.000000 
22.5000 5625589.000000 
23.0000 5661526.000000 
23.5000 5703024.000000 
24.0000 5739243.000000 
24.5000 5779681.000000 
25.0000 5818075.000000 
25.5000 5858447.000000 
26.0000 5898416.000000 
26.5000 5941334.000000 
27.0000 5986130.000000 
27.5000 6033644.000000 
28.0000 6079899.000000 
28.5000 6130028.000000 
29.0000 6181147.000000 
29.5000 6231774.000000 
30.0000 6289458.000000 
30.5000 6345379.000000 
31.0000 6401864.000000 
31.5000 6465014.000000 
32.0000 6528544.000000 
32.5000 6596648.000000 
33.0000 6667700.000000 
33.5000 6739384.000000 
34.0000 6811340.000000 
34.5000 6891779.000000 
35.0000 6973226.000000 
35.5000 7059191.000000 
36.0000 7150476.000000 
36.5000 7245103.000000 
37.0000 7339859.000000 
37.5000 7439739.000000 
38.0000 7553787.000000 
38.5000 7667259.000000 
39.0000 7785906.000000 
39.5000 7913373.000000 
40.0000 8050035.000000 
40.5000 8192439.000000 
41.0000 8345417.000000 
41.5000 8511772.000000 
42.0000 8689342.000000 
42.5000 8877464.000000 
43.0000 9084552.000000 
43.5000 9307145.000000 
44.0000 9551066.000000 
44.5000 9820955.000000 
45.0000 10122919.000000 
45.5000 10458582.000000 
46.0000 10836626.000000 
46.5000 11260684.000000 
47.0000 11751360.000000 
47.5000 12318712.000000 
48.0000 12990822.000000 
48.5000 13798533.000000 
49.0000 14819024.000000 
49.5000 16161194.000000 
50.0000 18105018.000000 
50.5000 21112000.000000 
51.0000 24854490.000000 
51.5000 25726020.000000 
52.0000 19151742.000000 
52.5000 8672972.000000 
53.0000 2134550.000000 
53.5000 264995.400000 
54.0000 20803.929000 
54.5000 6323.170000 
55.0000 5694.731000 
55.5000 5945.505000 
56.0000 5758.882000 
56.5000 5672.648000 
57.0000 5639.061000 
57.5000 5587.486000 
58.0000 5458.472000 
58.5000 5398.562000 
59.0000 5566.825000 
59.5000 5358.790000 
60.0000 5156.621000 
60.5000 5201.066000 
61.0000 5080.215000 
61.5000 5092.492000 
62.0000 5156.126000 
62.5000 5297.589000 
63.0000 5243.723000 
63.5000 5223.585000 
64.0000 4934.241000 
64.5000 5022.190000 
65.0000 4930.279000 
65.5000 5074.232000 
66.0000 4846.622000 
66.5000 4697.678000 
67.0000 4719.246000 
67.5000 4862.378000 
68.0000 4753.865000 
68.5000 4744.243000 
69.0000 4833.546000 
69.5000 4686.732000 
70.0000 4679.153000 
70.5000 4673.171000 
71.0000 4593.468000 
71.5000 4578.597000 
72.0000 4596.693000 
72.5000 4563.117000 
73.0000 4312.609000 
73.5000 4575.526000 
74.0000 4559.628000 
74.5000 4484.416000 
75.0000 4419.623000 
75.5000 4435.933000 
76.0000 4465.699000 
76.5000 4351.136000 
77.0000 4399.525000 
77.5000 4346.768000 
78.0000 4270.549000 
78.5000 4255.330000 
79.0000 4149.755000 
79.5000 3994.662000 
80.0000 4045.245000 
80.5000 3929.937000 
81.0000 4030.288000 
81.5000 4064.020000 
82.0000 4057.111000 
82.5000 3884.681000 
83.0000 3731.106000 
83.5000 3785.593000 
84.0000 3803.820000 
84.5000 3643.453000 
85.0000 3868.569000 
85.5000 3658.159000 
86.0000 3825.866000 
86.5000 3904.322000 
87.0000 3898.534000 
87.5000 3784.298000 
88.0000 3552.265000 
88.5000 3668.322000 
89.0000 3510.346000 
89.5000 3483.147000 
90.0000 3640.277000 
90.5000 3516.597000 
91.0000 3479.480000 
91.5000 3451.671000 
92.0000 3428.900000 
92.5000 3406.505000 
93.0000 3409.601000 
93.5000 3421.109000 
94.0000 3283.798000 
94.5000 3388.770000 
95.0000 3393.831000 
95.5000 3376.885000 
96.0000 3426.623000 
96.5000 3360.013000 
97.0000 3232.938000 
97.5000 3266.015000 
98.0000 3264.230000 
98.5000 3179.444000 
99.0000 3264.166000 
99.5000 3391.869000 
100.0000 3177.847000 
100.5000 3245.100000 
101.0000 3349.113000 
101.5000 3095.542000 
102.0000 3122.848000 
102.5000 3275.452000 
103.0000 3142.287000 
103.5000 3096.354000 
104.0000 3051.336000 
104.5000 3049.362000 
105.0000 2809.021000 
105.5000 2961.635000 
106.0000 2905.496000 
106.5000 2996.024000 
107.0000 2933.860000 
107.5000 2933.876000 
108.0000 2874.067000 
108.5000 2920.095000 
109.0000 2915.516000 
109.5000 2845.282000 
110.0000 2766.024000 
110.5000 2843.505000 
111.0000 2792.933000 
111.5000 2873.569000 
112.0000 2812.185000 
112.5000 2811.754000 
113.0000 2770.755000 
113.5000 2784.886000 
114.0000 2722.661000 
114.5000 2662.895000 
115.0000 2726.553000 
115.5000 2705.421000 
116.0000 2741.265000 
116.5000 2802.818000 
117.0000 2723.188000 
117.5000 2609.448000 
118.0000 2519.835500 
118.5000 2604.731000 
119.0000 2547.892900 
119.5000 2583.213000 
120.0000 2580.024000 
120.5000 2535.001000 
121.0000 2724.958000 
121.5000 2542.349000 
122.0000 2547.973000 
122.5000 2546.148000 
123.0000 2419.240000 
123.5000 2519.497000 
124.0000 2415.054400 
124.5000 2418.166400 
125.0000 2489.372000 
125.5000 2448.636000 
126.0000 2324.516500 
126.5000 2318.817300 
127.0000 2214.394000 
127.5000 2383.325000 
128.0000 2348.415600 
128.5000 2271.930600 
129.0000 2412.538300 
129.5000 2309.729200 
130.0000 2343.358600 
130.5000 2305.532100 
131.0000 2289.448300 
131.5000 2344.499900 
132.0000 2332.150200 
132.5000 2352.065800 
133.0000 2129.942300 
133.5000 2181.362700 
134.0000 2181.785600 
134.5000 2265.564900 
135.0000 2273.972700 
135.5000 2216.259300 
136.0000 2321.084600 
136.5000 2322.356300 
137.0000 2131.347000 
137.5000 2103.256200 
138.0000 2058.788400 
138.5000 2094.819100 
139.0000 2079.243600 
139.5000 2072.286400 
140.0000 2139.533000 
140.5000 2094.823500 
141.0000 2148.700400 
141.5000 2106.202300 
142.0000 2087.658400 
142.5000 1979.152800 
143.0000 1994.411300 
143.5000 2051.270000 
144.0000 1972.758600 
144.5000 2072.355000 
145.0000 2053.160600 
145.5000 1933.579600 
146.0000 2027.208900 
146.5000 1949.985800 
147.0000 1907.864600 
147.5000 1872.277400 
148.0000 1877.763700 
148.5000 1927.418800 
149.0000 1942.061500 
149.5000 1799.421500 
150.0000 1989.267500 
150.5000 1914.107300 
151.0000 1943.740100 
151.5000 1992.741100 
152.0000 1946.175300 
152.5000 1911.846000 
153.0000 1866.577100 
153.5000 1825.029000 
154.0000 1823.681300 
154.5000 1771.845000 
155.0000 1810.687500 
155.5000 1811.797900 
156.0000 1831.926800 
156.5000 1786.570100 
157.0000 1766.730000 
157.5000 1736.542100 
158.0000 1775.422000 
158.5000 1725.914900 
159.0000 1706.972500 
159.5000 1731.871300 
160.0000 1674.324000 
160.5000 1635.457600 
161.0000 1658.041700 
161.5000 1723.517000 
162.0000 1652.133100 
162.5000 1666.870300 
163.0000 1706.203400 
163.5000 1725.777400 
164.0000 1614.857000 
164.5000 1642.443500 
165.0000 1699.128200 
165.5000 1584.972300 
166.0000 1653.545600 
166.5000 1527.880700 
167.0000 1551.861500 
167.5000 1528.246800 
168.0000 1549.257800 
168.5000 1523.967500 
169.0000 1558.750700 
169.5000 1620.331600 
170.0000 1586.949700 
170.5000 1598.729400 
171.0000 1581.020700 
171.5000 1500.235900 
172.0000 1572.190800 
172.5000 1508.248000 
173.0000 1522.418800 
173.5000 1551.309400 
174.0000 1492.663100 
174.5000 1535.319200 
175.0000 1513.647400 
175.5000 1562.341000 
176.0000 1623.561000 
176.5000 1481.567400 
177.0000 1521.248700 
177.5000 1471.321600 
178.0000 1364.450100 
178.5000 1336.365700 
179.0000 1397.079600 
179.5000 1448.465500 
180.0000 1467.164400 
180.5000 1411.832200 
181.0000 1330.672900 
181.5000 1381.348000 
182.0000 1353.085100 
182.5000 1410.401100 
183.0000 1366.332900 
183.5000 1446.688600 
184.0000 1407.642500 
184.5000 1485.285500 
185.0000 1486.325700 
185.5000 1420.548900 
186.0000 1367.468400 
186.5000 1321.098200 
187.0000 1426.781700 
187.5000 1472.168400 
188.0000 1330.280400 
188.5000 1285.506100 
189.0000 1302.300400 
189.5000 1325.089500 
190.0000 1297.067800 
190.5000 1385.551200 
191.0000 1354.532900 
191.5000 1320.876500 
192.0000 1294.402300 
192.5000 1323.320300 
193.0000 1352.739400 
193.5000 1182.239700 
194.0000 1199.744400 
194.5000 1190.685500 
195.0000 1247.853100 
195.5000 1255.233300 
196.0000 1203.080800 
196.5000 1200.924100 
197.0000 1245.922200 
197.5000 1200.727100 
198.0000 1182.715700 
198.5000 1246.701000 
199.0000 1233.080300 
199.5000 1231.027600 
200.0000 1220.501800 
200.5000 1221.971800 
201.0000 1302.087200 
201.5000 1242.614400 
202.0000 1161.594700 
202.5000 1171.406700 
203.0000 1234.166600 
203.5000 1261.706900 
204.0000 1183.199700 
204.5000 1175.651200 
205.0000 1137.406300 
205.5000 1108.310200 
206.0000 1160.680500 
206.5000 1108.934200 
207.0000 1114.211200 
207.5000 1122.852800 
208.0000 1114.587000 
208.5000 1102.421000 
209.0000 1112.791700 
209.5000 1137.022600 
210.0000 1048.170600 
210.5000 985.429200 
211.0000 1043.392700 
211.5000 1030.343400 
212.0000 1057.933300 
212.5000 1097.487100 
213.0000 1169.316600 
213.5000 1098.798900 
214.0000 1071.458100 
214.5000 1063.306900 
215.0000 1082.022000 
215.5000 1115.312000 
216.0000 977.045700 
216.5000 1018.021100 
217.0000 1076.134600 
217.5000 1065.223500 
218.0000 1081.786700 
218.5000 1125.406700 
219.0000 1024.148900 
219.5000 1033.912500 
220.0000 1025.349800 
220.5000 973.213500 
221.0000 1030.057700 
221.5000 968.359500 
222.0000 924.047700 
222.5000 957.675500 
223.0000 956.421900 
223.5000 985.630500 
224.0000 999.198300 
224.5000 993.233000 
225.0000 905.832200 
225.5000 921.996200 
226.0000 951.220400 
226.5000 973.758300 
227.0000 862.327900 
227.5000 948.786400 
228.0000 935.393900 
228.5000 938.746600 
229.0000 953.491300 
229.5000 919.859900 
230.0000 932.715000 
230.5000 936.658700 
231.0000 992.602500 
231.5000 958.267900 
232.0000 897.495400 
232.5000 829.180800 
233.0000 854.747100 
233.5000 855.975100 
234.0000 858.626400 
234.5000 823.684600 
235.0000 915.813900 
235.5000 872.976300 
236.0000 906.518600 
236.5000 923.386900 
237.0000 889.156900 
237.5000 988.485100 
238.0000 888.304800 
238.5000 899.755000 
239.0000 864.196000 
239.5000 801.216300 
240.0000 831.997700 
240.5000 874.771200 
241.0000 847.025200 
241.5000 781.555500 
242.0000 749.511300 
242.5000 827.940300 
243.0000 851.987300 
243.5000 852.184500 
244.0000 794.808200 
244.5000 838.914600 
245.0000 796.362100 
245.5000 756.866300 
246.0000 775.681700 
246.5000 842.857300 
247.0000 756.034400 
247.5000 813.342100 
248.0000 801.310100 
248.5000 781.836200 
249.0000 730.656500 
249.5000 771.553900 
250.0000 769.645300 
250.5000 774.075700 
251.0000 793.177700 
251.5000 751.162900 
252.0000 723.069200 
252.5000 714.379800 
253.0000 711.491900 
253.5000 687.352500 
254.0000 695.670600 
254.5000 678.789300 
255.0000 752.905500 
255.5000 759.698400 
256.0000 775.982100 
256.5000 694.308500 
257.0000 726.334100 
257.5000 727.977700 
258.0000 736.667800 
258.5000 708.484900 
259.0000 716.463800 
259.5000 703.547100 
260.0000 682.502800 
260.5000 663.742400 
261.0000 660.712000 
261.5000 713.652800 
262.0000 715.577600 
262.5000 752.051700 
263.0000 708.393500 
263.5000 680.845300 
264.0000 681.443500 
264.5000 650.958200 
265.0000 627.210200 
265.5000 708.981500 
266.0000 697.497400 
266.5000 668.102300 
267.0000 670.198900 
267.5000 680.528100 
268.0000 682.608300 
268.5000 601.467000 
269.0000 615.524300 
269.5000 633.478000 
270.0000 648.254200 
270.5000 721.181000 
271.0000 642.826600 
271.5000 596.987900 
272.0000 671.791400 
272.5000 698.305900 
273.0000 670.802300 
273.5000 664.315100 
274.0000 673.145900 
274.5000 631.248900 
275.0000 659.142700 
275.5000 602.493700 
276.0000 570.267600 
276.5000 596.187500 
277.0000 607.240700 
277.5000 623.315200 
278.0000 628.773600 
278.5000 593.979400 
279.0000 594.248600 
279.5000 620.331700 
280.0000 630.404700 
280.5000 599.912800 
281.0000 630.404900 
281.5000 542.549500 
282.0000 594.455500 
282.5000 587.199100 
283.0000 612.708100 
283.5000 577.208200 
284.0000 597.620600 
284.5000 588.842800 
285.0000 582.454700 
285.5000 625.113300 
286.0000 602.180800 
286.5000 622.477100 
287.0000 574.407300 
287.5000 599.055800 
288.0000 613.312000 
288.5000 551.246700 
289.0000 591.943700 
289.5000 565.188500 
290.0000 586.835800 
290.5000 507.161400 
291.0000 534.487000 
291.5000 541.821500 
292.0000 547.799100 
292.5000 536.155500 
293.0000 571.572500 
293.5000 505.859900 
294.0000 514.983400 
294.5000 486.881500 
295.0000 521.580400 
295.5000 544.239600 
296.0000 545.231500 
296.5000 521.533600 
297.0000 483.487900 
297.5000 504.093500 
298.0000 554.185400 
298.5000 484.327100 
299.0000 516.683500 
299.5000 536.792900 
300.0000 591.091200 
300.5000 516.487700 
301.0000 492.904400 
301.5000 480.960300 
302.0000 478.671200 
302.5000 590.143700 
303.0000 517.330600 
303.5000 473.539900 
304.0000 524.115600 
304.5000 470.052600 
305.0000 511.719900 
305.5000 484.556600 
306.0000 468.221500 
306.5000 512.856000 
307.0000 481.891700 
307.5000 437.972900 
308.0000 457.059700 
308.5000 539.044500 
309.0000 487.110400 
309.5000 461.917800 
310.0000 475.389100 
310.5000 455.920100 
311.0000 466.636500 
311.5000 444.773800 
312.0000 497.028400 
312.5000 489.756800 
313.0000 489.096200 
313.5000 467.380500 
314.0000 424.962200 
314.5000 494.244200 
315.0000 515.619100 
315.5000 430.455800 
316.0000 472.873200 
316.5000 397.741300 
317.0000 446.096800 
317.5000 400.192800 
318.0000 392.806310 
318.5000 442.529000 
319.0000 404.718300 
319.5000 465.527600 
320.0000 447.647200 
320.5000 484.697800 
321.0000 443.013000 
321.5000 451.361700 
322.0000 490.985900 
322.5000 488.652400 
323.0000 419.710000 
323.5000 431.185700 
324.0000 465.513900 
324.5000 463.901100 
325.0000 472.507600 
325.5000 416.306900 
326.0000 431.978400 
326.5000 427.500800 
327.0000 445.425300 
327.5000 393.007400 
328.0000 427.739600 
328.5000 386.932100 
329.0000 396.749400 
329.5000 388.381200 
330.0000 376.442140 
330.5000 365.465000 
331.0000 374.624190 
331.5000 413.142400 
332.0000 385.544800 
332.5000 365.882100 
333.0000 400.095900 
333.5000 378.311900 
334.0000 362.176120 
334.5000 334.556460 
335.0000 413.312000 
335.5000 346.667100 
336.0000 380.354800 
336.5000 403.106800 
337.0000 347.869380 
337.5000 369.000300 
338.0000 419.910700 
338.5000 427.943300 
339.0000 381.781500 
339.5000 342.468000 
340.0000 355.857150 
340.5000 404.513000 
341.0000 391.769800 
341.5000 382.379300 
342.0000 386.165000 
342.5000 422.003600 
343.0000 412.039700 
343.5000 404.644800 
344.0000 428.020400 
344.5000 386.732400 
345.0000 347.422570 
345.5000 386.592200 
346.0000 359.219900 
346.5000 337.232900 
347.0000 326.215200 
347.5000 331.286760 
348.0000 345.124950 
348.5000 404.805000 
349.0000 395.986500 
349.5000 375.053700 
350.0000 400.514500 
350.5000 390.607600 
351.0000 390.074200 
351.5000 358.815180 
352.0000 393.693100 
352.5000 374.361100 
353.0000 341.914230 
353.5000 336.556120 
354.0000 327.219700 
354.5000 355.008300 
355.0000 373.001320 
355.5000 323.632230 
356.0000 345.857300 
356.5000 364.232250 
357.0000 314.799020 
357.5000 309.260220 
358.0000 308.711290 
358.5000 310.749830 
359.0000 330.318910 
359.5000 366.271100 
360.0000 359.080650 
360.5000 318.966300 
361.0000 270.907420 
361.5000 300.902100 
362.0000 292.819560 
362.5000 306.224700 
363.0000 315.248310 
363.5000 314.774270 
364.0000 284.319020 
364.5000 286.903900 
365.0000 293.058850 
365.5000 286.152290 
366.0000 294.879400 
366.5000 264.258380 
367.0000 296.681790 
367.5000 317.452620 
368.0000 328.820140 
368.5000 294.441590 
369.0000 268.279800 
369.5000 294.552010 
370.0000 297.890290 
370.5000 322.972090 
371.0000 306.085860 
371.5000 308.002600 
372.0000 317.486190 
372.5000 269.135500 
373.0000 268.193440 
373.5000 293.204470 
374.0000 275.908000 
374.5000 274.833670 
375.0000 267.126630 
375.5000 275.143160 
376.0000 247.344420 
376.5000 268.414890 
377.0000 273.616790 
377.5000 252.952790 
378.0000 288.511520 
378.5000 266.450570 
379.0000 260.669710 
379.5000 290.164700 
380.0000 275.931110 
380.5000 290.878550 
381.0000 297.282540 
381.5000 324.002270 
382.0000 293.118570 
382.5000 316.833530 
383.0000 319.560930 
383.5000 286.332540 
384.0000 268.250800 
384.5000 283.871510 
385.0000 273.162260 
385.5000 290.424780 
386.0000 276.264060 
386.5000 301.679630 
387.0000 295.133940 
387.5000 285.770290 
388.0000 276.390440 
388.5000 294.199480 
389.0000 283.514720 
389.5000 259.810110 
390.0000 355.775600 
390.5000 292.256750 
391.0000 286.677280 
391.5000 306.304310 
392.0000 263.042860 
392.5000 281.116750 
393.0000 244.560330 
393.5000 254.443580 
394.0000 254.726620 
394.5000 255.267680 
395.0000 234.332080 
395.5000 241.904860 
396.0000 242.906630 
396.5000 285.742490 
397.0000 262.518130 
397.5000 270.584650 
398.0000 274.046010 
398.5000 261.039340 
399.0000 264.301110 
399.5000 269.121030 
400.0000 255.543240 
400.5000 252.901320 
401.0000 287.175050 
401.5000 249.220660 
402.0000 249.422250 
402.5000 290.037280 
403.0000 261.087380 
403.5000 277.825520 
404.0000 262.365120 
404.5000 250.041820 
405.0000 222.000970 
405.5000 209.640280 
406.0000 219.194010 
406.5000 202.700880 
407.0000 236.971170 
407.5000 249.942210 
408.0000 221.539870 
408.5000 232.489310 
409.0000 217.740230 
409.5000 206.783190 
410.0000 225.423560 
410.5000 225.744010 
411.0000 234.433140 
411.5000 231.137040 
412.0000 264.705340 
412.5000 192.466610 
413.0000 211.101470 
413.5000 180.932100 
414.0000 188.654620 
414.5000 219.021370 
415.0000 190.935390 
415.5000 209.577210 
416.0000 196.812980 
416.5000 213.838850 
417.0000 241.490780 
417.5000 232.076420 
418.0000 222.796250 
418.5000 246.042110 
419.0000 251.607480 
419.5000 218.008960 
420.0000 196.222150 
420.5000 254.415490 
421.0000 228.590130 
421.5000 232.077680 
422.0000 214.288890 
422.5000 221.311580 
423.0000 307.470710 
423.5000 226.053890 
424.0000 224.074200 
424.5000 240.017160 
425.0000 206.230460 
425.5000 249.223560 
426.0000 202.146580 
426.5000 212.316100 
427.0000 234.548940 
427.5000 205.196510 
428.0000 198.532740 
428.5000 236.036450 
429.0000 219.985490 
429.5000 228.347690 
430.0000 212.401020 
430.5000 206.988760 
431.0000 238.547430 
431.5000 202.698680 
432.0000 225.924120 
432.5000 168.182160 
433.0000 203.772620 
433.5000 194.134990 
434.0000 184.100280 
434.5000 190.838120 
435.0000 212.289030 
435.5000 169.968890 
436.0000 183.728290 
436.5000 184.103780 
437.0000 227.160660 
437.5000 190.386260 
438.0000 208.961160 
438.5000 196.902850 
439.0000 179.591370 
439.5000 206.696960 
440.0000 174.219750 
440.5000 183.556830 
441.0000 162.383440 
441.5000 173.126460 
442.0000 187.172650 
442.5000 197.861260 
443.0000 189.977550 
443.5000 205.662040 
444.0000 157.551300 
444.5000 166.385730 
445.0000 181.075010 
445.5000 182.007680 
446.0000 180.686490 
446.5000 215.509460 
447.0000 198.935730 
447.5000 162.085680 
448.0000 169.855700 
448.5000 174.478950 
449.0000 183.261660 
449.5000 179.613710 
450.0000 180.016080 
450.5000 174.983430 
451.0000 180.721640 
451.5000 187.586320 
452.0000 162.662450 
452.5000 164.697180 
453.0000 161.357290 
453.5000 155.735280 
454.0000 175.156280 
454.5000 166.125900 
455.0000 164.115120 
455.5000 170.771010 
456.0000 162.492890 
456.5000 170.152790 
457.0000 150.670730 
457.5000 171.800570 
458.0000 180.293620 
458.5000 159.491040 
459.0000 156.436460 
459.5000 184.253590 
460.0000 172.522790 
460.5000 165.579790 
461.0000 161.390590 
461.5000 165.783950 
462.0000 194.916760 
462.5000 134.191800 
463.0000 170.888050 
463.5000 178.400300 
464.0000 150.225320 
464.5000 156.312350 
465.0000 198.930050 
465.5000 167.152280 
466.0000 146.961140 
466.5000 140.367460 
467.0000 182.349340 
467.5000 181.849340 
468.0000 158.087390 
468.5000 140.797760 
469.0000 179.336480 
469.5000 189.698110 
470.0000 190.387150 
470.5000 194.870820 
471.0000 171.175650 
471.5000 151.303000 
472.0000 139.066120 
472.5000 157.309410 
473.0000 166.409870 
473.5000 144.883440 
474.0000 159.049530 
474.5000 157.513640 
475.0000 121.195330 
475.5000 140.725620 
476.0000 134.409380 
476.5000 159.502200 
477.0000 158.544850 
477.5000 166.075700 
478.0000 137.159290 
478.5000 167.061300 
479.0000 164.541590 
479.5000 153.454470 
480.0000 153.145790 
480.5000 152.545040 
481.0000 129.501400 
481.5000 148.349630 
482.0000 142.732010 
482.5000 155.102240 
483.0000 157.102350 
483.5000 174.038520 
484.0000 142.751080 
484.5000 159.131650 
485.0000 168.965360 
485.5000 156.264590 
486.0000 127.985090 
486.5000 126.049940 
487.0000 177.534870 
487.5000 142.067680 
488.0000 128.952060 
488.5000 124.961670 
489.0000 132.787970 
489.5000 130.899670 
490.0000 140.336920 
490.5000 113.005770 
491.0000 145.174310 
491.5000 174.069010 
492.0000 138.004320 
492.5000 142.192610 
493.0000 131.476860 
493.5000 149.461040 
494.0000 120.581020 
494.5000 133.401780 
495.0000 139.167200 
495.5000 110.617710 
496.0000 108.295240 
496.5000 113.560280 
497.0000 114.138010 
497.5000 119.188170 
498.0000 97.818730 
498.5000 110.900620 
499.0000 137.507760 
499.5000 109.898070 
500.0000 99.961640 
500.5000 124.627690 
501.0000 101.994110 
501.5000 126.058440 
502.0000 104.116130 
502.5000 116.216810 
503.0000 101.179820 
503.5000 115.033180 
504.0000 117.879940 
504.5000 121.016800 
505.0000 136.774640 
505.5000 131.255190 
506.0000 132.548780 
506.5000 109.891880 
507.0000 108.446390 
507.5000 127.260770 
508.0000 114.793970 
508.5000 129.282440 
509.0000 120.719880 
509.5000 114.143990 
510.0000 114.949080 
510.5000 132.422240 
511.0000 109.552680 
511.5000 120.405520 
512.0000 141.891870 
512.5000 119.574380 
513.0000 129.714180 
513.5000 130.636830 
514.0000 138.785660 
514.5000 125.760220 
515.0000 117.965700 
515.5000 128.963010 
516.0000 131.728820 
516.5000 116.430300 
517.0000 127.136210 
517.5000 129.493590 
518.0000 112.759950 
518.5000 127.398240 
519.0000 119.385990 
519.5000 119.016280 
520.0000 118.859030 
520.5000 122.598840 
521.0000 119.628350 
521.5000 134.161900 
522.0000 128.791170 
522.5000 114.662210 
523.0000 114.769850 
523.5000 136.566720 
524.0000 106.874330 
524.5000 110.446220 
525.0000 110.244150 
525.5000 103.344750 
526.0000 110.276280 
526.5000 123.186950 
527.0000 83.887460 
527.5000 93.587540 
528.0000 101.943270 
528.5000 87.113760 
529.0000 87.400380 
529.5000 112.955550 
530.0000 110.424540 
530.5000 74.917130 
531.0000 98.805730 
531.5000 90.505530 
532.0000 99.738450 
532.5000 95.390060 
533.0000 112.895660 
533.5000 86.627280 
534.0000 93.338790 
534.5000 100.758010 
535.0000 95.892070 
535.5000 88.045340 
536.0000 85.946880 
536.5000 103.697210 
537.0000 97.388310 
537.5000 96.177920 
538.0000 95.597640 
538.5000 112.299730 
539.0000 115.031440 
539.5000 115.927480 
540.0000 87.232600 
540.5000 82.506950 
541.0000 81.348030 
541.5000 83.434580 
542.0000 93.790800 
542.5000 80.775240 
543.0000 95.420590 
543.5000 121.971530 
544.0000 88.460635 
544.5000 79.770189 
545.0000 104.542810 
545.5000 85.168680 
546.0000 89.081670 
546.5000 104.386900 
547.0000 90.390930 
547.5000 81.629920 
548.0000 91.834768 
548.5000 93.547669 
549.0000 89.979870 
549.5000 94.129190 
550.0000 62.246060 
550.5000 72.259170 
551.0000 96.399340 
551.5000 71.794990 
552.0000 78.620310 
552.5000 100.876780 
553.0000 86.759810 
553.5000 87.821720 
554.0000 75.000810 
554.5000 80.600480 
555.0000 87.158850 
555.5000 87.468140 
556.0000 106.025420 
556.5000 74.380990 
557.0000 72.197680 
557.5000 73.006191 
558.0000 95.597330 
558.5000 92.766770 
559.0000 93.190820 
559.5000 88.472030 
560.0000 81.049410 
560.5000 79.632690 
561.0000 85.610750 
561.5000 110.097450 
562.0000 101.439550 
562.5000 89.970079 
563.0000 103.333305 
563.5000 97.336880 
564.0000 83.086440 
564.5000 95.701320 
565.0000 100.298200 
565.5000 87.508830 
566.0000 84.267790 
566.5000 112.161160 
567.0000 93.778800 
567.5000 91.239280 
568.0000 75.498000 
568.5000 91.326803 
569.0000 75.464620 
569.5000 74.426310 
570.0000 80.918770 
570.5000 77.865470 
571.0000 90.124130 
571.5000 89.888800 
572.0000 77.279455 
572.5000 88.333670 
573.0000 78.788650 
573.5000 68.605530 
574.0000 77.606260 
574.5000 84.955390 
575.0000 73.549847 
575.5000 74.076020 
576.0000 120.473166 
576.5000 114.524720 
577.0000 97.453000 
577.5000 80.920740 
578.0000 80.886880 
578.5000 73.655550 
579.0000 80.593820 
579.5000 63.439650 
580.0000 82.282330 
580.5000 65.150160 
581.0000 73.635490 
581.5000 79.243920 
582.0000 69.387464 
582.5000 81.808080 
583.0000 88.315180 
583.5000 97.814890 
584.0000 80.642460 
584.5000 103.873440 
585.0000 68.387200 
585.5000 74.153620 
586.0000 97.251169 
586.5000 70.275095 
587.0000 88.376563 
587.5000 88.348440 
588.0000 72.192838 
588.5000 65.923150 
589.0000 76.214856 
589.5000 99.114610 
590.0000 86.543590 
590.5000 77.682840 
591.0000 92.314336 
591.5000 91.123140 
592.0000 68.550754 
592.5000 62.819180 
593.0000 73.385130 
593.5000 57.985010 
594.0000 57.106081 
594.5000 59.368860 
595.0000 72.615780 
595.5000 94.300120 
596.0000 71.772441 
596.5000 75.273280 
597.0000 70.536584 
597.5000 62.625008 
598.0000 66.127360 
598.5000 77.021200 
599.0000 61.802635 
599.5000 60.674180 
600.0000 55.794237 
600.5000 55.418490 
601.0000 54.654589 
601.5000 52.734649 
602.0000 63.361825 
602.5000 59.062934 
603.0000 95.850131 
603.5000 55.370320 
604.0000 66.038250 
604.5000 93.692123 
605.0000 63.399480 
605.5000 55.104053 
606.0000 66.170961 
606.5000 73.513799 
607.0000 68.558270 
607.5000 66.731408 
608.0000 62.830306 
608.5000 51.527591 
609.0000 52.261599 
609.5000 55.180340 
610.0000 64.922139 
610.5000 65.458900 
611.0000 59.475211 
611.5000 53.976319 
612.0000 71.318407 
612.5000 82.769169 
613.0000 61.458015 
613.5000 70.923270 
614.0000 85.032410 
614.5000 59.299436 
615.0000 69.634180 
615.5000 50.826866 
616.0000 51.356250 
616.5000 65.863783 
617.0000 52.055070 
617.5000 63.968700 
618.0000 76.896390 
618.5000 64.822991 
619.0000 56.683770 
619.5000 64.006110 
620.0000 63.131100 
620.5000 66.912760 
621.0000 47.679518 
621.5000 59.357956 
622.0000 52.234817 
622.5000 60.296947 
623.0000 54.716144 
623.5000 55.808100 
624.0000 56.404670 
624.5000 59.486290 
625.0000 62.958374 
625.5000 71.945296 
626.0000 63.731264 
626.5000 57.517040 
627.0000 65.756340 
627.5000 59.491633 
628.0000 55.690808 
628.5000 57.291010 
629.0000 57.099650 
629.5000 62.782779 
630.0000 52.231569 
630.5000 55.968424 
631.0000 52.803949 
631.5000 66.939950 
632.0000 50.432737 
632.5000 45.948170 
633.0000 49.411883 
633.5000 60.825146 
634.0000 48.517111 
634.5000 48.791598 
635.0000 43.939371 
635.5000 64.302024 
636.0000 48.154287 
636.5000 50.375845 
637.0000 48.471299 
637.5000 46.298144 
638.0000 42.359355 
638.5000 50.667668 
639.0000 49.118284 
639.5000 61.780321 
640.0000 48.721198 
640.5000 47.436092 
641.0000 59.406149 
641.5000 63.831282 
642.0000 72.709749 
642.5000 54.936840 
643.0000 64.459550 
643.5000 68.191169 
644.0000 49.571106 
644.5000 55.129950 
645.0000 51.005290 
645.5000 56.770011 
646.0000 56.378279 
646.5000 48.287958 
647.0000 48.618574 
647.5000 61.005151 
648.0000 43.207561 
648.5000 39.398708 
649.0000 65.410155 
649.5000 40.992602 
650.0000 55.511725 
650.5000 55.490320 
651.0000 45.850371 
651.5000 36.027012 
652.0000 46.886734 
652.5000 43.595295 
653.0000 46.075475 
653.5000 42.556602 
654.0000 45.400566 
654.5000 39.392841 
655.0000 48.000660 
655.5000 41.655903 
656.0000 42.893126 
656.5000 33.790545 
657.0000 61.193794 
657.5000 38.371777 
658.0000 41.627624 
658.5000 35.998677 
659.0000 50.614329 
659.5000 34.514399 
660.0000 48.785370 
660.5000 48.790305 
661.0000 37.460738 
661.5000 37.429281 
662.0000 48.896674 
662.5000 36.723470 
663.0000 39.264198 
663.5000 40.224278 
664.0000 48.643499 
664.5000 39.889584 
665.0000 51.212306 
665.5000 49.525268 
666.0000 62.052064 
666.5000 57.602256 
667.0000 49.925848 
667.5000 53.990248 
668.0000 43.386091 
668.5000 35.437150 
669.0000 38.611183 
669.5000 41.749966 
670.0000 55.511862 
670.5000 38.832590 
671.0000 49.398975 
671.5000 52.200502 
672.0000 40.726414 
672.5000 31.518800 
673.0000 36.209359 
673.5000 34.502256 
674.0000 37.774613 
674.5000 52.772374 
675.0000 43.694632 
675.5000 34.931005 
676.0000 37.085086 
676.5000 47.568700 
677.0000 46.339563 
677.5000 38.110989 
678.0000 33.252876 
678.5000 48.423660 
679.0000 32.958689 
679.5000 41.482756 
680.0000 31.320047 
680.5000 35.863150 
681.0000 39.282488 
681.5000 27.502067 
682.0000 31.418724 
682.5000 31.334346 
683.0000 38.633997 
683.5000 60.514278 
684.0000 33.517505 
684.5000 42.704825 
685.0000 37.649202 
685.5000 41.719984 
686.0000 52.763045 
686.5000 44.694897 
687.0000 49.205395 
687.5000 43.309537 
688.0000 45.021566 
688.5000 52.027565 
689.0000 43.065844 
689.5000 34.780198 
690.0000 44.113150 
690.5000 41.629823 
691.0000 49.391706 
691.5000 38.028301 
692.0000 35.062887 
692.5000 33.024235 
693.0000 28.760176 
693.5000 32.299137 
694.0000 35.570149 
694.5000 37.633135 
695.0000 36.268395 
695.5000 40.255074 
696.0000 47.776010 
696.5000 36.930572 
697.0000 38.522910 
697.5000 37.538698 
698.0000 33.972302 
698.5000 34.256514 
699.0000 32.440969 
699.5000 34.885694 
700.0000 43.748179 
700.5000 39.661852 
701.0000 29.194152 
701.5000 29.904631 
702.0000 28.847476 
702.5000 66.461391 
703.0000 27.854181 
703.5000 28.251452 
704.0000 41.231119 
704.5000 28.712774 
705.0000 34.806385 
705.5000 31.917800 
706.0000 41.379812 
706.5000 52.100960 
707.0000 39.687759 
707.5000 30.296777 
708.0000 31.373925 
708.5000 25.548742 
709.0000 33.331613 
709.5000 32.043320 
710.0000 27.388183 
710.5000 34.500998 
711.0000 32.733130 
711.5000 30.517159 
712.0000 49.025320 
712.5000 37.475021 
713.0000 32.840699 
713.5000 43.491235 
714.0000 31.083183 
714.5000 34.711997 
715.0000 34.411775 
715.5000 39.954944 
716.0000 31.297336 
716.5000 31.823772 
717.0000 28.122567 
717.5000 21.436536 
718.0000 26.186440 
718.5000 24.611891 
719.0000 24.626422 
719.5000 30.767270 
720.0000 48.351847 
720.5000 30.425543 
721.0000 33.875730 
721.5000 27.436047 
722.0000 29.046958 
722.5000 33.672961 
723.0000 31.112018 
723.5000 37.579223 
724.0000 31.776559 
724.5000 27.051368 
725.0000 26.939197 
725.5000 31.149821 
726.0000 28.311644 
726.5000 57.292237 
727.0000 26.926138 
727.5000 36.569827 
728.0000 29.145395 
728.5000 30.237687 
729.0000 35.959201 
729.5000 40.393678 
730.0000 52.777582 
730.5000 42.546309 
731.0000 38.608297 
731.5000 25.273411 
732.0000 24.962467 
732.5000 35.809573 
733.0000 30.988567 
733.5000 25.079429 
734.0000 29.282525 
734.5000 33.788458 
735.0000 31.093311 
735.5000 39.470630 
736.0000 38.121846 
736.5000 27.776347 
737.0000 27.647967 
737.5000 42.590304 
738.0000 27.344724 
738.5000 30.164724 
739.0000 44.300860 
739.5000 41.489127 
740.0000 45.010836 
740.5000 35.237078 
741.0000 41.363299 
741.5000 28.723345 
742.0000 33.602255 
742.5000 31.436236 
743.0000 24.265082 
743.5000 30.973784 
744.0000 38.614474 
744.5000 32.558597 
745.0000 24.329221 
745.5000 24.837771 
746.0000 30.657442 
746.5000 39.711337 
747.0000 22.508256 
747.5000 38.005941 
748.0000 20.204923 
748.5000 32.552591 
749.0000 39.741749 
749.5000 23.191051 
750.0000 19.074812 
750.5000 22.543714 
751.0000 24.511559 
751.5000 38.583378 
752.0000 21.776477 
752.5000 21.256910 
753.0000 28.991134 
753.5000 32.237222 
754.0000 25.881974 
754.5000 34.310210 
755.0000 39.999405 
755.5000 28.037226 
756.0000 31.799182 
756.5000 30.181884 
757.0000 22.530293 
757.5000 24.871377 
758.0000 25.833305 
758.5000 27.046286 
759.0000 27.549787 
759.5000 31.442729 
760.0000 32.138873 
760.5000 25.376880 
761.0000 35.481687 
761.5000 36.436100 
762.0000 47.034397 
762.5000 21.958675 
763.0000 24.623776 
763.5000 19.494553 
764.0000 36.750495 
764.5000 36.760578 
765.0000 39.220481 
765.5000 23.611687 
766.0000 25.184082 
766.5000 24.820386 
767.0000 36.415054 
767.5000 39.267931 
768.0000 22.466087 
768.5000 25.782685 
769.0000 23.142778 
769.5000 44.846949 
770.0000 24.537213 
770.5000 26.061573 
771.0000 30.705299 
771.5000 25.045991 
772.0000 35.877309 
772.5000 26.054458 
773.0000 23.341827 
773.5000 30.863476 
774.0000 23.329475 
774.5000 28.623828 
775.0000 26.771895 
775.5000 23.333593 
776.0000 19.501604 
776.5000 19.977916 
777.0000 21.359517 
777.5000 23.366013 
778.0000 23.574573 
778.5000 30.407519 
779.0000 29.773866 
779.5000 21.509505 
780.0000 17.994932 
780.5000 18.906550 
781.0000 20.001670 
781.5000 20.241496 
782.0000 19.097317 
782.5000 18.078074 
783.0000 19.753074 
783.5000 19.004186 
784.0000 21.468423 
784.5000 18.554756 
785.0000 16.729063 
785.5000 13.962015 
786.0000 18.251864 
786.5000 25.650390 
787.0000 20.983602 
787.5000 28.475178 
788.0000 22.135621 
788.5000 20.540451 
789.0000 23.311855 
789.5000 14.330433 
790.0000 23.631461 
790.5000 16.465394 
791.0000 22.835323 
791.5000 27.855998 
792.0000 19.721293 
792.5000 22.560669 
793.0000 20.630550 
793.5000 24.087758 
794.0000 19.095702 
794.5000 17.956167 
795.0000 21.139356 
795.5000 23.578636 
796.0000 33.277832 
796.5000 23.230827 
797.0000 21.329837 
797.5000 37.933951 
798.0000 24.389324 
798.5000 28.422433 
799.0000 22.501971 
799.5000 22.333603 
800.0000 24.919304 
800.5000 27.658166 
801.0000 26.648858 
801.5000 31.924505 
802.0000 24.145318 
802.5000 25.938955 
803.0000 18.652924 
803.5000 18.517901 
804.0000 20.277521 
804.5000 18.750768 
805.0000 22.066091 
805.5000 21.039936 
806.0000 21.049029 
806.5000 18.870051 
807.0000 15.704835 
807.5000 17.151295 
808.0000 15.923345 
808.5000 29.150291 
809.0000 20.321386 
809.5000 15.391606 
810.0000 18.192300 
810.5000 14.408027 
811.0000 35.777473 
811.5000 24.134457 
812.0000 16.595482 
812.5000 16.616865 
813.0000 15.225512 
813.5000 15.892297 
814.0000 19.663187 
814.5000 24.880214 
815.0000 19.079958 
815.5000 27.387038 
816.0000 20.802056 
816.5000 16.936258 
817.0000 14.770397 
817.5000 22.654539 
818.0000 25.245102 
818.5000 17.726253 
819.0000 22.288886 
819.5000 23.500636 
820.0000 18.713567 
820.5000 17.054819 
821.0000 23.678414 
821.5000 17.604506 
822.0000 19.899008 
822.5000 20.538913 
823.0000 18.253945 
823.5000 23.288533 
824.0000 19.110484 
824.5000 23.735507 
825.0000 25.540071 
825.5000 31.225333 
826.0000 23.077134 
826.5000 21.808292 
827.0000 20.139466 
827.5000 24.840758 
828.0000 41.036644 
828.5000 21.961744 
829.0000 16.384077 
829.5000 36.160699 
830.0000 18.665269 
830.5000 22.351127 
831.0000 15.994849 
831.5000 23.913728 
832.0000 19.556011 
832.5000 21.802903 
833.0000 18.951978 
833.5000 21.641809 
834.0000 20.778866 
834.5000 30.510100 
835.0000 17.536917 
835.5000 27.988032 
836.0000 20.312294 
836.5000 11.691487 
837.0000 13.947847 
837.5000 14.208405 
838.0000 17.568940 
838.5000 21.723788 
839.0000 22.306320 
839.5000 17.249348 
840.0000 16.132813 
840.5000 24.006782 
841.0000 22.852489 
841.5000 22.938692 
842.0000 24.451621 
842.5000 33.952216 
843.0000 16.930101 
843.5000 21.545916 
844.0000 14.434117 
844.5000 21.322629 
845.0000 14.029394 
845.5000 12.805133 
846.0000 13.270286 
846.5000 14.955044 
847.0000 19.970448 
847.5000 19.045582 
848.0000 14.343194 
848.5000 15.762306 
849.0000 13.940307 
849.5000 14.945764 
850.0000 16.331098 
850.5000 19.497925 
851.0000 14.058808 
851.5000 20.171437 
852.0000 12.840770 
852.5000 11.824872 
853.0000 15.673813 
853.5000 16.031004 
854.0000 11.908178 
854.5000 17.975135 
855.0000 13.961671 
855.5000 15.777750 
856.0000 14.176248 
856.5000 15.564333 
857.0000 16.453705 
857.5000 17.584475 
858.0000 20.745851 
858.5000 18.587470 
859.0000 18.409137 
859.5000 16.569954 
860.0000 15.890626 
860.5000 13.793270 
861.0000 18.831657 
861.5000 15.792799 
862.0000 21.455123 
862.5000 13.591940 
863.0000 15.513455 
863.5000 11.664915 
864.0000 14.454668 
864.5000 12.639519 
865.0000 12.166569 
865.5000 15.818378 
866.0000 25.531096 
866.5000 13.353936 
867.0000 13.577611 
867.5000 14.955692 
868.0000 14.959642 
868.5000 10.287309 
869.0000 13.953450 
869.5000 11.771788 
870.0000 17.705019 
870.5000 16.382831 
871.0000 11.475002 
871.5000 13.134108 
872.0000 18.201256 
872.5000 17.115085 
873.0000 13.121806 
873.5000 12.711510 
874.0000 14.827551 
874.5000 12.323100 
875.0000 13.500077 
875.5000 12.718144 
876.0000 12.879710 
876.5000 11.185390 
877.0000 11.524682 
877.5000 12.707817 
878.0000 13.836202 
878.5000 12.436601 
879.0000 14.407663 
879.5000 15.073915 
880.0000 15.579788 
880.5000 16.635407 
881.0000 10.402421 
881.5000 10.594696 
882.0000 11.627625 
882.5000 14.253187 
883.0000 21.536644 
883.5000 13.900530 
884.0000 12.669639 
884.5000 8.008668 
885.0000 9.225319 
885.5000 9.803007 
886.0000 12.784626 
886.5000 15.294425 
887.0000 18.490694 
887.5000 14.217171 
888.0000 10.709157 
888.5000 15.289922 
889.0000 14.695010 
889.5000 9.694169 
890.0000 9.945293 
890.5000 10.657321 
891.0000 8.742761 
891.5000 11.787274 
892.0000 13.342968 
892.5000 14.115213 
893.0000 21.085088 
893.5000 20.543672 
894.0000 18.917236 
894.5000 9.741070 
895.0000 13.266184 
895.5000 10.622527 
896.0000 9.592716 
896.5000 13.010012 
897.0000 11.940308 
897.5000 12.047460 
898.0000 10.214235 
898.5000 15.447310 
899.0000 14.811322 
899.5000 10.420151 
900.0000 14.194111 
900.5000 16.992715 
901.0000 16.005393 
901.5000 15.036705 
902.0000 12.379190 
902.5000 15.323375 
903.0000 13.089374 
903.5000 17.365813 
904.0000 13.062776 
904.5000 12.992996 
905.0000 14.801137 
905.5000 27.910919 
906.0000 21.181669 
906.5000 10.557120 
907.0000 15.727324 
907.5000 13.671029 
908.0000 13.412002 
908.5000 13.715289 
909.0000 11.694112 
909.5000 27.137871 
910.0000 25.695358 
910.5000 18.645977 
911.0000 9.721808 
911.5000 20.351478 
912.0000 10.532493 
912.5000 10.263749 
913.0000 11.224684 
913.5000 12.086398 
914.0000 15.602263 
914.5000 15.218838 
915.0000 10.496349 
915.5000 10.184406 
916.0000 11.656505 
916.5000 11.085251 
917.0000 13.077252 
917.5000 12.531997 
918.0000 12.101086 
918.5000 10.771672 
919.0000 10.195040 
919.5000 10.672196 
920.0000 13.246031 
920.5000 12.816668 
921.0000 15.637890 
921.5000 16.674649 
922.0000 19.948385 
922.5000 13.626856 
923.0000 11.541473 
923.5000 11.545566 
924.0000 10.657627 
924.5000 11.258876 
925.0000 8.934000 
925.5000 10.747397 
926.0000 9.988203 
926.5000 22.370774 
927.0000 19.520928 
927.5000 12.869030 
928.0000 20.900490 
928.5000 17.315038 
929.0000 14.288983 
929.5000 15.499850 
930.0000 14.004205 
930.5000 13.513008 
931.0000 14.058158 
931.5000 16.290841 
932.0000 9.817197 
932.5000 8.863143 
933.0000 7.492117 
933.5000 6.724287 
934.0000 10.209040 
934.5000 17.742651 
935.0000 18.590513 
935.5000 13.136548 
936.0000 12.129377 
936.5000 10.179067 
937.0000 11.290619 
937.5000 13.302070 
938.0000 25.680241 
938.5000 12.988414 
939.0000 20.005415 
939.5000 12.824344 
940.0000 13.359708 
940.5000 11.270790 
941.0000 9.097672 
941.5000 11.176147 
942.0000 10.015671 
942.5000 9.592701 
943.0000 9.048391 
943.5000 11.745504 
944.0000 11.526544 
944.5000 11.245165 
945.0000 13.184783 
945.5000 12.353370 
946.0000 10.803350 
946.5000 12.591084 
947.0000 13.420860 
947.5000 15.739681 
948.0000 20.824000 
948.5000 8.256515 
949.0000 6.162503 
949.5000 8.493322 
950.0000 7.073838 
950.5000 10.554476 
951.0000 8.688316 
951.5000 11.719189 
952.0000 8.028306 
952.5000 9.288149 
953.0000 9.572200 
953.5000 10.382700 
954.0000 37.250266 
954.5000 7.514694 
955.0000 9.044171 
955.5000 10.129806 
956.0000 10.217291 
956.5000 15.861622 
957.0000 10.968973 
957.5000 13.049792 
958.0000 12.314628 
958.5000 8.189154 
959.0000 8.277310 
959.5000 13.533468 
960.0000 12.194192 
960.5000 10.794176 
961.0000 9.585195 
961.5000 8.813291 
962.0000 14.184170 
962.5000 6.996365 
963.0000 7.799539 
963.5000 8.285915 
964.0000 8.009792 
964.5000 7.719488 
965.0000 9.853217 
965.5000 6.947566 
966.0000 6.340619 
966.5000 11.114870 
967.0000 11.248355 
967.5000 10.577349 
968.0000 8.511042 
968.5000 9.988486 
969.0000 10.081532 
969.5000 13.091000 
970.0000 10.973586 
970.5000 9.646589 
971.0000 27.541260 
971.5000 15.403275 
972.0000 13.855982 
972.5000 18.716215 
973.0000 10.473068 
973.5000 10.394136 
974.0000 8.861909 
974.5000 8.013245 
975.0000 9.680288 
975.5000 10.805479 
976.0000 10.306123 
976.5000 9.086282 
977.0000 6.904280 
977.5000 6.625318 
978.0000 10.798265 
978.5000 7.920968 
979.0000 8.545445 
979.5000 15.904812 
980.0000 11.557130 
980.5000 8.803390 
981.0000 4.854279 
981.5000 8.831397 
982.0000 4.877686 
982.5000 11.912920 
983.0000 10.535785 
983.5000 14.450712 
984.0000 18.771470 
984.5000 10.854308 
985.0000 14.711222 
985.5000 13.107384 
986.0000 16.394715 
986.5000 10.853841 
987.0000 11.807307 
987.5000 9.690838 
988.0000 9.408820 
988.5000 9.641622 
989.0000 9.666123 
989.5000 9.630516 
990.0000 15.453124 
990.5000 8.533489 
991.0000 8.666123 
991.5000 9.017001 
992.0000 14.674219 
992.5000 16.996004 
993.0000 6.720457 
993.5000 6.786587 
994.0000 10.294820 
994.5000 8.591040 
995.0000 7.940445 
995.5000 9.763674 
996.0000 9.922430 
996.5000 7.867025 
997.0000 8.382454 
997.5000 16.580483 
998.0000 6.598599 
998.5000 6.019870 
999.0000 6.173450 
999.5000 7.723750 
1000.0000 0.609976 
