%!PS-Adobe-2.0 EPSF-2.0
%%Title: ReportRBE.eps
%%Creator: gnuplot 4.4 patchlevel 3
%%CreationDate: Mon Mar 18 15:35:56 2013
%%DocumentFonts: (atend)
%%BoundingBox: 50 50 410 302
%%EndComments
%%BeginProlog
/gnudict 256 dict def
gnudict begin
%
% The following true/false flags may be edited by hand if desired.
% The unit line width and grayscale image gamma correction may also be changed.
%
/Color true def
/Blacktext false def
/Solid true def
/Dashlength 1 def
/Landscape false def
/Level1 false def
/Rounded false def
/ClipToBoundingBox false def
/TransparentPatterns false def
/gnulinewidth 5.000 def
/userlinewidth gnulinewidth def
/Gamma 1.0 def
%
/vshift -66 def
/dl1 {
  10.0 Dashlength mul mul
  Rounded { currentlinewidth 0.75 mul sub dup 0 le { pop 0.01 } if } if
} def
/dl2 {
  10.0 Dashlength mul mul
  Rounded { currentlinewidth 0.75 mul add } if
} def
/hpt_ 31.5 def
/vpt_ 31.5 def
/hpt hpt_ def
/vpt vpt_ def
Level1 {} {
/SDict 10 dict def
systemdict /pdfmark known not {
  userdict /pdfmark systemdict /cleartomark get put
} if
SDict begin [
  /Title (ReportRBE.eps)
  /Subject (gnuplot plot)
  /Creator (gnuplot 4.4 patchlevel 3)
  /Author (hfuchs)
%  /Producer (gnuplot)
%  /Keywords ()
  /CreationDate (Mon Mar 18 15:35:56 2013)
  /DOCINFO pdfmark
end
} ifelse
/doclip {
  ClipToBoundingBox {
    newpath 50 50 moveto 410 50 lineto 410 302 lineto 50 302 lineto closepath
    clip
  } if
} def
%
% Gnuplot Prolog Version 4.4 (August 2010)
%
%/SuppressPDFMark true def
%
/M {moveto} bind def
/L {lineto} bind def
/R {rmoveto} bind def
/V {rlineto} bind def
/N {newpath moveto} bind def
/Z {closepath} bind def
/C {setrgbcolor} bind def
/f {rlineto fill} bind def
/g {setgray} bind def
/Gshow {show} def   % May be redefined later in the file to support UTF-8
/vpt2 vpt 2 mul def
/hpt2 hpt 2 mul def
/Lshow {currentpoint stroke M 0 vshift R 
	Blacktext {gsave 0 setgray show grestore} {show} ifelse} def
/Rshow {currentpoint stroke M dup stringwidth pop neg vshift R
	Blacktext {gsave 0 setgray show grestore} {show} ifelse} def
/Cshow {currentpoint stroke M dup stringwidth pop -2 div vshift R 
	Blacktext {gsave 0 setgray show grestore} {show} ifelse} def
/UP {dup vpt_ mul /vpt exch def hpt_ mul /hpt exch def
  /hpt2 hpt 2 mul def /vpt2 vpt 2 mul def} def
/DL {Color {setrgbcolor Solid {pop []} if 0 setdash}
 {pop pop pop 0 setgray Solid {pop []} if 0 setdash} ifelse} def
/BL {stroke userlinewidth 2 mul setlinewidth
	Rounded {1 setlinejoin 1 setlinecap} if} def
/AL {stroke userlinewidth 2 div setlinewidth
	Rounded {1 setlinejoin 1 setlinecap} if} def
/UL {dup gnulinewidth mul /userlinewidth exch def
	dup 1 lt {pop 1} if 10 mul /udl exch def} def
/PL {stroke userlinewidth setlinewidth
	Rounded {1 setlinejoin 1 setlinecap} if} def
3.8 setmiterlimit
% Default Line colors
/LCw {1 1 1} def
/LCb {0 0 0} def
/LCa {0 0 0} def
/LC0 {1 0 0} def
/LC1 {0 1 0} def
/LC2 {0 0 1} def
/LC3 {1 0 1} def
/LC4 {0 1 1} def
/LC5 {1 1 0} def
/LC6 {0 0 0} def
/LC7 {1 0.3 0} def
/LC8 {0.5 0.5 0.5} def
% Default Line Types
/LTw {PL [] 1 setgray} def
/LTb {BL [] LCb DL} def
/LTa {AL [1 udl mul 2 udl mul] 0 setdash LCa setrgbcolor} def
/LT0 {PL [] LC0 DL} def
/LT1 {PL [4 dl1 2 dl2] LC1 DL} def
/LT2 {PL [2 dl1 3 dl2] LC2 DL} def
/LT3 {PL [1 dl1 1.5 dl2] LC3 DL} def
/LT4 {PL [6 dl1 2 dl2 1 dl1 2 dl2] LC4 DL} def
/LT5 {PL [3 dl1 3 dl2 1 dl1 3 dl2] LC5 DL} def
/LT6 {PL [2 dl1 2 dl2 2 dl1 6 dl2] LC6 DL} def
/LT7 {PL [1 dl1 2 dl2 6 dl1 2 dl2 1 dl1 2 dl2] LC7 DL} def
/LT8 {PL [2 dl1 2 dl2 2 dl1 2 dl2 2 dl1 2 dl2 2 dl1 4 dl2] LC8 DL} def
/Pnt {stroke [] 0 setdash gsave 1 setlinecap M 0 0 V stroke grestore} def
/Dia {stroke [] 0 setdash 2 copy vpt add M
  hpt neg vpt neg V hpt vpt neg V
  hpt vpt V hpt neg vpt V closepath stroke
  Pnt} def
/Pls {stroke [] 0 setdash vpt sub M 0 vpt2 V
  currentpoint stroke M
  hpt neg vpt neg R hpt2 0 V stroke
 } def
/Box {stroke [] 0 setdash 2 copy exch hpt sub exch vpt add M
  0 vpt2 neg V hpt2 0 V 0 vpt2 V
  hpt2 neg 0 V closepath stroke
  Pnt} def
/Crs {stroke [] 0 setdash exch hpt sub exch vpt add M
  hpt2 vpt2 neg V currentpoint stroke M
  hpt2 neg 0 R hpt2 vpt2 V stroke} def
/TriU {stroke [] 0 setdash 2 copy vpt 1.12 mul add M
  hpt neg vpt -1.62 mul V
  hpt 2 mul 0 V
  hpt neg vpt 1.62 mul V closepath stroke
  Pnt} def
/Star {2 copy Pls Crs} def
/BoxF {stroke [] 0 setdash exch hpt sub exch vpt add M
  0 vpt2 neg V hpt2 0 V 0 vpt2 V
  hpt2 neg 0 V closepath fill} def
/TriUF {stroke [] 0 setdash vpt 1.12 mul add M
  hpt neg vpt -1.62 mul V
  hpt 2 mul 0 V
  hpt neg vpt 1.62 mul V closepath fill} def
/TriD {stroke [] 0 setdash 2 copy vpt 1.12 mul sub M
  hpt neg vpt 1.62 mul V
  hpt 2 mul 0 V
  hpt neg vpt -1.62 mul V closepath stroke
  Pnt} def
/TriDF {stroke [] 0 setdash vpt 1.12 mul sub M
  hpt neg vpt 1.62 mul V
  hpt 2 mul 0 V
  hpt neg vpt -1.62 mul V closepath fill} def
/DiaF {stroke [] 0 setdash vpt add M
  hpt neg vpt neg V hpt vpt neg V
  hpt vpt V hpt neg vpt V closepath fill} def
/Pent {stroke [] 0 setdash 2 copy gsave
  translate 0 hpt M 4 {72 rotate 0 hpt L} repeat
  closepath stroke grestore Pnt} def
/PentF {stroke [] 0 setdash gsave
  translate 0 hpt M 4 {72 rotate 0 hpt L} repeat
  closepath fill grestore} def
/Circle {stroke [] 0 setdash 2 copy
  hpt 0 360 arc stroke Pnt} def
/CircleF {stroke [] 0 setdash hpt 0 360 arc fill} def
/C0 {BL [] 0 setdash 2 copy moveto vpt 90 450 arc} bind def
/C1 {BL [] 0 setdash 2 copy moveto
	2 copy vpt 0 90 arc closepath fill
	vpt 0 360 arc closepath} bind def
/C2 {BL [] 0 setdash 2 copy moveto
	2 copy vpt 90 180 arc closepath fill
	vpt 0 360 arc closepath} bind def
/C3 {BL [] 0 setdash 2 copy moveto
	2 copy vpt 0 180 arc closepath fill
	vpt 0 360 arc closepath} bind def
/C4 {BL [] 0 setdash 2 copy moveto
	2 copy vpt 180 270 arc closepath fill
	vpt 0 360 arc closepath} bind def
/C5 {BL [] 0 setdash 2 copy moveto
	2 copy vpt 0 90 arc
	2 copy moveto
	2 copy vpt 180 270 arc closepath fill
	vpt 0 360 arc} bind def
/C6 {BL [] 0 setdash 2 copy moveto
	2 copy vpt 90 270 arc closepath fill
	vpt 0 360 arc closepath} bind def
/C7 {BL [] 0 setdash 2 copy moveto
	2 copy vpt 0 270 arc closepath fill
	vpt 0 360 arc closepath} bind def
/C8 {BL [] 0 setdash 2 copy moveto
	2 copy vpt 270 360 arc closepath fill
	vpt 0 360 arc closepath} bind def
/C9 {BL [] 0 setdash 2 copy moveto
	2 copy vpt 270 450 arc closepath fill
	vpt 0 360 arc closepath} bind def
/C10 {BL [] 0 setdash 2 copy 2 copy moveto vpt 270 360 arc closepath fill
	2 copy moveto
	2 copy vpt 90 180 arc closepath fill
	vpt 0 360 arc closepath} bind def
/C11 {BL [] 0 setdash 2 copy moveto
	2 copy vpt 0 180 arc closepath fill
	2 copy moveto
	2 copy vpt 270 360 arc closepath fill
	vpt 0 360 arc closepath} bind def
/C12 {BL [] 0 setdash 2 copy moveto
	2 copy vpt 180 360 arc closepath fill
	vpt 0 360 arc closepath} bind def
/C13 {BL [] 0 setdash 2 copy moveto
	2 copy vpt 0 90 arc closepath fill
	2 copy moveto
	2 copy vpt 180 360 arc closepath fill
	vpt 0 360 arc closepath} bind def
/C14 {BL [] 0 setdash 2 copy moveto
	2 copy vpt 90 360 arc closepath fill
	vpt 0 360 arc} bind def
/C15 {BL [] 0 setdash 2 copy vpt 0 360 arc closepath fill
	vpt 0 360 arc closepath} bind def
/Rec {newpath 4 2 roll moveto 1 index 0 rlineto 0 exch rlineto
	neg 0 rlineto closepath} bind def
/Square {dup Rec} bind def
/Bsquare {vpt sub exch vpt sub exch vpt2 Square} bind def
/S0 {BL [] 0 setdash 2 copy moveto 0 vpt rlineto BL Bsquare} bind def
/S1 {BL [] 0 setdash 2 copy vpt Square fill Bsquare} bind def
/S2 {BL [] 0 setdash 2 copy exch vpt sub exch vpt Square fill Bsquare} bind def
/S3 {BL [] 0 setdash 2 copy exch vpt sub exch vpt2 vpt Rec fill Bsquare} bind def
/S4 {BL [] 0 setdash 2 copy exch vpt sub exch vpt sub vpt Square fill Bsquare} bind def
/S5 {BL [] 0 setdash 2 copy 2 copy vpt Square fill
	exch vpt sub exch vpt sub vpt Square fill Bsquare} bind def
/S6 {BL [] 0 setdash 2 copy exch vpt sub exch vpt sub vpt vpt2 Rec fill Bsquare} bind def
/S7 {BL [] 0 setdash 2 copy exch vpt sub exch vpt sub vpt vpt2 Rec fill
	2 copy vpt Square fill Bsquare} bind def
/S8 {BL [] 0 setdash 2 copy vpt sub vpt Square fill Bsquare} bind def
/S9 {BL [] 0 setdash 2 copy vpt sub vpt vpt2 Rec fill Bsquare} bind def
/S10 {BL [] 0 setdash 2 copy vpt sub vpt Square fill 2 copy exch vpt sub exch vpt Square fill
	Bsquare} bind def
/S11 {BL [] 0 setdash 2 copy vpt sub vpt Square fill 2 copy exch vpt sub exch vpt2 vpt Rec fill
	Bsquare} bind def
/S12 {BL [] 0 setdash 2 copy exch vpt sub exch vpt sub vpt2 vpt Rec fill Bsquare} bind def
/S13 {BL [] 0 setdash 2 copy exch vpt sub exch vpt sub vpt2 vpt Rec fill
	2 copy vpt Square fill Bsquare} bind def
/S14 {BL [] 0 setdash 2 copy exch vpt sub exch vpt sub vpt2 vpt Rec fill
	2 copy exch vpt sub exch vpt Square fill Bsquare} bind def
/S15 {BL [] 0 setdash 2 copy Bsquare fill Bsquare} bind def
/D0 {gsave translate 45 rotate 0 0 S0 stroke grestore} bind def
/D1 {gsave translate 45 rotate 0 0 S1 stroke grestore} bind def
/D2 {gsave translate 45 rotate 0 0 S2 stroke grestore} bind def
/D3 {gsave translate 45 rotate 0 0 S3 stroke grestore} bind def
/D4 {gsave translate 45 rotate 0 0 S4 stroke grestore} bind def
/D5 {gsave translate 45 rotate 0 0 S5 stroke grestore} bind def
/D6 {gsave translate 45 rotate 0 0 S6 stroke grestore} bind def
/D7 {gsave translate 45 rotate 0 0 S7 stroke grestore} bind def
/D8 {gsave translate 45 rotate 0 0 S8 stroke grestore} bind def
/D9 {gsave translate 45 rotate 0 0 S9 stroke grestore} bind def
/D10 {gsave translate 45 rotate 0 0 S10 stroke grestore} bind def
/D11 {gsave translate 45 rotate 0 0 S11 stroke grestore} bind def
/D12 {gsave translate 45 rotate 0 0 S12 stroke grestore} bind def
/D13 {gsave translate 45 rotate 0 0 S13 stroke grestore} bind def
/D14 {gsave translate 45 rotate 0 0 S14 stroke grestore} bind def
/D15 {gsave translate 45 rotate 0 0 S15 stroke grestore} bind def
/DiaE {stroke [] 0 setdash vpt add M
  hpt neg vpt neg V hpt vpt neg V
  hpt vpt V hpt neg vpt V closepath stroke} def
/BoxE {stroke [] 0 setdash exch hpt sub exch vpt add M
  0 vpt2 neg V hpt2 0 V 0 vpt2 V
  hpt2 neg 0 V closepath stroke} def
/TriUE {stroke [] 0 setdash vpt 1.12 mul add M
  hpt neg vpt -1.62 mul V
  hpt 2 mul 0 V
  hpt neg vpt 1.62 mul V closepath stroke} def
/TriDE {stroke [] 0 setdash vpt 1.12 mul sub M
  hpt neg vpt 1.62 mul V
  hpt 2 mul 0 V
  hpt neg vpt -1.62 mul V closepath stroke} def
/PentE {stroke [] 0 setdash gsave
  translate 0 hpt M 4 {72 rotate 0 hpt L} repeat
  closepath stroke grestore} def
/CircE {stroke [] 0 setdash 
  hpt 0 360 arc stroke} def
/Opaque {gsave closepath 1 setgray fill grestore 0 setgray closepath} def
/DiaW {stroke [] 0 setdash vpt add M
  hpt neg vpt neg V hpt vpt neg V
  hpt vpt V hpt neg vpt V Opaque stroke} def
/BoxW {stroke [] 0 setdash exch hpt sub exch vpt add M
  0 vpt2 neg V hpt2 0 V 0 vpt2 V
  hpt2 neg 0 V Opaque stroke} def
/TriUW {stroke [] 0 setdash vpt 1.12 mul add M
  hpt neg vpt -1.62 mul V
  hpt 2 mul 0 V
  hpt neg vpt 1.62 mul V Opaque stroke} def
/TriDW {stroke [] 0 setdash vpt 1.12 mul sub M
  hpt neg vpt 1.62 mul V
  hpt 2 mul 0 V
  hpt neg vpt -1.62 mul V Opaque stroke} def
/PentW {stroke [] 0 setdash gsave
  translate 0 hpt M 4 {72 rotate 0 hpt L} repeat
  Opaque stroke grestore} def
/CircW {stroke [] 0 setdash 
  hpt 0 360 arc Opaque stroke} def
/BoxFill {gsave Rec 1 setgray fill grestore} def
/Density {
  /Fillden exch def
  currentrgbcolor
  /ColB exch def /ColG exch def /ColR exch def
  /ColR ColR Fillden mul Fillden sub 1 add def
  /ColG ColG Fillden mul Fillden sub 1 add def
  /ColB ColB Fillden mul Fillden sub 1 add def
  ColR ColG ColB setrgbcolor} def
/BoxColFill {gsave Rec PolyFill} def
/PolyFill {gsave Density fill grestore grestore} def
/h {rlineto rlineto rlineto gsave closepath fill grestore} bind def
%
% PostScript Level 1 Pattern Fill routine for rectangles
% Usage: x y w h s a XX PatternFill
%	x,y = lower left corner of box to be filled
%	w,h = width and height of box
%	  a = angle in degrees between lines and x-axis
%	 XX = 0/1 for no/yes cross-hatch
%
/PatternFill {gsave /PFa [ 9 2 roll ] def
  PFa 0 get PFa 2 get 2 div add PFa 1 get PFa 3 get 2 div add translate
  PFa 2 get -2 div PFa 3 get -2 div PFa 2 get PFa 3 get Rec
  gsave 1 setgray fill grestore clip
  currentlinewidth 0.5 mul setlinewidth
  /PFs PFa 2 get dup mul PFa 3 get dup mul add sqrt def
  0 0 M PFa 5 get rotate PFs -2 div dup translate
  0 1 PFs PFa 4 get div 1 add floor cvi
	{PFa 4 get mul 0 M 0 PFs V} for
  0 PFa 6 get ne {
	0 1 PFs PFa 4 get div 1 add floor cvi
	{PFa 4 get mul 0 2 1 roll M PFs 0 V} for
 } if
  stroke grestore} def
%
/languagelevel where
 {pop languagelevel} {1} ifelse
 2 lt
	{/InterpretLevel1 true def}
	{/InterpretLevel1 Level1 def}
 ifelse
%
% PostScript level 2 pattern fill definitions
%
/Level2PatternFill {
/Tile8x8 {/PaintType 2 /PatternType 1 /TilingType 1 /BBox [0 0 8 8] /XStep 8 /YStep 8}
	bind def
/KeepColor {currentrgbcolor [/Pattern /DeviceRGB] setcolorspace} bind def
<< Tile8x8
 /PaintProc {0.5 setlinewidth pop 0 0 M 8 8 L 0 8 M 8 0 L stroke} 
>> matrix makepattern
/Pat1 exch def
<< Tile8x8
 /PaintProc {0.5 setlinewidth pop 0 0 M 8 8 L 0 8 M 8 0 L stroke
	0 4 M 4 8 L 8 4 L 4 0 L 0 4 L stroke}
>> matrix makepattern
/Pat2 exch def
<< Tile8x8
 /PaintProc {0.5 setlinewidth pop 0 0 M 0 8 L
	8 8 L 8 0 L 0 0 L fill}
>> matrix makepattern
/Pat3 exch def
<< Tile8x8
 /PaintProc {0.5 setlinewidth pop -4 8 M 8 -4 L
	0 12 M 12 0 L stroke}
>> matrix makepattern
/Pat4 exch def
<< Tile8x8
 /PaintProc {0.5 setlinewidth pop -4 0 M 8 12 L
	0 -4 M 12 8 L stroke}
>> matrix makepattern
/Pat5 exch def
<< Tile8x8
 /PaintProc {0.5 setlinewidth pop -2 8 M 4 -4 L
	0 12 M 8 -4 L 4 12 M 10 0 L stroke}
>> matrix makepattern
/Pat6 exch def
<< Tile8x8
 /PaintProc {0.5 setlinewidth pop -2 0 M 4 12 L
	0 -4 M 8 12 L 4 -4 M 10 8 L stroke}
>> matrix makepattern
/Pat7 exch def
<< Tile8x8
 /PaintProc {0.5 setlinewidth pop 8 -2 M -4 4 L
	12 0 M -4 8 L 12 4 M 0 10 L stroke}
>> matrix makepattern
/Pat8 exch def
<< Tile8x8
 /PaintProc {0.5 setlinewidth pop 0 -2 M 12 4 L
	-4 0 M 12 8 L -4 4 M 8 10 L stroke}
>> matrix makepattern
/Pat9 exch def
/Pattern1 {PatternBgnd KeepColor Pat1 setpattern} bind def
/Pattern2 {PatternBgnd KeepColor Pat2 setpattern} bind def
/Pattern3 {PatternBgnd KeepColor Pat3 setpattern} bind def
/Pattern4 {PatternBgnd KeepColor Landscape {Pat5} {Pat4} ifelse setpattern} bind def
/Pattern5 {PatternBgnd KeepColor Landscape {Pat4} {Pat5} ifelse setpattern} bind def
/Pattern6 {PatternBgnd KeepColor Landscape {Pat9} {Pat6} ifelse setpattern} bind def
/Pattern7 {PatternBgnd KeepColor Landscape {Pat8} {Pat7} ifelse setpattern} bind def
} def
%
%
%End of PostScript Level 2 code
%
/PatternBgnd {
  TransparentPatterns {} {gsave 1 setgray fill grestore} ifelse
} def
%
% Substitute for Level 2 pattern fill codes with
% grayscale if Level 2 support is not selected.
%
/Level1PatternFill {
/Pattern1 {0.250 Density} bind def
/Pattern2 {0.500 Density} bind def
/Pattern3 {0.750 Density} bind def
/Pattern4 {0.125 Density} bind def
/Pattern5 {0.375 Density} bind def
/Pattern6 {0.625 Density} bind def
/Pattern7 {0.875 Density} bind def
} def
%
% Now test for support of Level 2 code
%
Level1 {Level1PatternFill} {Level2PatternFill} ifelse
%
/Symbol-Oblique /Symbol findfont [1 0 .167 1 0 0] makefont
dup length dict begin {1 index /FID eq {pop pop} {def} ifelse} forall
currentdict end definefont pop
/MFshow {
   { dup 5 get 3 ge
     { 5 get 3 eq {gsave} {grestore} ifelse }
     {dup dup 0 get findfont exch 1 get scalefont setfont
     [ currentpoint ] exch dup 2 get 0 exch R dup 5 get 2 ne {dup dup 6
     get exch 4 get {Gshow} {stringwidth pop 0 R} ifelse }if dup 5 get 0 eq
     {dup 3 get {2 get neg 0 exch R pop} {pop aload pop M} ifelse} {dup 5
     get 1 eq {dup 2 get exch dup 3 get exch 6 get stringwidth pop -2 div
     dup 0 R} {dup 6 get stringwidth pop -2 div 0 R 6 get
     show 2 index {aload pop M neg 3 -1 roll neg R pop pop} {pop pop pop
     pop aload pop M} ifelse }ifelse }ifelse }
     ifelse }
   forall} def
/Gswidth {dup type /stringtype eq {stringwidth} {pop (n) stringwidth} ifelse} def
/MFwidth {0 exch { dup 5 get 3 ge { 5 get 3 eq { 0 } { pop } ifelse }
 {dup 3 get{dup dup 0 get findfont exch 1 get scalefont setfont
     6 get Gswidth pop add} {pop} ifelse} ifelse} forall} def
/MLshow { currentpoint stroke M
  0 exch R
  Blacktext {gsave 0 setgray MFshow grestore} {MFshow} ifelse } bind def
/MRshow { currentpoint stroke M
  exch dup MFwidth neg 3 -1 roll R
  Blacktext {gsave 0 setgray MFshow grestore} {MFshow} ifelse } bind def
/MCshow { currentpoint stroke M
  exch dup MFwidth -2 div 3 -1 roll R
  Blacktext {gsave 0 setgray MFshow grestore} {MFshow} ifelse } bind def
/XYsave    { [( ) 1 2 true false 3 ()] } bind def
/XYrestore { [( ) 1 2 true false 4 ()] } bind def
end
%%EndProlog
gnudict begin
gsave
doclip
50 50 translate
0.050 0.050 scale
0 setgray
newpath
(Helvetica) findfont 200 scalefont setfont
1.000 UL
LTb
1.000 UL
LTa
980 640 M
5859 0 V
stroke
LTb
980 640 M
63 0 V
5796 0 R
-63 0 V
stroke
860 640 M
[ [(Helvetica) 200.0 0.0 true true 0 ( 0)]
] -66.7 MRshow
1.000 UL
LTb
980 917 M
31 0 V
5828 0 R
-31 0 V
stroke
LTa
980 1195 M
5859 0 V
stroke
LTb
980 1195 M
63 0 V
5796 0 R
-63 0 V
stroke
860 1195 M
[ [(Helvetica) 200.0 0.0 true true 0 ( 0.2)]
] -66.7 MRshow
1.000 UL
LTb
980 1472 M
31 0 V
5828 0 R
-31 0 V
stroke
LTa
980 1749 M
5859 0 V
stroke
LTb
980 1749 M
63 0 V
5796 0 R
-63 0 V
stroke
860 1749 M
[ [(Helvetica) 200.0 0.0 true true 0 ( 0.4)]
] -66.7 MRshow
1.000 UL
LTb
980 2026 M
31 0 V
5828 0 R
-31 0 V
stroke
LTa
980 2304 M
5859 0 V
stroke
LTb
980 2304 M
63 0 V
5796 0 R
-63 0 V
stroke
860 2304 M
[ [(Helvetica) 200.0 0.0 true true 0 ( 0.6)]
] -66.7 MRshow
1.000 UL
LTb
980 2581 M
31 0 V
5828 0 R
-31 0 V
stroke
LTa
980 2858 M
5859 0 V
stroke
LTb
980 2858 M
63 0 V
5796 0 R
-63 0 V
stroke
860 2858 M
[ [(Helvetica) 200.0 0.0 true true 0 ( 0.8)]
] -66.7 MRshow
1.000 UL
LTb
980 3135 M
31 0 V
5828 0 R
-31 0 V
stroke
LTa
980 3413 M
5859 0 V
stroke
LTb
980 3413 M
63 0 V
5796 0 R
-63 0 V
stroke
860 3413 M
[ [(Helvetica) 200.0 0.0 true true 0 ( 1)]
] -66.7 MRshow
1.000 UL
LTb
980 3690 M
31 0 V
5828 0 R
-31 0 V
stroke
LTa
980 3967 M
120 0 V
2823 0 R
2916 0 V
stroke
LTb
980 3967 M
63 0 V
5796 0 R
-63 0 V
stroke
860 3967 M
[ [(Helvetica) 200.0 0.0 true true 0 ( 1.2)]
] -66.7 MRshow
1.000 UL
LTb
980 4244 M
31 0 V
5828 0 R
-31 0 V
stroke
LTa
980 4522 M
120 0 V
2823 0 R
2916 0 V
stroke
LTb
980 4522 M
63 0 V
5796 0 R
-63 0 V
stroke
860 4522 M
[ [(Helvetica) 200.0 0.0 true true 0 ( 1.4)]
] -66.7 MRshow
1.000 UL
LTb
980 4799 M
31 0 V
5828 0 R
-31 0 V
stroke
LTa
980 640 M
0 4159 V
stroke
LTb
980 640 M
0 63 V
0 4096 R
0 -63 V
stroke
980 440 M
[ [(Helvetica) 200.0 0.0 true true 0 ( 0)]
] -66.7 MCshow
1.000 UL
LTb
1214 640 M
0 31 V
0 4128 R
0 -31 V
1449 640 M
0 31 V
0 4128 R
0 -31 V
1683 640 M
0 31 V
0 4128 R
0 -31 V
1917 640 M
0 31 V
0 4128 R
0 -31 V
stroke
LTa
2152 640 M
0 3296 V
0 800 R
0 63 V
stroke
LTb
2152 640 M
0 63 V
0 4096 R
0 -63 V
stroke
2152 440 M
[ [(Helvetica) 200.0 0.0 true true 0 ( 5)]
] -66.7 MCshow
1.000 UL
LTb
2386 640 M
0 31 V
0 4128 R
0 -31 V
2621 640 M
0 31 V
0 4128 R
0 -31 V
2855 640 M
0 31 V
0 4128 R
0 -31 V
3089 640 M
0 31 V
0 4128 R
0 -31 V
stroke
LTa
3324 640 M
0 3296 V
0 800 R
0 63 V
stroke
LTb
3324 640 M
0 63 V
0 4096 R
0 -63 V
stroke
3324 440 M
[ [(Helvetica) 200.0 0.0 true true 0 ( 10)]
] -66.7 MCshow
1.000 UL
LTb
3558 640 M
0 31 V
0 4128 R
0 -31 V
3792 640 M
0 31 V
0 4128 R
0 -31 V
4027 640 M
0 31 V
0 4128 R
0 -31 V
4261 640 M
0 31 V
0 4128 R
0 -31 V
stroke
LTa
4495 640 M
0 4159 V
stroke
LTb
4495 640 M
0 63 V
0 4096 R
0 -63 V
stroke
4495 440 M
[ [(Helvetica) 200.0 0.0 true true 0 ( 15)]
] -66.7 MCshow
1.000 UL
LTb
4730 640 M
0 31 V
0 4128 R
0 -31 V
4964 640 M
0 31 V
0 4128 R
0 -31 V
5198 640 M
0 31 V
0 4128 R
0 -31 V
5433 640 M
0 31 V
0 4128 R
0 -31 V
stroke
LTa
5667 640 M
0 4159 V
stroke
LTb
5667 640 M
0 63 V
0 4096 R
0 -63 V
stroke
5667 440 M
[ [(Helvetica) 200.0 0.0 true true 0 ( 20)]
] -66.7 MCshow
1.000 UL
LTb
5902 640 M
0 31 V
0 4128 R
0 -31 V
6136 640 M
0 31 V
0 4128 R
0 -31 V
6370 640 M
0 31 V
0 4128 R
0 -31 V
6605 640 M
0 31 V
0 4128 R
0 -31 V
stroke
LTa
6839 640 M
0 4159 V
stroke
LTb
6839 640 M
0 63 V
0 4096 R
0 -63 V
stroke
6839 440 M
[ [(Helvetica) 200.0 0.0 true true 0 ( 25)]
] -66.7 MCshow
1.000 UL
LTb
1.000 UL
LTb
980 4799 N
980 640 L
5859 0 V
0 4159 V
-5859 0 V
Z stroke
LCb setrgbcolor
160 2719 M
currentpoint gsave translate -270 rotate 0 0 moveto
[ [(Helvetica) 200.0 0.0 true true 0 (Normalized Energy Depositition [a.u.])]
] -66.7 MCshow
grestore
LTb
LCb setrgbcolor
3909 140 M
[ [(Helvetica) 200.0 0.0 true true 0 (Penetration Depth [cm])]
] -66.7 MCshow
LTb
1.000 UP
1.000 UL
LTb
% Begin plot #1
3.000 UL
LTa
1.00 0.00 0.00 C LCb setrgbcolor
3140 4636 M
[ [(Helvetica) 200.0 0.0 true true 0 (Proton Phys. Dose)]
] -66.7 MRshow
LTa
1.00 0.00 0.00 C 3260 4636 M
543 0 V
980 1598 M
23 35 V
24 0 V
23 17 V
24 0 V
23 0 V
24 17 V
23 0 V
23 0 V
24 0 V
23 17 V
24 0 V
23 0 V
24 0 V
23 0 V
24 17 V
23 0 V
23 0 V
24 0 V
23 17 V
24 0 V
23 0 V
24 0 V
23 0 V
23 17 V
24 0 V
23 0 V
24 0 V
23 0 V
24 17 V
23 0 V
24 0 V
23 0 V
23 0 V
24 0 V
23 18 V
24 0 V
23 0 V
24 0 V
23 0 V
23 17 V
24 0 V
23 0 V
24 0 V
23 0 V
24 17 V
23 0 V
23 0 V
24 0 V
23 0 V
24 17 V
23 0 V
24 0 V
23 0 V
24 0 V
23 0 V
23 17 V
24 0 V
23 0 V
24 0 V
23 17 V
24 0 V
23 0 V
23 0 V
24 0 V
23 17 V
24 0 V
23 0 V
24 0 V
23 0 V
24 17 V
23 0 V
23 0 V
24 0 V
23 18 V
24 0 V
23 0 V
24 0 V
23 17 V
23 0 V
24 0 V
23 0 V
24 17 V
23 0 V
24 0 V
23 17 V
23 0 V
24 0 V
23 17 V
24 0 V
23 0 V
24 17 V
23 0 V
24 0 V
23 17 V
23 0 V
24 0 V
23 17 V
24 0 V
23 17 V
24 0 V
23 18 V
23 0 V
stroke 3370 2061 M
24 17 V
23 0 V
24 0 V
23 17 V
24 0 V
23 17 V
24 17 V
23 0 V
23 17 V
24 0 V
23 17 V
24 17 V
23 0 V
24 17 V
23 18 V
23 17 V
24 17 V
23 17 V
24 0 V
23 17 V
24 17 V
23 17 V
24 35 V
23 17 V
23 17 V
24 17 V
23 34 V
24 17 V
23 34 V
24 18 V
23 34 V
23 34 V
24 51 V
23 35 V
24 51 V
23 34 V
24 52 V
23 68 V
23 51 V
24 69 V
23 68 V
24 52 V
23 68 V
24 69 V
23 51 V
24 51 V
23 34 V
23 35 V
24 0 V
23 -17 V
24 -35 V
23 -51 V
24 -86 V
23 -102 V
23 -137 V
24 -137 V
23 -171 V
24 -171 V
23 -172 V
24 -188 V
23 -188 V
24 -171 V
23 -154 V
23 -154 V
24 -137 V
23 -137 V
24 -103 V
23 -85 V
24 -86 V
23 -69 V
23 -51 V
24 -34 V
23 -34 V
24 -35 V
23 -17 V
24 -17 V
23 0 V
23 -17 V
24 0 V
23 0 V
24 0 V
23 -17 V
24 0 V
23 0 V
24 0 V
23 0 V
23 0 V
24 0 V
23 0 V
24 0 V
23 0 V
24 0 V
23 0 V
23 0 V
24 0 V
23 0 V
24 0 V
23 0 V
24 0 V
23 0 V
24 0 V
23 0 V
23 0 V
24 0 V
stroke 5808 640 M
23 0 V
24 0 V
23 0 V
24 0 V
23 0 V
23 0 V
24 0 V
23 0 V
24 0 V
23 0 V
24 0 V
23 0 V
23 0 V
24 0 V
23 0 V
24 0 V
23 0 V
24 0 V
23 0 V
24 0 V
23 0 V
23 0 V
24 0 V
23 0 V
24 0 V
23 0 V
24 0 V
23 0 V
23 0 V
24 0 V
23 0 V
24 0 V
23 0 V
24 0 V
23 0 V
24 0 V
23 0 V
23 0 V
24 0 V
23 0 V
24 0 V
23 0 V
24 0 V
% End plot #1
% Begin plot #2
stroke
LT0
0.00 0.00 1.00 C LCb setrgbcolor
3140 4436 M
[ [(Helvetica) 200.0 0.0 true true 0 (Proton Biol. Dose)]
] -66.7 MRshow
LT0
0.00 0.00 1.00 C 3260 4436 M
543 0 V
980 1684 M
23 34 V
24 17 V
23 0 V
24 17 V
23 0 V
24 0 V
23 18 V
23 0 V
24 0 V
23 17 V
24 0 V
23 0 V
24 0 V
23 17 V
24 0 V
23 0 V
23 0 V
24 17 V
23 0 V
24 0 V
23 0 V
24 0 V
23 17 V
23 0 V
24 0 V
23 0 V
24 17 V
23 0 V
24 0 V
23 0 V
24 0 V
23 17 V
23 0 V
24 0 V
23 0 V
24 0 V
23 17 V
24 0 V
23 0 V
23 0 V
24 0 V
23 18 V
24 0 V
23 0 V
24 0 V
23 0 V
23 17 V
24 0 V
23 0 V
24 0 V
23 17 V
24 0 V
23 0 V
24 0 V
23 0 V
23 17 V
24 0 V
23 0 V
24 0 V
23 17 V
24 0 V
23 0 V
23 0 V
24 17 V
23 0 V
24 0 V
23 0 V
24 0 V
23 17 V
24 0 V
23 0 V
23 0 V
24 17 V
23 0 V
24 0 V
23 17 V
24 0 V
23 0 V
23 0 V
24 18 V
23 0 V
24 0 V
23 17 V
24 0 V
23 0 V
23 17 V
24 0 V
23 0 V
24 17 V
23 0 V
24 0 V
23 17 V
24 0 V
23 17 V
23 0 V
24 0 V
23 17 V
24 0 V
23 17 V
24 0 V
23 17 V
23 0 V
stroke 3370 2197 M
24 18 V
23 0 V
24 17 V
23 17 V
24 0 V
23 17 V
24 0 V
23 17 V
23 17 V
24 0 V
23 17 V
24 17 V
23 18 V
24 0 V
23 17 V
23 17 V
24 17 V
23 17 V
24 17 V
23 17 V
24 17 V
23 17 V
24 35 V
23 17 V
23 17 V
24 34 V
23 17 V
24 34 V
23 35 V
24 17 V
23 34 V
23 51 V
24 35 V
23 51 V
24 51 V
23 52 V
24 51 V
23 68 V
23 52 V
24 68 V
23 86 V
24 68 V
23 69 V
24 68 V
23 69 V
24 51 V
23 34 V
23 35 V
24 0 V
23 -18 V
24 -34 V
23 -68 V
24 -86 V
23 -120 V
23 -137 V
24 -171 V
23 -171 V
24 -188 V
23 -206 V
24 -188 V
23 -205 V
24 -188 V
23 -189 V
23 -154 V
24 -154 V
23 -137 V
24 -120 V
23 -102 V
24 -86 V
23 -68 V
23 -69 V
24 -34 V
23 -51 V
24 -17 V
23 -18 V
24 -17 V
23 -17 V
23 -17 V
24 0 V
23 0 V
24 0 V
23 -17 V
24 0 V
23 0 V
24 0 V
23 0 V
23 0 V
24 0 V
23 0 V
24 0 V
23 0 V
24 0 V
23 0 V
23 0 V
24 0 V
23 0 V
24 0 V
23 0 V
24 0 V
23 0 V
24 0 V
23 0 V
23 0 V
24 0 V
stroke 5808 640 M
23 0 V
24 0 V
23 0 V
24 0 V
23 0 V
23 0 V
24 0 V
23 0 V
24 0 V
23 0 V
24 0 V
23 0 V
23 0 V
24 0 V
23 0 V
24 0 V
23 0 V
24 0 V
23 0 V
24 0 V
23 0 V
23 0 V
24 0 V
23 0 V
24 0 V
23 0 V
24 0 V
23 0 V
23 0 V
24 0 V
23 0 V
24 0 V
23 0 V
24 0 V
23 0 V
24 0 V
23 0 V
23 0 V
24 0 V
23 0 V
24 0 V
23 0 V
24 0 V
% End plot #2
% Begin plot #3
stroke
LTa
0.00 1.00 0.00 C LCb setrgbcolor
3140 4236 M
[ [(Helvetica) 200.0 0.0 true true 0 (Helium Phys. Dose)]
] -66.7 MRshow
LTa
0.00 1.00 0.00 C 3260 4236 M
543 0 V
980 1389 M
23 17 V
24 4 V
23 0 V
24 4 V
23 3 V
24 0 V
23 4 V
23 0 V
24 3 V
23 0 V
24 4 V
23 3 V
24 0 V
23 4 V
24 0 V
23 3 V
23 4 V
24 0 V
23 3 V
24 4 V
23 0 V
24 3 V
23 4 V
23 0 V
24 3 V
23 4 V
24 4 V
23 0 V
24 3 V
23 4 V
24 0 V
23 3 V
23 4 V
24 3 V
23 4 V
24 0 V
23 3 V
24 4 V
23 3 V
23 4 V
24 0 V
23 3 V
24 4 V
23 3 V
24 4 V
23 3 V
23 4 V
24 4 V
23 3 V
24 4 V
23 3 V
24 4 V
23 3 V
24 4 V
23 3 V
23 4 V
24 3 V
23 4 V
24 3 V
23 4 V
24 3 V
23 4 V
23 4 V
24 3 V
23 7 V
24 4 V
23 3 V
24 4 V
23 7 V
24 3 V
23 4 V
23 3 V
24 7 V
23 4 V
24 7 V
23 4 V
24 7 V
23 3 V
23 7 V
24 4 V
23 7 V
24 3 V
23 7 V
24 7 V
23 4 V
23 7 V
24 7 V
23 7 V
24 4 V
23 7 V
24 7 V
23 7 V
24 7 V
23 7 V
23 7 V
24 11 V
23 7 V
24 7 V
23 7 V
24 11 V
23 7 V
23 10 V
stroke 3370 1816 M
24 7 V
23 11 V
24 10 V
23 11 V
24 11 V
23 10 V
24 11 V
23 10 V
23 11 V
24 14 V
23 11 V
24 14 V
23 14 V
24 14 V
23 14 V
23 14 V
24 15 V
23 17 V
24 18 V
23 17 V
24 18 V
23 18 V
24 21 V
23 21 V
23 25 V
24 25 V
23 24 V
24 25 V
23 32 V
24 32 V
23 31 V
23 36 V
24 39 V
23 42 V
24 49 V
23 50 V
24 56 V
23 60 V
23 64 V
24 71 V
23 74 V
24 74 V
23 81 V
24 78 V
23 78 V
24 67 V
23 60 V
23 49 V
24 32 V
23 11 V
24 -11 V
23 -35 V
24 -60 V
23 -89 V
23 -116 V
24 -134 V
23 -156 V
24 -173 V
23 -180 V
24 -191 V
23 -187 V
24 -184 V
23 -176 V
23 -166 V
24 -152 V
23 -134 V
24 -120 V
23 -103 V
24 -85 V
23 -74 V
23 -56 V
24 -50 V
23 -35 V
24 -28 V
23 -21 V
24 -18 V
23 -11 V
23 -10 V
24 -4 V
23 -7 V
24 0 V
23 -3 V
24 0 V
23 -4 V
24 0 V
23 0 V
23 0 V
24 0 V
23 0 V
24 0 V
23 0 V
24 0 V
23 0 V
23 0 V
24 0 V
23 0 V
24 0 V
23 0 V
24 0 V
23 0 V
24 0 V
23 0 V
23 0 V
24 0 V
stroke 5808 640 M
23 0 V
24 0 V
23 0 V
24 0 V
23 0 V
23 0 V
24 0 V
23 0 V
24 0 V
23 0 V
24 0 V
23 0 V
23 0 V
24 0 V
23 0 V
24 0 V
23 0 V
24 0 V
23 0 V
24 0 V
23 0 V
23 0 V
24 0 V
23 0 V
24 0 V
23 0 V
24 0 V
23 0 V
23 0 V
24 0 V
23 0 V
24 0 V
23 0 V
24 0 V
23 0 V
24 0 V
23 0 V
23 0 V
24 0 V
23 0 V
24 0 V
23 0 V
24 0 V
% End plot #3
% Begin plot #4
stroke
LT0
0.65 0.16 0.16 C LCb setrgbcolor
3140 4036 M
[ [(Helvetica) 200.0 0.0 true true 0 (Helium Biol. Dose)]
] -66.7 MRshow
LT0
0.65 0.16 0.16 C 3260 4036 M
543 0 V
980 1463 M
23 21 V
24 4 V
23 0 V
24 3 V
23 0 V
24 4 V
23 3 V
23 0 V
24 4 V
23 3 V
24 0 V
23 4 V
24 3 V
23 0 V
24 4 V
23 3 V
23 0 V
24 4 V
23 4 V
24 3 V
23 0 V
24 4 V
23 3 V
23 4 V
24 0 V
23 3 V
24 4 V
23 3 V
24 0 V
23 4 V
24 3 V
23 4 V
23 3 V
24 4 V
23 0 V
24 3 V
23 4 V
24 4 V
23 3 V
23 4 V
24 3 V
23 4 V
24 3 V
23 4 V
24 3 V
23 4 V
23 3 V
24 4 V
23 3 V
24 4 V
23 3 V
24 4 V
23 4 V
24 3 V
23 4 V
23 3 V
24 7 V
23 4 V
24 3 V
23 4 V
24 3 V
23 7 V
23 4 V
24 3 V
23 4 V
24 7 V
23 4 V
24 7 V
23 3 V
24 4 V
23 7 V
23 3 V
24 7 V
23 4 V
24 7 V
23 3 V
24 8 V
23 7 V
23 3 V
24 7 V
23 7 V
24 4 V
23 7 V
24 7 V
23 7 V
23 7 V
24 7 V
23 7 V
24 7 V
23 7 V
24 7 V
23 7 V
24 7 V
23 11 V
23 7 V
24 7 V
23 11 V
24 7 V
23 10 V
24 11 V
23 7 V
23 11 V
stroke 3370 1933 M
24 10 V
23 11 V
24 11 V
23 10 V
24 11 V
23 14 V
24 10 V
23 11 V
23 14 V
24 14 V
23 14 V
24 15 V
23 14 V
24 14 V
23 17 V
23 15 V
24 17 V
23 18 V
24 21 V
23 18 V
24 21 V
23 21 V
24 21 V
23 25 V
23 25 V
24 28 V
23 28 V
24 29 V
23 31 V
24 368 V
23 46 V
23 46 V
24 49 V
23 56 V
24 61 V
23 67 V
24 70 V
23 78 V
23 85 V
24 92 V
23 95 V
24 99 V
23 102 V
24 103 V
23 99 V
24 91 V
23 78 V
23 64 V
24 42 V
23 14 V
24 -14 V
23 -46 V
24 -81 V
23 -113 V
23 -148 V
24 -177 V
23 -205 V
24 -222 V
23 -237 V
24 -244 V
23 -247 V
24 -237 V
23 -229 V
23 -216 V
24 -197 V
23 -177 V
24 -156 V
23 -134 V
24 -109 V
23 -96 V
23 -74 V
24 -60 V
23 -49 V
24 -39 V
23 -28 V
24 -22 V
23 -14 V
23 -10 V
24 -7 V
23 -7 V
24 -4 V
23 -3 V
24 0 V
23 0 V
24 -4 V
23 0 V
23 0 V
24 0 V
23 0 V
24 0 V
23 0 V
24 0 V
23 0 V
23 0 V
24 0 V
23 0 V
24 0 V
23 0 V
24 0 V
23 0 V
24 0 V
23 0 V
23 0 V
24 0 V
stroke 5808 640 M
23 0 V
24 0 V
23 0 V
24 0 V
23 0 V
23 0 V
24 0 V
23 0 V
24 0 V
23 0 V
24 0 V
23 0 V
23 0 V
24 0 V
23 0 V
24 0 V
23 0 V
24 0 V
23 0 V
24 0 V
23 0 V
23 0 V
24 0 V
23 0 V
24 0 V
23 0 V
24 0 V
23 0 V
23 0 V
24 0 V
23 0 V
24 0 V
23 0 V
24 0 V
23 0 V
24 0 V
23 0 V
23 0 V
24 0 V
23 0 V
24 0 V
23 0 V
24 0 V
% End plot #4
stroke
1.000 UL
LTb
980 4799 N
980 640 L
5859 0 V
0 4159 V
-5859 0 V
Z stroke
1.000 UP
1.000 UL
LTb
stroke
grestore
end
showpage
%%Trailer
%%DocumentFonts: Helvetica
